1.00 1.16     5.585   0.030   0.084  0.251      2      0     0      0        0      0     0  
1.16 1.33     5.673   0.019   0.062  0.203      2      0     0      0        0      0     0  
1.33 1.51     5.592   0.017   0.047  0.161      2      0     0      0        0      0     0  
1.51 1.71     5.393   0.012   0.038  0.141      2      0     0      0        0      0     0  
1.71 1.92     5.037   0.011   0.031  0.119      2      0     0      0        0      0     0  
1.92 2.15     4.601   0.009   0.025  0.099      2     5.552   0.035    0.051  0.122      1     8.287    0.055   0.089  0.244  
2.15 2.40     4.119   0.008   0.021  0.083      2     5.194   0.030    0.040  0.100      1     7.929    0.048   0.073  0.209  
2.40 2.67     3.656   0.006   0.017  0.069      2     4.870   0.026    0.035  0.086      1     7.508    0.042   0.064  0.182  
2.67 2.97     3.192   0.005   0.015  0.056      2     4.433   0.022    0.030  0.074      1     7.202    0.038   0.060  0.165  
2.97 3.29     2.751   0.005   0.013  0.046      2     3.977   0.019    0.025  0.064      1     6.917    0.034   0.054  0.152  
3.29 3.64     2.353   0.004   0.011  0.038      2     3.494   0.016    0.020  0.055      1     6.735    0.032   0.051  0.144  
3.64 4.02     1.991   0.003   0.010  0.032      2     3.014   0.013    0.016  0.047      1     6.607    0.031   0.048  0.138  
4.02 4.43     1.671   0.003   0.008  0.026      2     2.567   0.011    0.013  0.039      1     6.512    0.029   0.046  0.132  
4.43 4.88     1.393   0.002   0.007  0.021      2     2.197   0.009    0.011  0.033      1     6.342    0.027   0.043  0.127  
4.88 5.37     1.148   0.002   0.005  0.017      2     1.829   0.007    0.008  0.027      1     6.281    0.027   0.041  0.123  
5.37 5.90     9.442   0.014   0.040  0.135      1     1.525   0.006    0.007  0.023      1     6.194    0.026   0.038  0.119  
5.90 6.47     7.707   0.012   0.031  0.109      1     1.266   0.005    0.006  0.018      1     6.088    0.026   0.036  0.115  
6.47 7.09     6.288   0.009   0.025  0.088      1     1.048   0.004    0.005  0.015      1     6.000    0.025   0.035  0.112  
7.09 7.76     5.116   0.008   0.020  0.071      1     8.672   0.034    0.038  0.127      0     5.900    0.025   0.035  0.109  
7.76 8.48     4.150   0.006   0.016  0.058      1     7.076   0.028    0.032  0.103      0     5.865    0.025   0.035  0.108  
8.48 9.26     3.358   0.005   0.013  0.046      1     5.806   0.024    0.027  0.085      0     5.785    0.026   0.035  0.106  
9.26 10.1     2.709   0.005   0.011  0.037      1     4.733   0.020    0.023  0.069      0     5.724    0.026   0.036  0.105  
10.1 11.0     2.184   0.004   0.009  0.030      1     3.864   0.017    0.019  0.056      0     5.652    0.027   0.037  0.103  
11.0 12.0     1.750   0.003   0.007  0.024      1     3.109   0.015    0.016  0.046      0     5.629    0.028   0.038  0.103  
12.0 13.0     1.413   0.003   0.006  0.019      1     2.562   0.013    0.014  0.038      0     5.516    0.030   0.038  0.102  
13.0 14.1     1.146   0.002   0.005  0.016      1     2.118   0.011    0.012  0.031      0     5.413    0.030   0.039  0.101  
14.1 15.3     9.223   0.020   0.044  0.131      0     1.714   0.009    0.010  0.025      0     5.382    0.031   0.041  0.100  
15.3 16.6     7.458   0.016   0.036  0.107      0     1.387   0.008    0.009  0.021      0     5.378    0.032   0.043  0.101  
16.6 18.0     5.984   0.014   0.030  0.087      0     1.140   0.006    0.008  0.018      0     5.249    0.032   0.044  0.100  
18.0 19.5     4.817   0.011   0.025  0.071      0     9.223   0.054    0.064  0.142      -1     5.223    0.033   0.045  0.100  
19.5 21.1     3.882   0.009   0.021  0.058      0     7.535   0.045    0.055  0.117      -1     5.152    0.033   0.046  0.099  
21.1 22.8     3.144   0.008   0.017  0.048      0     6.080   0.038    0.045  0.095      -1     5.171    0.034   0.048  0.100  
22.8 24.7     2.516   0.006   0.014  0.038      0     5.011   0.031    0.038  0.078      -1     5.022    0.034   0.047  0.098  
24.7 26.7     2.027   0.005   0.012  0.031      0     4.059   0.027    0.031  0.064      -1     4.994    0.036   0.048  0.098  
26.7 28.8     1.645   0.005   0.010  0.025      0     3.351   0.023    0.026  0.053      -1     4.908    0.037   0.049  0.097  
28.8 31.1     1.329   0.004   0.008  0.021      0     2.692   0.020    0.022  0.043      -1     4.939    0.040   0.050  0.098  
31.1 33.5     1.081   0.004   0.007  0.017      0     2.229   0.018    0.018  0.036      -1     4.850    0.042   0.051  0.097  
33.5 36.1     8.726   0.030   0.057  0.136      -1     1.845   0.016    0.016  0.030      -1     4.730    0.043   0.051  0.096  
36.1 38.9     7.080   0.026   0.048  0.111      -1     1.518   0.014    0.013  0.025      -1     4.663    0.045   0.051  0.095  
38.9 41.9     5.774   0.023   0.040  0.091      -1     1.210   0.012    0.011  0.020      -1     4.773    0.050   0.054  0.099  
41.9 45.1     4.719   0.020   0.033  0.075      -1     9.988   0.102    0.091  0.167      -2     4.725    0.052   0.055  0.098  
45.1 48.5     3.811   0.017   0.028  0.061      -1     8.152   0.089    0.076  0.137      -2     4.675    0.055   0.055  0.098  
48.5 52.2     3.138   0.015   0.023  0.052      -1     6.468   0.076    0.062  0.110      -2     4.851    0.062   0.059  0.103  
52.2 56.1     2.564   0.013   0.020  0.043      -1     5.442   0.068    0.053  0.093      -2     4.712    0.063   0.058  0.100  
56.1 60.3     2.099   0.012   0.016  0.036      -1     4.461   0.059    0.044  0.077      -2     4.704    0.067   0.059  0.101  
