1.00 1.16     4.166   0.024   0.067  0.189      2      0     0      0        0      0     0  
1.16 1.33     4.401   0.017   0.051  0.158      2      0     0      0        0      0     0  
1.33 1.51     4.566   0.015   0.040  0.132      2      0     0      0        0      0     0  
1.51 1.71     4.535   0.011   0.032  0.119      2      0     0      0        0      0     0  
1.71 1.92     4.367   0.010   0.027  0.103      2      0     0      0        0      0     0  
1.92 2.15     4.105   0.008   0.022  0.089      2     4.823   0.032    0.056  0.111      1     8.511    0.060   0.108  0.257  
2.15 2.40     3.750   0.007   0.018  0.075      2     4.755   0.029    0.046  0.096      1     7.887    0.050   0.086  0.213  
2.40 2.67     3.391   0.006   0.016  0.064      2     4.500   0.025    0.042  0.084      1     7.535    0.044   0.079  0.189  
2.67 2.97     3.016   0.005   0.013  0.053      2     4.120   0.021    0.038  0.073      1     7.320    0.040   0.075  0.173  
2.97 3.29     2.628   0.004   0.011  0.044      2     3.803   0.018    0.030  0.063      1     6.909    0.035   0.062  0.155  
3.29 3.64     2.271   0.004   0.010  0.037      2     3.352   0.015    0.022  0.054      1     6.773    0.033   0.054  0.146  
3.64 4.02     1.939   0.003   0.009  0.031      2     2.900   0.013    0.018  0.046      1     6.686    0.032   0.051  0.140  
4.02 4.43     1.642   0.003   0.007  0.025      2     2.510   0.011    0.015  0.039      1     6.545    0.030   0.049  0.134  
4.43 4.88     1.378   0.002   0.006  0.021      2     2.152   0.009    0.013  0.033      1     6.404    0.028   0.047  0.129  
4.88 5.37     1.140   0.002   0.005  0.016      2     1.806   0.007    0.010  0.027      1     6.314    0.027   0.045  0.126  
5.37 5.90     9.391   0.014   0.038  0.134      1     1.515   0.006    0.008  0.023      1     6.197    0.026   0.042  0.121  
5.90 6.47     7.721   0.011   0.030  0.108      1     1.271   0.005    0.007  0.019      1     6.077    0.025   0.041  0.116  
6.47 7.09     6.300   0.009   0.024  0.088      1     1.045   0.004    0.006  0.016      1     6.028    0.025   0.040  0.114  
7.09 7.76     5.128   0.008   0.019  0.071      1     8.676   0.034    0.047  0.130      0     5.910    0.025   0.039  0.111  
7.76 8.48     4.154   0.006   0.015  0.057      1     7.088   0.028    0.038  0.105      0     5.861    0.025   0.038  0.109  
8.48 9.26     3.370   0.005   0.013  0.046      1     5.882   0.024    0.033  0.088      0     5.729    0.025   0.038  0.106  
9.26 10.1     2.726   0.005   0.010  0.037      1     4.778   0.021    0.027  0.072      0     5.704    0.026   0.039  0.106  
10.1 11.0     2.192   0.004   0.009  0.030      1     3.881   0.018    0.023  0.058      0     5.647    0.027   0.040  0.104  
11.0 12.0     1.762   0.003   0.007  0.024      1     3.163   0.015    0.020  0.048      0     5.571    0.028   0.041  0.103  
12.0 13.0     1.416   0.003   0.006  0.019      1     2.588   0.013    0.017  0.040      0     5.474    0.030   0.042  0.103  
13.0 14.1     1.149   0.002   0.005  0.016      1     2.108   0.011    0.015  0.032      0     5.453    0.031   0.044  0.103  
14.1 15.3     9.275   0.019   0.041  0.131      0     1.736   0.009    0.013  0.026      0     5.342    0.031   0.045  0.102  
15.3 16.6     7.451   0.016   0.034  0.106      0     1.401   0.008    0.011  0.022      0     5.318    0.032   0.047  0.102  
16.6 18.0     5.990   0.013   0.028  0.087      0     1.126   0.006    0.009  0.018      0     5.321    0.033   0.049  0.104  
18.0 19.5     4.823   0.011   0.024  0.071      0     9.342   0.054    0.078  0.150      -1     5.162    0.032   0.050  0.101  
19.5 21.1     3.871   0.009   0.019  0.058      0     7.527   0.045    0.065  0.122      -1     5.144    0.033   0.051  0.101  
21.1 22.8     3.121   0.008   0.016  0.047      0     6.197   0.038    0.054  0.101      -1     5.036    0.033   0.051  0.100  
22.8 24.7     2.515   0.006   0.013  0.038      0     5.014   0.031    0.044  0.082      -1     5.015    0.034   0.052  0.100  
24.7 26.7     2.022   0.005   0.011  0.031      0     4.087   0.027    0.037  0.067      -1     4.947    0.035   0.052  0.099  
26.7 28.8     1.640   0.005   0.009  0.025      0     3.320   0.024    0.030  0.054      -1     4.940    0.038   0.053  0.099  
28.8 31.1     1.321   0.004   0.008  0.020      0     2.708   0.020    0.025  0.045      -1     4.880    0.039   0.053  0.099  
31.1 33.5     1.071   0.003   0.006  0.017      0     2.213   0.018    0.021  0.037      -1     4.840    0.042   0.054  0.099  
33.5 36.1     8.698   0.030   0.053  0.134      -1     1.835   0.016    0.018  0.031      -1     4.740    0.043   0.055  0.098  
36.1 38.9     7.059   0.026   0.044  0.109      -1     1.510   0.014    0.015  0.026      -1     4.674    0.045   0.055  0.098  
38.9 41.9     5.766   0.023   0.037  0.090      -1     1.214   0.012    0.013  0.021      -1     4.752    0.050   0.058  0.101  
41.9 45.1     4.664   0.020   0.031  0.073      -1     9.946   0.103    0.107  0.175      -2     4.690    0.052   0.059  0.100  
45.1 48.5     3.819   0.017   0.026  0.061      -1     8.044   0.089    0.090  0.144      -2     4.748    0.057   0.062  0.103  
48.5 52.2     3.107   0.015   0.021  0.050      -1     6.628   0.077    0.077  0.121      -2     4.687    0.059   0.063  0.103  
52.2 56.1     2.529   0.013   0.018  0.042      -1     5.411   0.068    0.065  0.100      -2     4.674    0.063   0.065  0.104  
56.1 60.3     2.059   0.011   0.015  0.034      -1     4.456   0.059    0.056  0.084      -2     4.620    0.066   0.067  0.105  
