1.00 1.16     6.666   0.037   0.108  0.302      2      0     0      0        0      0     0  
1.16 1.33     6.618   0.023   0.078  0.238      2      0     0      0        0      0     0  
1.33 1.51     6.383   0.020   0.058  0.185      2      0     0      0        0      0     0  
1.51 1.71     5.906   0.014   0.044  0.155      2      0     0      0        0      0     0  
1.71 1.92     5.412   0.012   0.035  0.129      2      0     0      0        0      0     0  
1.92 2.15     4.836   0.010   0.028  0.105      2     5.718   0.038    0.056  0.128      1     8.458    0.059   0.097  0.251  
2.15 2.40     4.235   0.008   0.023  0.085      2     5.373   0.033    0.045  0.105      1     7.882    0.051   0.078  0.210  
2.40 2.67     3.700   0.007   0.019  0.070      2     4.971   0.028    0.038  0.088      1     7.443    0.044   0.068  0.182  
2.67 2.97     3.177   0.006   0.016  0.056      2     4.490   0.023    0.033  0.076      1     7.076    0.039   0.063  0.163  
2.97 3.29     2.719   0.005   0.013  0.046      2     3.917   0.019    0.027  0.064      1     6.942    0.036   0.058  0.154  
3.29 3.64     2.307   0.004   0.011  0.037      2     3.400   0.016    0.021  0.054      1     6.784    0.034   0.054  0.146  
3.64 4.02     1.938   0.003   0.010  0.031      2     2.942   0.014    0.017  0.046      1     6.589    0.032   0.051  0.138  
4.02 4.43     1.621   0.003   0.008  0.025      2     2.514   0.011    0.014  0.039      1     6.448    0.030   0.048  0.132  
4.43 4.88     1.347   0.002   0.007  0.021      2     2.111   0.009    0.011  0.032      1     6.377    0.029   0.046  0.129  
4.88 5.37     1.109   0.002   0.005  0.016      2     1.784   0.007    0.009  0.027      1     6.216    0.027   0.042  0.123  
5.37 5.90     9.059   0.014   0.040  0.130      1     1.468   0.006    0.007  0.022      1     6.172    0.027   0.040  0.119  
5.90 6.47     7.399   0.012   0.031  0.105      1     1.223   0.005    0.006  0.018      1     6.049    0.026   0.038  0.115  
6.47 7.09     6.046   0.009   0.025  0.085      1     1.008   0.004    0.005  0.015      1     6.000    0.026   0.037  0.113  
7.09 7.76     4.912   0.008   0.020  0.068      1     8.351   0.034    0.038  0.123      0     5.882    0.025   0.036  0.109  
7.76 8.48     3.992   0.006   0.016  0.056      1     6.805   0.028    0.032  0.099      0     5.867    0.026   0.036  0.108  
8.48 9.26     3.238   0.005   0.013  0.045      1     5.581   0.024    0.027  0.082      0     5.801    0.026   0.037  0.107  
9.26 10.1     2.613   0.004   0.011  0.036      1     4.601   0.020    0.023  0.068      0     5.679    0.027   0.037  0.104  
10.1 11.0     2.119   0.004   0.009  0.029      1     3.759   0.017    0.020  0.055      0     5.637    0.028   0.038  0.103  
11.0 12.0     1.708   0.003   0.007  0.023      1     3.044   0.014    0.017  0.045      0     5.610    0.029   0.039  0.103  
12.0 13.0     1.375   0.003   0.006  0.019      1     2.496   0.013    0.014  0.037      0     5.507    0.030   0.040  0.102  
13.0 14.1     1.118   0.002   0.005  0.016      1     2.033   0.011    0.012  0.030      0     5.502    0.031   0.041  0.103  
14.1 15.3     9.047   0.019   0.044  0.129      0     1.659   0.009    0.010  0.024      0     5.454    0.032   0.043  0.102  
15.3 16.6     7.279   0.016   0.036  0.105      0     1.368   0.008    0.009  0.021      0     5.322    0.032   0.044  0.101  
16.6 18.0     5.858   0.013   0.030  0.085      0     1.110   0.006    0.008  0.017      0     5.279    0.033   0.045  0.101  
18.0 19.5     4.724   0.011   0.025  0.070      0     9.050   0.053    0.065  0.140      -1     5.220    0.033   0.047  0.100  
19.5 21.1     3.819   0.009   0.021  0.057      0     7.301   0.044    0.055  0.114      -1     5.231    0.034   0.049  0.101  
21.1 22.8     3.098   0.008   0.018  0.047      0     6.025   0.037    0.047  0.095      -1     5.142    0.034   0.050  0.101  
22.8 24.7     2.494   0.006   0.015  0.038      0     4.907   0.031    0.039  0.078      -1     5.082    0.034   0.050  0.100  
24.7 26.7     2.006   0.005   0.012  0.031      0     4.000   0.026    0.033  0.064      -1     5.014    0.036   0.051  0.100  
26.7 28.8     1.623   0.005   0.010  0.025      0     3.305   0.023    0.028  0.053      -1     4.909    0.037   0.052  0.098  
28.8 31.1     1.314   0.004   0.008  0.021      0     2.664   0.020    0.023  0.043      -1     4.931    0.039   0.053  0.100  
31.1 33.5     1.067   0.003   0.007  0.017      0     2.193   0.017    0.020  0.036      -1     4.863    0.042   0.054  0.099  
33.5 36.1     8.669   0.030   0.059  0.136      -1     1.792   0.015    0.017  0.030      -1     4.839    0.044   0.056  0.100  
36.1 38.9     7.081   0.026   0.049  0.112      -1     1.491   0.013    0.014  0.026      -1     4.750    0.046   0.056  0.099  
38.9 41.9     5.732   0.023   0.041  0.091      -1     1.199   0.011    0.012  0.020      -1     4.779    0.049   0.059  0.101  
41.9 45.1     4.710   0.020   0.034  0.075      -1     9.671   0.099    0.100  0.168      -2     4.870    0.054   0.062  0.104  
45.1 48.5     3.813   0.017   0.029  0.062      -1     8.140   0.088    0.086  0.143      -2     4.684    0.055   0.061  0.102  
48.5 52.2     3.117   0.015   0.024  0.051      -1     6.504   0.075    0.071  0.115      -2     4.792    0.060   0.064  0.105  
52.2 56.1     2.554   0.013   0.020  0.043      -1     5.348   0.066    0.060  0.096      -2     4.776    0.064   0.065  0.105  
56.1 60.3     2.089   0.012   0.017  0.036      -1     4.481   0.058    0.051  0.081      -2     4.661    0.066   0.065  0.104  
