1.00 1.16     4.878   0.026   0.066  0.217      2      0     0      0        0      0     0  
1.16 1.33     5.102   0.018   0.050  0.181      2      0     0      0        0      0     0  
1.33 1.51     5.195   0.016   0.039  0.149      2      0     0      0        0      0     0  
1.51 1.71     5.038   0.012   0.031  0.131      2      0     0      0        0      0     0  
1.71 1.92     4.821   0.010   0.026  0.113      2      0     0      0        0      0     0  
1.92 2.15     4.450   0.009   0.022  0.096      2     5.301   0.034    0.060  0.122      1     8.395    0.057   0.103  0.252  
2.15 2.40     4.027   0.008   0.018  0.081      2     5.088   0.030    0.050  0.103      1     7.915    0.049   0.085  0.213  
2.40 2.67     3.586   0.006   0.015  0.068      2     4.784   0.026    0.045  0.089      1     7.495    0.042   0.077  0.187  
2.67 2.97     3.146   0.005   0.013  0.055      2     4.408   0.022    0.040  0.078      1     7.137    0.037   0.071  0.168  
2.97 3.29     2.723   0.004   0.011  0.045      2     3.906   0.018    0.031  0.065      1     6.971    0.035   0.062  0.156  
3.29 3.64     2.334   0.004   0.010  0.037      2     3.453   0.016    0.024  0.056      1     6.759    0.032   0.055  0.146  
3.64 4.02     1.991   0.003   0.008  0.031      2     2.980   0.013    0.019  0.047      1     6.682    0.031   0.052  0.140  
4.02 4.43     1.668   0.003   0.007  0.026      2     2.555   0.011    0.016  0.040      1     6.528    0.029   0.049  0.134  
4.43 4.88     1.393   0.002   0.006  0.021      2     2.163   0.009    0.013  0.034      1     6.437    0.027   0.047  0.130  
4.88 5.37     1.147   0.002   0.005  0.016      2     1.811   0.007    0.011  0.028      1     6.337    0.027   0.045  0.126  
5.37 5.90     9.414   0.014   0.035  0.133      1     1.504   0.006    0.009  0.023      1     6.258    0.026   0.043  0.122  
5.90 6.47     7.680   0.011   0.027  0.107      1     1.264   0.005    0.007  0.019      1     6.075    0.025   0.041  0.116  
6.47 7.09     6.265   0.009   0.022  0.087      1     1.041   0.004    0.006  0.016      1     6.018    0.025   0.040  0.114  
7.09 7.76     5.097   0.008   0.018  0.070      1     8.505   0.033    0.049  0.128      0     5.994    0.025   0.040  0.113  
7.76 8.48     4.123   0.006   0.014  0.057      1     7.042   0.028    0.041  0.106      0     5.855    0.025   0.040  0.109  
8.48 9.26     3.328   0.005   0.012  0.046      1     5.754   0.024    0.035  0.087      0     5.784    0.026   0.040  0.108  
9.26 10.1     2.686   0.004   0.010  0.036      1     4.682   0.020    0.029  0.071      0     5.736    0.027   0.041  0.107  
10.1 11.0     2.168   0.004   0.008  0.029      1     3.827   0.017    0.025  0.058      0     5.666    0.028   0.043  0.106  
11.0 12.0     1.742   0.003   0.006  0.024      1     3.130   0.015    0.022  0.048      0     5.565    0.028   0.044  0.104  
12.0 13.0     1.402   0.003   0.005  0.019      1     2.543   0.013    0.018  0.040      0     5.512    0.030   0.045  0.104  
13.0 14.1     1.133   0.002   0.005  0.016      1     2.074   0.011    0.016  0.032      0     5.461    0.031   0.047  0.105  
14.1 15.3     9.115   0.019   0.038  0.128      0     1.679   0.009    0.013  0.026      0     5.428    0.032   0.049  0.105  
15.3 16.6     7.383   0.016   0.031  0.105      0     1.377   0.008    0.012  0.022      0     5.363    0.032   0.051  0.105  
16.6 18.0     5.884   0.013   0.026  0.085      0     1.112   0.006    0.010  0.018      0     5.293    0.033   0.052  0.105  
18.0 19.5     4.748   0.011   0.022  0.069      0     9.141   0.053    0.085  0.151      -1     5.194    0.032   0.054  0.103  
19.5 21.1     3.826   0.009   0.018  0.057      0     7.441   0.044    0.072  0.124      -1     5.142    0.033   0.055  0.103  
21.1 22.8     3.094   0.008   0.015  0.046      0     6.079   0.037    0.059  0.102      -1     5.089    0.034   0.055  0.103  
22.8 24.7     2.485   0.006   0.012  0.037      0     4.965   0.031    0.049  0.084      -1     5.005    0.034   0.055  0.102  
24.7 26.7     1.988   0.005   0.010  0.030      0     4.039   0.027    0.040  0.068      -1     4.922    0.035   0.055  0.100  
26.7 28.8     1.622   0.005   0.009  0.024      0     3.301   0.023    0.033  0.056      -1     4.914    0.037   0.056  0.100  
28.8 31.1     1.307   0.004   0.007  0.020      0     2.683   0.020    0.027  0.046      -1     4.870    0.039   0.056  0.100  
31.1 33.5     1.062   0.003   0.006  0.016      0     2.231   0.018    0.023  0.039      -1     4.761    0.041   0.056  0.099  
33.5 36.1     8.603   0.030   0.049  0.131      -1     1.791   0.015    0.019  0.032      -1     4.804    0.044   0.058  0.101  
36.1 38.9     6.999   0.026   0.041  0.107      -1     1.453   0.013    0.016  0.026      -1     4.818    0.047   0.059  0.102  
38.9 41.9     5.687   0.022   0.034  0.088      -1     1.202   0.012    0.013  0.021      -1     4.733    0.049   0.060  0.101  
41.9 45.1     4.591   0.019   0.028  0.071      -1     9.729   0.101    0.112  0.176      -2     4.719    0.053   0.062  0.102  
45.1 48.5     3.757   0.017   0.024  0.059      -1     8.018   0.088    0.095  0.147      -2     4.686    0.056   0.063  0.103  
48.5 52.2     3.069   0.015   0.020  0.049      -1     6.505   0.076    0.079  0.121      -2     4.718    0.060   0.065  0.105  
52.2 56.1     2.528   0.013   0.017  0.041      -1     5.355   0.067    0.067  0.101      -2     4.721    0.064   0.067  0.106  
56.1 60.3     2.065   0.011   0.014  0.034      -1     4.465   0.059    0.058  0.086      -2     4.625    0.066   0.068  0.105  
