1.00 1.16     1.300   0.005   0.016  0.057      3      0     0      0        0      0     0  
1.16 1.33     1.238   0.003   0.011  0.044      3      0     0      0        0      0     0  
1.33 1.51     1.144   0.003   0.008  0.033      3      0     0      0        0      0     0  
1.51 1.71     1.033   0.002   0.006  0.027      3      0     0      0        0      0     0  
1.71 1.92     9.085   0.016   0.047  0.213      2      0     0      0        0      0     0  
1.92 2.15     7.843   0.013   0.037  0.168      2     9.818   0.051    0.098  0.219      1     7.988    0.044   0.088  0.236  
2.15 2.40     6.653   0.010   0.030  0.133      2     8.792   0.042    0.078  0.174      1     7.567    0.038   0.075  0.201  
2.40 2.67     5.594   0.009   0.024  0.105      2     7.734   0.035    0.067  0.141      1     7.233    0.034   0.070  0.179  
2.67 2.97     4.663   0.007   0.020  0.081      2     6.660   0.029    0.056  0.116      1     7.001    0.032   0.066  0.163  
2.97 3.29     3.859   0.006   0.016  0.064      2     5.598   0.023    0.041  0.092      1     6.892    0.030   0.059  0.153  
3.29 3.64     3.182   0.005   0.014  0.051      2     4.704   0.019    0.031  0.076      1     6.764    0.029   0.053  0.145  
3.64 4.02     2.594   0.004   0.012  0.041      2     3.949   0.016    0.024  0.062      1     6.569    0.028   0.050  0.138  
4.02 4.43     2.119   0.003   0.009  0.033      2     3.257   0.013    0.020  0.051      1     6.505    0.027   0.049  0.133  
4.43 4.88     1.717   0.002   0.007  0.026      2     2.652   0.010    0.016  0.041      1     6.475    0.026   0.048  0.131  
4.88 5.37     1.376   0.002   0.006  0.020      2     2.156   0.008    0.013  0.033      1     6.384    0.026   0.046  0.127  
5.37 5.90     1.107   0.002   0.004  0.016      2     1.789   0.007    0.010  0.027      1     6.187    0.025   0.044  0.121  
5.90 6.47     8.864   0.013   0.033  0.124      1     1.450   0.005    0.008  0.022      1     6.111    0.025   0.042  0.117  
6.47 7.09     7.094   0.010   0.026  0.099      1     1.181   0.004    0.007  0.018      1     6.009    0.024   0.042  0.115  
7.09 7.76     5.693   0.008   0.021  0.079      1     9.492   0.036    0.057  0.144      0     5.998    0.025   0.042  0.113  
7.76 8.48     4.545   0.007   0.017  0.063      1     7.738   0.030    0.048  0.117      0     5.874    0.025   0.042  0.111  
8.48 9.26     3.624   0.006   0.014  0.050      1     6.277   0.026    0.040  0.096      0     5.774    0.025   0.043  0.108  
9.26 10.1     2.893   0.005   0.011  0.039      1     5.082   0.022    0.034  0.078      0     5.693    0.026   0.044  0.107  
10.1 11.0     2.311   0.004   0.009  0.031      1     4.133   0.019    0.029  0.064      0     5.593    0.027   0.045  0.105  
11.0 12.0     1.835   0.003   0.007  0.025      1     3.298   0.015    0.024  0.052      0     5.565    0.028   0.047  0.105  
12.0 13.0     1.472   0.003   0.006  0.020      1     2.669   0.014    0.021  0.042      0     5.515    0.030   0.048  0.106  
13.0 14.1     1.184   0.002   0.005  0.017      1     2.187   0.011    0.018  0.035      0     5.416    0.030   0.050  0.105  
14.1 15.3     9.509   0.020   0.042  0.134      0     1.780   0.010    0.015  0.028      0     5.343    0.031   0.052  0.104  
15.3 16.6     7.604   0.017   0.035  0.108      0     1.419   0.008    0.013  0.023      0     5.357    0.032   0.054  0.106  
16.6 18.0     6.072   0.014   0.029  0.088      0     1.161   0.007    0.011  0.020      0     5.231    0.032   0.055  0.105  
18.0 19.5     4.901   0.011   0.024  0.072      0     9.386   0.055    0.092  0.158      -1     5.222    0.033   0.058  0.106  
19.5 21.1     3.913   0.009   0.020  0.058      0     7.699   0.046    0.079  0.132      -1     5.083    0.033   0.058  0.104  
21.1 22.8     3.162   0.008   0.017  0.047      0     6.084   0.038    0.063  0.105      -1     5.197    0.035   0.060  0.107  
22.8 24.7     2.534   0.006   0.014  0.038      0     5.106   0.032    0.053  0.088      -1     4.962    0.033   0.058  0.103  
24.7 26.7     2.041   0.005   0.011  0.031      0     4.096   0.027    0.043  0.071      -1     4.984    0.036   0.060  0.104  
26.7 28.8     1.641   0.005   0.010  0.025      0     3.338   0.024    0.036  0.058      -1     4.918    0.038   0.060  0.103  
28.8 31.1     1.322   0.004   0.008  0.020      0     2.716   0.020    0.030  0.048      -1     4.868    0.039   0.061  0.103  
31.1 33.5     1.073   0.004   0.007  0.017      0     2.208   0.018    0.025  0.039      -1     4.861    0.043   0.062  0.104  
33.5 36.1     8.699   0.030   0.055  0.134      -1     1.788   0.016    0.021  0.033      -1     4.864    0.046   0.064  0.105  
36.1 38.9     7.045   0.026   0.045  0.109      -1     1.490   0.014    0.018  0.027      -1     4.728    0.047   0.063  0.103  
38.9 41.9     5.753   0.023   0.038  0.090      -1     1.208   0.012    0.015  0.022      -1     4.760    0.050   0.066  0.105  
41.9 45.1     4.681   0.020   0.032  0.074      -1     9.803   0.103    0.123  0.184      -2     4.775    0.054   0.068  0.107  
45.1 48.5     3.807   0.017   0.026  0.061      -1     8.123   0.091    0.105  0.155      -2     4.687    0.057   0.069  0.107  
48.5 52.2     3.126   0.015   0.022  0.051      -1     6.493   0.077    0.087  0.126      -2     4.815    0.062   0.073  0.111  
52.2 56.1     2.537   0.013   0.018  0.042      -1     5.259   0.067    0.072  0.104      -2     4.825    0.067   0.075  0.112  
56.1 60.3     2.077   0.012   0.015  0.035      -1     4.440   0.060    0.063  0.089      -2     4.677    0.068   0.075  0.111  
