1.00 1.16     8.450   0.046   0.124  0.379      2      0     0      0        0      0     0  
1.16 1.33     8.328   0.025   0.089  0.297      2      0     0      0        0      0     0  
1.33 1.51     7.942   0.021   0.065  0.229      2      0     0      0        0      0     0  
1.51 1.71     7.365   0.015   0.049  0.192      2      0     0      0        0      0     0  
1.71 1.92     6.629   0.013   0.039  0.156      2      0     0      0        0      0     0  
1.92 2.15     5.878   0.010   0.031  0.127      2     7.023   0.040    0.058  0.152      1     8.369    0.050   0.082  0.244  
2.15 2.40     5.121   0.009   0.025  0.102      2     6.512   0.034    0.047  0.124      1     7.863    0.044   0.069  0.206  
2.40 2.67     4.386   0.007   0.020  0.083      2     5.851   0.029    0.039  0.102      1     7.496    0.039   0.061  0.181  
2.67 2.97     3.737   0.006   0.017  0.065      2     5.196   0.024    0.033  0.086      1     7.192    0.035   0.057  0.164  
2.97 3.29     3.165   0.005   0.014  0.053      2     4.557   0.020    0.027  0.072      1     6.946    0.032   0.052  0.152  
3.29 3.64     2.652   0.004   0.012  0.043      2     3.920   0.017    0.022  0.062      1     6.765    0.031   0.049  0.144  
3.64 4.02     2.209   0.003   0.010  0.035      2     3.345   0.014    0.017  0.051      1     6.604    0.029   0.046  0.137  
4.02 4.43     1.827   0.003   0.009  0.028      2     2.781   0.011    0.014  0.042      1     6.570    0.029   0.045  0.133  
4.43 4.88     1.500   0.002   0.007  0.023      2     2.347   0.009    0.011  0.035      1     6.389    0.027   0.042  0.127  
4.88 5.37     1.224   0.002   0.005  0.018      2     1.933   0.007    0.009  0.029      1     6.330    0.026   0.040  0.124  
5.37 5.90     9.947   0.015   0.041  0.142      1     1.598   0.006    0.007  0.024      1     6.224    0.026   0.037  0.119  
5.90 6.47     8.071   0.012   0.032  0.114      1     1.322   0.005    0.006  0.019      1     6.104    0.025   0.036  0.115  
6.47 7.09     6.540   0.010   0.025  0.091      1     1.092   0.004    0.005  0.016      1     5.987    0.025   0.035  0.112  
7.09 7.76     5.294   0.008   0.020  0.073      1     8.854   0.034    0.039  0.130      0     5.979    0.025   0.035  0.111  
7.76 8.48     4.269   0.006   0.016  0.059      1     7.235   0.028    0.033  0.105      0     5.900    0.025   0.035  0.109  
8.48 9.26     3.431   0.005   0.013  0.047      1     5.907   0.024    0.028  0.086      0     5.808    0.025   0.035  0.106  
9.26 10.1     2.760   0.005   0.011  0.038      1     4.793   0.020    0.023  0.070      0     5.757    0.026   0.036  0.105  
10.1 11.0     2.211   0.004   0.009  0.030      1     3.900   0.017    0.020  0.057      0     5.670    0.027   0.037  0.104  
11.0 12.0     1.774   0.003   0.007  0.024      1     3.179   0.015    0.017  0.047      0     5.581    0.028   0.038  0.102  
12.0 13.0     1.426   0.003   0.006  0.020      1     2.573   0.013    0.014  0.038      0     5.542    0.030   0.039  0.102  
13.0 14.1     1.155   0.002   0.005  0.016      1     2.098   0.011    0.012  0.031      0     5.505    0.031   0.041  0.103  
14.1 15.3     9.338   0.020   0.043  0.132      0     1.713   0.009    0.011  0.025      0     5.450    0.031   0.042  0.102  
15.3 16.6     7.476   0.016   0.036  0.107      0     1.406   0.008    0.009  0.021      0     5.316    0.031   0.043  0.100  
16.6 18.0     6.015   0.014   0.030  0.087      0     1.121   0.006    0.008  0.017      0     5.368    0.033   0.045  0.102  
18.0 19.5     4.833   0.011   0.025  0.071      0     9.310   0.054    0.067  0.144      -1     5.191    0.032   0.046  0.100  
19.5 21.1     3.863   0.009   0.020  0.058      0     7.481   0.045    0.056  0.117      -1     5.163    0.033   0.047  0.099  
21.1 22.8     3.133   0.008   0.017  0.047      0     6.153   0.037    0.047  0.097      -1     5.092    0.033   0.048  0.099  
22.8 24.7     2.521   0.006   0.014  0.038      0     4.974   0.031    0.039  0.078      -1     5.069    0.034   0.048  0.099  
24.7 26.7     2.025   0.005   0.012  0.031      0     4.079   0.026    0.032  0.064      -1     4.963    0.035   0.049  0.097  
26.7 28.8     1.639   0.005   0.010  0.025      0     3.305   0.023    0.027  0.052      -1     4.959    0.037   0.050  0.098  
28.8 31.1     1.330   0.004   0.008  0.021      0     2.677   0.019    0.022  0.043      -1     4.968    0.039   0.051  0.099  
31.1 33.5     1.070   0.003   0.007  0.017      0     2.208   0.017    0.019  0.036      -1     4.845    0.041   0.051  0.097  
33.5 36.1     8.710   0.030   0.056  0.135      -1     1.819   0.015    0.016  0.030      -1     4.789    0.043   0.052  0.097  
36.1 38.9     7.049   0.026   0.047  0.110      -1     1.456   0.013    0.013  0.024      -1     4.840    0.047   0.053  0.099  
38.9 41.9     5.755   0.022   0.039  0.090      -1     1.190   0.011    0.011  0.019      -1     4.836    0.050   0.054  0.100  
41.9 45.1     4.675   0.020   0.033  0.074      -1     9.823   0.099    0.090  0.164      -2     4.760    0.052   0.055  0.099  
45.1 48.5     3.812   0.017   0.027  0.061      -1     8.085   0.087    0.076  0.136      -2     4.714    0.055   0.055  0.099  
48.5 52.2     3.101   0.015   0.023  0.051      -1     6.532   0.074    0.062  0.111      -2     4.748    0.059   0.057  0.100  
52.2 56.1     2.531   0.013   0.019  0.042      -1     5.495   0.066    0.053  0.094      -2     4.605    0.060   0.056  0.098  
56.1 60.3     2.085   0.011   0.016  0.035      -1     4.377   0.057    0.043  0.075      -2     4.764    0.067   0.059  0.102  
