1.00 1.16     8.292   0.038   0.112  0.369      2      0     0      0        0      0     0  
1.16 1.33     8.221   0.024   0.081  0.291      2      0     0      0        0      0     0  
1.33 1.51     7.922   0.021   0.060  0.227      2      0     0      0        0      0     0  
1.51 1.71     7.396   0.015   0.046  0.192      2      0     0      0        0      0     0  
1.71 1.92     6.745   0.013   0.036  0.159      2      0     0      0        0      0     0  
1.92 2.15     6.009   0.011   0.029  0.129      2     7.390   0.042    0.090  0.173      1     8.132    0.048   0.107  0.247  
2.15 2.40     5.251   0.009   0.024  0.105      2     6.897   0.036    0.074  0.143      1     7.613    0.042   0.089  0.208  
2.40 2.67     4.543   0.007   0.020  0.086      2     6.197   0.030    0.065  0.119      1     7.331    0.037   0.083  0.186  
2.67 2.97     3.886   0.006   0.017  0.068      2     5.509   0.025    0.056  0.101      1     7.054    0.034   0.078  0.169  
2.97 3.29     3.287   0.005   0.014  0.055      2     4.775   0.021    0.042  0.082      1     6.885    0.032   0.068  0.156  
3.29 3.64     2.752   0.004   0.012  0.044      2     4.069   0.017    0.032  0.068      1     6.764    0.031   0.061  0.148  
3.64 4.02     2.286   0.003   0.010  0.036      2     3.463   0.014    0.026  0.056      1     6.601    0.029   0.057  0.141  
4.02 4.43     1.897   0.003   0.008  0.029      2     2.890   0.012    0.021  0.046      1     6.563    0.028   0.055  0.137  
4.43 4.88     1.552   0.002   0.007  0.023      2     2.416   0.009    0.017  0.038      1     6.423    0.026   0.053  0.132  
4.88 5.37     1.264   0.002   0.005  0.018      2     2.004   0.008    0.014  0.031      1     6.306    0.026   0.051  0.128  
5.37 5.90     1.022   0.001   0.004  0.015      2     1.643   0.006    0.011  0.026      1     6.219    0.026   0.049  0.123  
5.90 6.47     8.240   0.012   0.031  0.115      1     1.351   0.005    0.009  0.021      1     6.099    0.025   0.047  0.119  
6.47 7.09     6.665   0.010   0.024  0.093      1     1.109   0.004    0.008  0.017      1     6.011    0.025   0.046  0.116  
7.09 7.76     5.363   0.008   0.019  0.074      1     8.979   0.035    0.061  0.140      0     5.972    0.025   0.046  0.115  
7.76 8.48     4.322   0.007   0.016  0.060      1     7.319   0.029    0.051  0.114      0     5.905    0.025   0.047  0.113  
8.48 9.26     3.464   0.005   0.013  0.047      1     5.981   0.025    0.043  0.094      0     5.793    0.025   0.047  0.111  
9.26 10.1     2.771   0.005   0.010  0.037      1     4.883   0.021    0.037  0.077      0     5.674    0.026   0.048  0.109  
10.1 11.0     2.229   0.004   0.009  0.030      1     3.944   0.018    0.031  0.063      0     5.652    0.027   0.050  0.108  
11.0 12.0     1.775   0.003   0.007  0.024      1     3.192   0.015    0.027  0.052      0     5.560    0.028   0.051  0.108  
12.0 13.0     1.423   0.003   0.006  0.019      1     2.563   0.013    0.022  0.042      0     5.554    0.030   0.054  0.109  
13.0 14.1     1.153   0.002   0.005  0.016      1     2.119   0.011    0.019  0.035      0     5.438    0.031   0.055  0.108  
14.1 15.3     9.262   0.020   0.041  0.130      0     1.724   0.009    0.017  0.028      0     5.371    0.031   0.057  0.108  
15.3 16.6     7.448   0.016   0.034  0.106      0     1.392   0.008    0.014  0.024      0     5.352    0.032   0.060  0.109  
16.6 18.0     5.974   0.014   0.028  0.086      0     1.118   0.006    0.012  0.020      0     5.342    0.033   0.062  0.110  
18.0 19.5     4.805   0.011   0.023  0.070      0     9.254   0.054    0.103  0.163      -1     5.192    0.033   0.063  0.109  
19.5 21.1     3.871   0.009   0.019  0.058      0     7.449   0.045    0.086  0.133      -1     5.197    0.034   0.065  0.110  
21.1 22.8     3.117   0.008   0.016  0.047      0     6.056   0.038    0.070  0.109      -1     5.146    0.034   0.065  0.109  
22.8 24.7     2.502   0.006   0.013  0.038      0     4.955   0.031    0.058  0.089      -1     5.049    0.034   0.065  0.108  
24.7 26.7     2.021   0.005   0.011  0.031      0     4.009   0.027    0.047  0.072      -1     5.041    0.036   0.066  0.108  
26.7 28.8     1.635   0.005   0.009  0.025      0     3.274   0.023    0.039  0.059      -1     4.994    0.038   0.066  0.107  
28.8 31.1     1.314   0.004   0.008  0.020      0     2.698   0.020    0.032  0.049      -1     4.870    0.039   0.065  0.106  
31.1 33.5     1.067   0.003   0.006  0.017      0     2.173   0.018    0.027  0.040      -1     4.911    0.043   0.067  0.107  
33.5 36.1     8.648   0.030   0.053  0.133      -1     1.806   0.015    0.022  0.034      -1     4.788    0.044   0.066  0.105  
36.1 38.9     7.016   0.026   0.044  0.109      -1     1.451   0.013    0.018  0.028      -1     4.836    0.048   0.068  0.108  
38.9 41.9     5.688   0.023   0.037  0.088      -1     1.209   0.012    0.016  0.023      -1     4.705    0.049   0.068  0.106  
41.9 45.1     4.664   0.020   0.031  0.073      -1     9.731   0.101    0.129  0.188      -2     4.792    0.054   0.071  0.109  
45.1 48.5     3.757   0.017   0.025  0.060      -1     7.909   0.088    0.108  0.155      -2     4.750    0.057   0.072  0.110  
48.5 52.2     3.120   0.015   0.022  0.050      -1     6.484   0.076    0.091  0.129      -2     4.812    0.061   0.075  0.112  
52.2 56.1     2.540   0.013   0.018  0.042      -1     5.320   0.067    0.077  0.107      -2     4.773    0.065   0.077  0.113  
56.1 60.3     2.078   0.011   0.015  0.035      -1     4.388   0.058    0.065  0.090      -2     4.735    0.068   0.078  0.114  
