1.00 1.16     6.273   0.032   0.094  0.282      2      0     0      0        0      0     0  
1.16 1.33     6.384   0.021   0.069  0.228      2      0     0      0        0      0     0  
1.33 1.51     6.325   0.018   0.053  0.183      2      0     0      0        0      0     0  
1.51 1.71     6.039   0.013   0.042  0.158      2      0     0      0        0      0     0  
1.71 1.92     5.606   0.011   0.034  0.133      2      0     0      0        0      0     0  
1.92 2.15     5.085   0.010   0.028  0.110      2     5.993   0.037    0.060  0.134      1     8.484    0.054   0.097  0.252  
2.15 2.40     4.504   0.008   0.023  0.090      2     5.786   0.032    0.049  0.114      1     7.784    0.045   0.077  0.207  
2.40 2.67     3.964   0.007   0.019  0.075      2     5.326   0.027    0.042  0.095      1     7.441    0.040   0.069  0.183  
2.67 2.97     3.433   0.006   0.016  0.060      2     4.839   0.023    0.037  0.082      1     7.094    0.036   0.063  0.164  
2.97 3.29     2.935   0.005   0.013  0.049      2     4.232   0.019    0.030  0.069      1     6.935    0.033   0.058  0.154  
3.29 3.64     2.505   0.004   0.012  0.040      2     3.697   0.016    0.024  0.059      1     6.776    0.031   0.054  0.146  
3.64 4.02     2.100   0.003   0.010  0.033      2     3.167   0.014    0.019  0.050      1     6.631    0.030   0.051  0.139  
4.02 4.43     1.746   0.003   0.008  0.027      2     2.697   0.011    0.015  0.042      1     6.473    0.029   0.048  0.132  
4.43 4.88     1.446   0.002   0.007  0.022      2     2.262   0.009    0.012  0.035      1     6.393    0.027   0.046  0.129  
4.88 5.37     1.184   0.002   0.005  0.017      2     1.904   0.007    0.010  0.029      1     6.219    0.026   0.043  0.123  
5.37 5.90     9.711   0.014   0.041  0.139      1     1.570   0.006    0.008  0.024      1     6.185    0.026   0.040  0.120  
5.90 6.47     7.885   0.012   0.032  0.111      1     1.294   0.005    0.006  0.019      1     6.093    0.025   0.039  0.116  
6.47 7.09     6.426   0.009   0.025  0.090      1     1.074   0.004    0.005  0.016      1     5.986    0.025   0.038  0.113  
7.09 7.76     5.210   0.008   0.020  0.072      1     8.734   0.034    0.044  0.130      0     5.966    0.025   0.038  0.111  
7.76 8.48     4.210   0.006   0.016  0.058      1     7.148   0.028    0.037  0.106      0     5.890    0.025   0.038  0.109  
8.48 9.26     3.390   0.005   0.013  0.047      1     5.835   0.024    0.031  0.087      0     5.809    0.026   0.039  0.107  
9.26 10.1     2.733   0.005   0.011  0.037      1     4.786   0.020    0.027  0.071      0     5.712    0.026   0.039  0.106  
10.1 11.0     2.197   0.004   0.009  0.030      1     3.888   0.017    0.022  0.058      0     5.650    0.027   0.040  0.104  
11.0 12.0     1.762   0.003   0.007  0.024      1     3.172   0.015    0.019  0.048      0     5.553    0.028   0.041  0.103  
12.0 13.0     1.423   0.003   0.006  0.020      1     2.568   0.013    0.016  0.039      0     5.541    0.030   0.043  0.104  
13.0 14.1     1.150   0.002   0.005  0.016      1     2.109   0.011    0.014  0.032      0     5.452    0.030   0.044  0.103  
14.1 15.3     9.284   0.020   0.044  0.132      0     1.707   0.009    0.012  0.026      0     5.439    0.031   0.046  0.103  
15.3 16.6     7.432   0.016   0.036  0.107      0     1.398   0.008    0.010  0.022      0     5.318    0.032   0.047  0.102  
16.6 18.0     5.990   0.013   0.030  0.087      0     1.130   0.006    0.009  0.018      0     5.301    0.032   0.049  0.103  
18.0 19.5     4.836   0.011   0.025  0.072      0     9.289   0.054    0.075  0.148      -1     5.206    0.032   0.050  0.102  
19.5 21.1     3.880   0.009   0.021  0.058      0     7.570   0.045    0.064  0.122      -1     5.126    0.033   0.051  0.101  
21.1 22.8     3.144   0.008   0.018  0.048      0     6.129   0.037    0.053  0.100      -1     5.130    0.034   0.053  0.102  
22.8 24.7     2.533   0.006   0.014  0.038      0     4.988   0.031    0.044  0.081      -1     5.078    0.034   0.054  0.102  
24.7 26.7     2.027   0.005   0.012  0.031      0     4.046   0.027    0.037  0.066      -1     5.010    0.035   0.054  0.101  
26.7 28.8     1.630   0.005   0.010  0.025      0     3.292   0.023    0.031  0.054      -1     4.952    0.037   0.055  0.101  
28.8 31.1     1.328   0.004   0.008  0.021      0     2.708   0.020    0.026  0.045      -1     4.905    0.039   0.056  0.101  
31.1 33.5     1.077   0.003   0.007  0.017      0     2.199   0.018    0.022  0.037      -1     4.897    0.042   0.058  0.101  
33.5 36.1     8.738   0.030   0.058  0.136      -1     1.815   0.015    0.018  0.032      -1     4.813    0.044   0.058  0.101  
36.1 38.9     7.080   0.026   0.048  0.111      -1     1.474   0.013    0.015  0.026      -1     4.802    0.047   0.060  0.102  
38.9 41.9     5.778   0.023   0.040  0.091      -1     1.193   0.011    0.013  0.021      -1     4.844    0.050   0.062  0.104  
41.9 45.1     4.714   0.020   0.034  0.075      -1     9.992   0.101    0.110  0.178      -2     4.718    0.052   0.062  0.102  
45.1 48.5     3.836   0.017   0.028  0.062      -1     8.018   0.088    0.090  0.144      -2     4.785    0.057   0.064  0.105  
48.5 52.2     3.124   0.015   0.023  0.051      -1     6.544   0.076    0.075  0.119      -2     4.773    0.060   0.066  0.106  
52.2 56.1     2.547   0.013   0.020  0.043      -1     5.437   0.067    0.064  0.100      -2     4.685    0.063   0.066  0.104  
56.1 60.3     2.080   0.012   0.016  0.035      -1     4.487   0.058    0.054  0.083      -2     4.636    0.066   0.067  0.105  
