R1	R2	ΦC	stat	acc	unf	scale	syst
1.92	2.15	1.434e+0	0.004e+0	0.039e+0	0.029e+0	0.007e+0	0.050e+0
2.15	2.40	1.443e+0	0.003e+0	0.038e+0	0.016e+0	0.005e+0	0.042e+0
2.40	2.67	1.392e+0	0.003e+0	0.036e+0	0.012e+0	0.003e+0	0.038e+0
2.67	2.97	1.275e+0	0.003e+0	0.032e+0	0.010e+0	0.001e+0	0.033e+0
2.97	3.29	1.125e+0	0.002e+0	0.027e+0	0.007e+0	0.000e+0	0.028e+0
3.29	3.64	9.826e-1	0.018e-1	0.236e-1	0.053e-1	0.003e-1	0.241e-1
3.64	4.02	8.480e-1	0.015e-1	0.201e-1	0.039e-1	0.006e-1	0.204e-1
4.02	4.43	7.338e-1	0.013e-1	0.172e-1	0.029e-1	0.008e-1	0.174e-1
4.43	4.88	6.286e-1	0.011e-1	0.146e-1	0.021e-1	0.009e-1	0.148e-1
4.88	5.37	5.360e-1	0.009e-1	0.123e-1	0.015e-1	0.009e-1	0.125e-1
5.37	5.90	4.505e-1	0.007e-1	0.103e-1	0.011e-1	0.009e-1	0.104e-1
5.90	6.47	3.774e-1	0.006e-1	0.086e-1	0.008e-1	0.008e-1	0.087e-1
6.47	7.09	3.142e-1	0.005e-1	0.071e-1	0.006e-1	0.008e-1	0.072e-1
7.09	7.76	2.590e-1	0.004e-1	0.059e-1	0.005e-1	0.007e-1	0.059e-1
7.76	8.48	2.139e-1	0.003e-1	0.048e-1	0.004e-1	0.006e-1	0.049e-1
8.48	9.26	1.752e-1	0.003e-1	0.040e-1	0.003e-1	0.005e-1	0.040e-1
9.26	10.1	1.431e-1	0.002e-1	0.032e-1	0.002e-1	0.004e-1	0.033e-1
10.1	11.0	1.168e-1	0.002e-1	0.026e-1	0.002e-1	0.004e-1	0.027e-1
11.0	12.0	9.484e-2	0.018e-2	0.215e-2	0.017e-2	0.032e-2	0.218e-2
12.0	13.0	7.770e-2	0.016e-2	0.176e-2	0.014e-2	0.027e-2	0.178e-2
13.0	14.1	6.377e-2	0.014e-2	0.144e-2	0.012e-2	0.022e-2	0.147e-2
14.1	15.3	5.211e-2	0.012e-2	0.118e-2	0.011e-2	0.018e-2	0.120e-2
15.3	16.6	4.273e-2	0.010e-2	0.097e-2	0.009e-2	0.015e-2	0.098e-2
16.6	18.0	3.479e-2	0.008e-2	0.079e-2	0.008e-2	0.013e-2	0.080e-2
18.0	19.5	2.848e-2	0.007e-2	0.065e-2	0.007e-2	0.011e-2	0.066e-2
19.5	21.1	2.344e-2	0.006e-2	0.053e-2	0.006e-2	0.009e-2	0.054e-2
21.1	22.8	1.915e-2	0.005e-2	0.044e-2	0.005e-2	0.007e-2	0.045e-2
22.8	24.7	1.564e-2	0.004e-2	0.036e-2	0.005e-2	0.006e-2	0.036e-2
24.7	26.7	1.273e-2	0.004e-2	0.029e-2	0.004e-2	0.005e-2	0.030e-2
26.7	28.8	1.041e-2	0.003e-2	0.024e-2	0.003e-2	0.004e-2	0.024e-2
28.8	31.1	8.510e-3	0.025e-3	0.195e-3	0.029e-3	0.034e-3	0.200e-3
31.1	33.5	6.981e-3	0.022e-3	0.160e-3	0.025e-3	0.028e-3	0.165e-3
33.5	36.1	5.744e-3	0.019e-3	0.132e-3	0.022e-3	0.024e-3	0.136e-3
36.1	38.9	4.716e-3	0.016e-3	0.109e-3	0.019e-3	0.020e-3	0.112e-3
38.9	41.9	3.886e-3	0.014e-3	0.090e-3	0.016e-3	0.016e-3	0.093e-3
41.9	45.1	3.156e-3	0.013e-3	0.073e-3	0.014e-3	0.013e-3	0.076e-3
45.1	48.5	2.591e-3	0.011e-3	0.060e-3	0.012e-3	0.011e-3	0.062e-3
48.5	52.2	2.167e-3	0.010e-3	0.050e-3	0.010e-3	0.009e-3	0.052e-3
52.2	56.1	1.765e-3	0.009e-3	0.041e-3	0.009e-3	0.008e-3	0.043e-3
56.1	60.3	1.458e-3	0.007e-3	0.034e-3	0.007e-3	0.007e-3	0.035e-3
60.3	64.8	1.195e-3	0.007e-3	0.028e-3	0.006e-3	0.005e-3	0.029e-3
64.8	69.7	9.726e-4	0.056e-4	0.228e-4	0.052e-4	0.046e-4	0.238e-4
69.7	74.9	8.003e-4	0.050e-4	0.188e-4	0.044e-4	0.038e-4	0.197e-4
74.9	80.5	6.631e-4	0.043e-4	0.156e-4	0.037e-4	0.032e-4	0.164e-4
80.5	86.5	5.391e-4	0.038e-4	0.127e-4	0.031e-4	0.027e-4	0.133e-4
86.5	93.0	4.478e-4	0.033e-4	0.106e-4	0.026e-4	0.023e-4	0.111e-4
93.0	100	3.629e-4	0.029e-4	0.086e-4	0.022e-4	0.019e-4	0.091e-4
100	108	2.989e-4	0.024e-4	0.071e-4	0.018e-4	0.016e-4	0.075e-4
108	116	2.412e-4	0.022e-4	0.057e-4	0.015e-4	0.013e-4	0.061e-4
116	125	2.005e-4	0.019e-4	0.048e-4	0.013e-4	0.011e-4	0.051e-4
125	135	1.602e-4	0.016e-4	0.038e-4	0.010e-4	0.009e-4	0.041e-4
135	147	1.287e-4	0.013e-4	0.031e-4	0.008e-4	0.008e-4	0.033e-4
147	160	1.003e-4	0.011e-4	0.024e-4	0.007e-4	0.006e-4	0.026e-4
160	175	7.964e-5	0.091e-5	0.190e-5	0.054e-5	0.051e-5	0.204e-5
175	192	6.260e-5	0.076e-5	0.150e-5	0.044e-5	0.042e-5	0.162e-5
192	211	4.763e-5	0.063e-5	0.114e-5	0.035e-5	0.034e-5	0.124e-5
211	233	3.749e-5	0.052e-5	0.090e-5	0.029e-5	0.028e-5	0.099e-5
233	259	2.866e-5	0.041e-5	0.069e-5	0.024e-5	0.023e-5	0.077e-5
259	291	2.177e-5	0.033e-5	0.053e-5	0.020e-5	0.019e-5	0.060e-5
291	330	1.536e-5	0.025e-5	0.037e-5	0.015e-5	0.015e-5	0.043e-5
330	379	1.109e-5	0.019e-5	0.027e-5	0.013e-5	0.013e-5	0.033e-5
379	441	7.146e-6	0.134e-6	0.176e-6	0.095e-6	0.099e-6	0.223e-6
441	525	4.886e-6	0.095e-6	0.121e-6	0.077e-6	0.084e-6	0.166e-6
525	643	2.951e-6	0.062e-6	0.074e-6	0.057e-6	0.065e-6	0.114e-6
643	822	1.623e-6	0.038e-6	0.042e-6	0.039e-6	0.048e-6	0.075e-6
822	1130	7.558e-7	0.196e-7	0.200e-7	0.240e-7	0.306e-7	0.437e-7
1130	1800	2.783e-7	0.188e-7	0.092e-7	0.066e-7	0.122e-7	0.167e-7
1800	3000	8.660e-8	0.787e-8	0.311e-8	0.333e-8	0.633e-8	0.780e-8
