    1.0000e+00     2.2368e-09
    1.0335e+00     3.1143e-09
    1.0681e+00     3.6729e-09
    1.1039e+00     4.1780e-09
    1.1409e+00     4.7096e-09
    1.1791e+00     5.2949e-09
    1.2186e+00     5.9489e-09
    1.2594e+00     6.6827e-09
    1.3016e+00     7.5068e-09
    1.3452e+00     8.4328e-09
    1.3903e+00     9.4732e-09
    1.4369e+00     1.0642e-08
    1.4850e+00     1.1956e-08
    1.5348e+00     1.3432e-08
    1.5862e+00     1.5091e-08
    1.6393e+00     1.6956e-08
    1.6942e+00     1.9051e-08
    1.7510e+00     2.1406e-08
    1.8097e+00     2.4053e-08
    1.8703e+00     2.7028e-08
    1.9329e+00     3.0372e-08
    1.9977e+00     3.4130e-08
    2.0646e+00     3.8355e-08
    2.1338e+00     4.3103e-08
    2.2053e+00     4.8441e-08
    2.2791e+00     5.4442e-08
    2.3555e+00     6.1188e-08
    2.4344e+00     6.8771e-08
    2.5160e+00     7.7297e-08
    2.6002e+00     8.6882e-08
    2.6874e+00     9.7658e-08
    2.7774e+00     1.0977e-07
    2.8704e+00     1.2340e-07
    2.9666e+00     1.3871e-07
    3.0660e+00     1.5593e-07
    3.1687e+00     1.7530e-07
    3.2748e+00     1.9707e-07
    3.3845e+00     2.2156e-07
    3.4979e+00     2.4909e-07
    3.6151e+00     2.8006e-07
    3.7362e+00     3.1488e-07
    3.8614e+00     3.5405e-07
    3.9908e+00     3.9809e-07
    4.1244e+00     4.4763e-07
    4.2626e+00     5.0334e-07
    4.4054e+00     5.6601e-07
    4.5530e+00     6.3650e-07
    4.7055e+00     7.1579e-07
    4.8632e+00     8.0497e-07
    5.0261e+00     9.0530e-07
    5.1945e+00     1.0182e-06
    5.3685e+00     1.1451e-06
    5.5483e+00     1.2880e-06
    5.7342e+00     1.4487e-06
    5.9263e+00     1.6295e-06
    6.1249e+00     1.8330e-06
    6.3300e+00     2.0619e-06
    6.5421e+00     2.3195e-06
    6.7613e+00     2.6094e-06
    6.9878e+00     2.9356e-06
    7.2219e+00     3.3027e-06
    7.4638e+00     3.7159e-06
    7.7139e+00     4.1809e-06
    7.9723e+00     4.7044e-06
    8.2394e+00     5.2936e-06
    8.5154e+00     5.9568e-06
    8.8007e+00     6.7035e-06
    9.0955e+00     7.5442e-06
    9.4002e+00     8.4907e-06
    9.7151e+00     9.5565e-06
    1.0041e+01     1.0757e-05
    1.0377e+01     1.2108e-05
    1.0725e+01     1.3630e-05
    1.1084e+01     1.5345e-05
    1.1455e+01     1.7276e-05
    1.1839e+01     1.9452e-05
    1.2236e+01     2.1903e-05
    1.2645e+01     2.4665e-05
    1.3069e+01     2.7777e-05
    1.3507e+01     3.1285e-05
    1.3959e+01     3.5238e-05
    1.4427e+01     3.9695e-05
    1.4910e+01     4.4718e-05
    1.5410e+01     5.0382e-05
    1.5926e+01     5.6768e-05
    1.6460e+01     6.3969e-05
    1.7011e+01     7.2090e-05
    1.7581e+01     8.1249e-05
    1.8170e+01     9.1581e-05
    1.8779e+01     1.0324e-04
    1.9408e+01     1.1639e-04
    2.0058e+01     1.3123e-04
    2.0730e+01     1.4798e-04
    2.1424e+01     1.6689e-04
    2.2142e+01     1.8823e-04
    2.2884e+01     2.1234e-04
    2.3650e+01     2.3956e-04
    2.4443e+01     2.7031e-04
    2.5262e+01     3.0504e-04
    2.6108e+01     3.4427e-04
    2.6983e+01     3.8854e-04
    2.7887e+01     4.3844e-04
    2.8821e+01     4.9465e-04
    2.9786e+01     5.5794e-04
    3.0784e+01     6.2915e-04
    3.1815e+01     7.0923e-04
    3.2881e+01     7.9926e-04
    3.3983e+01     9.0047e-04
    3.5121e+01     1.0142e-03
    3.6298e+01     1.1420e-03
    3.7514e+01     1.2855e-03
    3.8771e+01     1.4467e-03
    4.0069e+01     1.6274e-03
    4.1412e+01     1.8299e-03
    4.2799e+01     2.0564e-03
    4.4233e+01     2.3095e-03
    4.5715e+01     2.5920e-03
    4.7246e+01     2.9068e-03
    4.8829e+01     3.2572e-03
    5.0465e+01     3.6464e-03
    5.2156e+01     4.0778e-03
    5.3903e+01     4.5547e-03
    5.5709e+01     5.0802e-03
    5.7575e+01     5.6579e-03
    5.9504e+01     6.2920e-03
    6.1497e+01     6.9868e-03
    6.3557e+01     7.7468e-03
    6.5687e+01     8.5763e-03
    6.7887e+01     9.4801e-03
    7.0161e+01     1.0465e-02
    7.2512e+01     1.1537e-02
    7.4941e+01     1.2703e-02
    7.7452e+01     1.3971e-02
    8.0046e+01     1.5350e-02
    8.2728e+01     1.6848e-02
    8.5499e+01     1.8477e-02
    8.8364e+01     2.0248e-02
    9.1324e+01     2.2172e-02
    9.4383e+01     2.4265e-02
    9.7545e+01     2.6541e-02
    1.0081e+02     2.9017e-02
    1.0419e+02     3.1715e-02
    1.0768e+02     3.4654e-02
    1.1129e+02     3.7860e-02
    1.1502e+02     4.1361e-02
    1.1887e+02     4.5189e-02
    1.2285e+02     4.9383e-02
    1.2697e+02     5.3979e-02
    1.3122e+02     5.9014e-02
    1.3562e+02     6.4528e-02
    1.4016e+02     7.0564e-02
    1.4486e+02     7.7169e-02
    1.4971e+02     8.4394e-02
    1.5472e+02     9.2297e-02
    1.5991e+02     1.0094e-01
    1.6526e+02     1.1037e-01
    1.7080e+02     1.2067e-01
    1.7652e+02     1.3190e-01
    1.8244e+02     1.4413e-01
    1.8855e+02     1.5745e-01
    1.9486e+02     1.7195e-01
    2.0139e+02     1.8772e-01
    2.0814e+02     2.0485e-01
    2.1511e+02     2.2346e-01
    2.2232e+02     2.4364e-01
    2.2977e+02     2.6551e-01
    2.3746e+02     2.8920e-01
    2.4542e+02     3.1484e-01
    2.5364e+02     3.4254e-01
    2.6214e+02     3.7246e-01
    2.7092e+02     4.0474e-01
    2.8000e+02     4.3954e-01
    2.8938e+02     4.7701e-01
    2.9907e+02     5.1733e-01
    3.0909e+02     5.6065e-01
    3.1945e+02     6.0715e-01
    3.3015e+02     6.5702e-01
    3.4121e+02     7.1042e-01
    3.5264e+02     7.6753e-01
    3.6445e+02     8.2854e-01
    3.7666e+02     8.9363e-01
    3.8928e+02     9.6300e-01
    4.0232e+02     1.0369e+00
    4.1580e+02     1.1154e+00
    4.2973e+02     1.1987e+00
    4.4412e+02     1.2871e+00
    4.5900e+02     1.3806e+00
    4.7438e+02     1.4795e+00
    4.9027e+02     1.5839e+00
    5.0670e+02     1.6939e+00
    5.2367e+02     1.8098e+00
    5.4121e+02     1.9315e+00
    5.5935e+02     2.0593e+00
    5.7808e+02     2.1932e+00
    5.9745e+02     2.3332e+00
    6.1747e+02     2.4794e+00
    6.3815e+02     2.6319e+00
    6.5953e+02     2.7909e+00
    6.8162e+02     2.9564e+00
    7.0446e+02     3.1288e+00
    7.2806e+02     3.3084e+00
    7.5245e+02     3.4953e+00
    7.7766e+02     3.6895e+00
    8.0371e+02     3.8908e+00
    8.3064e+02     4.0993e+00
    8.5846e+02     4.3149e+00
    8.8722e+02     4.5376e+00
    9.1694e+02     4.7674e+00
    9.4766e+02     5.0044e+00
    9.7941e+02     5.2481e+00
    1.0122e+03     5.4982e+00
    1.0461e+03     5.7542e+00
    1.0812e+03     6.0160e+00
    1.1174e+03     6.2832e+00
    1.1548e+03     6.5554e+00
    1.1935e+03     6.8322e+00
    1.2335e+03     7.1129e+00
    1.2748e+03     7.3968e+00
    1.3175e+03     7.6838e+00
    1.3617e+03     7.9733e+00
    1.4073e+03     8.2653e+00
    1.4544e+03     8.5594e+00
    1.5032e+03     8.8556e+00
    1.5535e+03     9.1538e+00
    1.6056e+03     9.4536e+00
    1.6594e+03     9.7544e+00
    1.7149e+03     1.0056e+01
    1.7724e+03     1.0357e+01
    1.8318e+03     1.0659e+01
    1.8931e+03     1.0959e+01
    1.9566e+03     1.1259e+01
    2.0221e+03     1.1556e+01
    2.0898e+03     1.1852e+01
    2.1599e+03     1.2145e+01
    2.2322e+03     1.2434e+01
    2.3070e+03     1.2720e+01
    2.3843e+03     1.3003e+01
    2.4642e+03     1.3281e+01
    2.5467e+03     1.3555e+01
    2.6320e+03     1.3825e+01
    2.7202e+03     1.4091e+01
    2.8113e+03     1.4352e+01
    2.9055e+03     1.4607e+01
    3.0028e+03     1.4858e+01
    3.1034e+03     1.5104e+01
    3.2074e+03     1.5344e+01
    3.3149e+03     1.5579e+01
    3.4259e+03     1.5808e+01
    3.5407e+03     1.6030e+01
    3.6593e+03     1.6245e+01
    3.7819e+03     1.6452e+01
    3.9086e+03     1.6651e+01
    4.0395e+03     1.6841e+01
    4.1749e+03     1.7021e+01
    4.3147e+03     1.7189e+01
    4.4593e+03     1.7346e+01
    4.6087e+03     1.7491e+01
    4.7630e+03     1.7625e+01
    4.9226e+03     1.7746e+01
    5.0875e+03     1.7855e+01
    5.2580e+03     1.7952e+01
    5.4341e+03     1.8038e+01
    5.6162e+03     1.8111e+01
    5.8043e+03     1.8173e+01
    5.9987e+03     1.8223e+01
    6.1997e+03     1.8263e+01
    6.4074e+03     1.8291e+01
    6.6221e+03     1.8308e+01
    6.8439e+03     1.8315e+01
    7.0732e+03     1.8311e+01
    7.3101e+03     1.8297e+01
    7.5550e+03     1.8273e+01
    7.8081e+03     1.8240e+01
    8.0697e+03     1.8199e+01
    8.3401e+03     1.8149e+01
    8.6195e+03     1.8092e+01
    8.9082e+03     1.8028e+01
    9.2066e+03     1.7957e+01
    9.5151e+03     1.7881e+01
    9.8338e+03     1.7799e+01
    1.0163e+04     1.7712e+01
    1.0504e+04     1.7621e+01
    1.0856e+04     1.7525e+01
    1.1219e+04     1.7426e+01
    1.1595e+04     1.7323e+01
    1.1984e+04     1.7218e+01
    1.2385e+04     1.7110e+01
    1.2800e+04     1.6999e+01
    1.3229e+04     1.6887e+01
    1.3672e+04     1.6773e+01
    1.4130e+04     1.6658e+01
    1.4603e+04     1.6541e+01
    1.5093e+04     1.6423e+01
    1.5598e+04     1.6305e+01
    1.6121e+04     1.6186e+01
    1.6661e+04     1.6067e+01
    1.7219e+04     1.5947e+01
    1.7796e+04     1.5828e+01
    1.8392e+04     1.5708e+01
    1.9008e+04     1.5589e+01
    1.9645e+04     1.5469e+01
    2.0303e+04     1.5349e+01
    2.0983e+04     1.5229e+01
    2.1686e+04     1.5108e+01
    2.2413e+04     1.4988e+01
    2.3164e+04     1.4869e+01
    2.3940e+04     1.4749e+01
    2.4742e+04     1.4630e+01
    2.5570e+04     1.4512e+01
    2.6427e+04     1.4394e+01
    2.7312e+04     1.4277e+01
    2.8227e+04     1.4161e+01
    2.9173e+04     1.4046e+01
    3.0150e+04     1.3931e+01
    3.1160e+04     1.3817e+01
    3.2204e+04     1.3704e+01
    3.3283e+04     1.3592e+01
    3.4398e+04     1.3480e+01
    3.5551e+04     1.3370e+01
    3.6741e+04     1.3260e+01
    3.7972e+04     1.3151e+01
    3.9244e+04     1.3043e+01
    4.0559e+04     1.2935e+01
    4.1918e+04     1.2829e+01
    4.3322e+04     1.2723e+01
    4.4774e+04     1.2618e+01
    4.6274e+04     1.2514e+01
    4.7824e+04     1.2411e+01
    4.9426e+04     1.2308e+01
    5.1082e+04     1.2205e+01
    5.2793e+04     1.2103e+01
    5.4562e+04     1.2002e+01
    5.6389e+04     1.1901e+01
    5.8278e+04     1.1801e+01
    6.0231e+04     1.1701e+01
    6.2249e+04     1.1602e+01
    6.4334e+04     1.1504e+01
    6.6489e+04     1.1406e+01
    6.8717e+04     1.1309e+01
    7.1019e+04     1.1212e+01
    7.3398e+04     1.1117e+01
    7.5857e+04     1.1021e+01
    7.8398e+04     1.0927e+01
    8.1025e+04     1.0833e+01
    8.3739e+04     1.0740e+01
    8.6544e+04     1.0647e+01
    8.9444e+04     1.0556e+01
    9.2440e+04     1.0464e+01
    9.5537e+04     1.0374e+01
    9.8737e+04     1.0284e+01
    1.0205e+05     1.0194e+01
    1.0546e+05     1.0105e+01
    1.0900e+05     1.0017e+01
    1.1265e+05     9.9287e+00
    1.1642e+05     9.8413e+00
    1.2032e+05     9.7545e+00
    1.2435e+05     9.6684e+00
    1.2852e+05     9.5828e+00
    1.3282e+05     9.4979e+00
    1.3727e+05     9.4136e+00
    1.4187e+05     9.3299e+00
    1.4663e+05     9.2468e+00
    1.5154e+05     9.1643e+00
    1.5662e+05     9.0824e+00
    1.6186e+05     9.0011e+00
    1.6728e+05     8.9204e+00
    1.7289e+05     8.8403e+00
    1.7868e+05     8.7607e+00
    1.8467e+05     8.6818e+00
    1.9085e+05     8.6035e+00
    1.9725e+05     8.5257e+00
    2.0385e+05     8.4485e+00
    2.1068e+05     8.3719e+00
    2.1774e+05     8.2959e+00
    2.2504e+05     8.2205e+00
    2.3258e+05     8.1456e+00
    2.4037e+05     8.0713e+00
    2.4842e+05     7.9976e+00
    2.5674e+05     7.9245e+00
    2.6534e+05     7.8520e+00
    2.7423e+05     7.7800e+00
    2.8342e+05     7.7086e+00
    2.9291e+05     7.6378e+00
    3.0273e+05     7.5676e+00
    3.1287e+05     7.4979e+00
    3.2335e+05     7.4288e+00
    3.3418e+05     7.3603e+00
    3.4538e+05     7.2923e+00
    3.5695e+05     7.2248e+00
    3.6891e+05     7.1580e+00
    3.8126e+05     7.0916e+00
    3.9404e+05     7.0259e+00
    4.0724e+05     6.9606e+00
    4.2088e+05     6.8959e+00
    4.3498e+05     6.8318e+00
    4.4955e+05     6.7682e+00
    4.6461e+05     6.7052e+00
    4.8018e+05     6.6428e+00
    4.9626e+05     6.5811e+00
    5.1289e+05     6.5204e+00
    5.3007e+05     6.4606e+00
    5.4783e+05     6.4015e+00
    5.6618e+05     6.3430e+00
    5.8515e+05     6.2851e+00
    6.0475e+05     6.2277e+00
    6.2501e+05     6.1708e+00
    6.4595e+05     6.1145e+00
    6.6759e+05     6.0586e+00
    6.8996e+05     6.0033e+00
    7.1307e+05     5.9484e+00
    7.3696e+05     5.8940e+00
    7.6165e+05     5.8401e+00
    7.8716e+05     5.7866e+00
    8.1353e+05     5.7336e+00
    8.4079e+05     5.6811e+00
    8.6895e+05     5.6291e+00
    8.9806e+05     5.5775e+00
    9.2815e+05     5.5265e+00
    9.5924e+05     5.4759e+00
    9.9138e+05     5.4260e+00
    1.0246e+06     5.3769e+00
    1.0589e+06     5.3286e+00
    1.0944e+06     5.2809e+00
    1.1311e+06     5.2336e+00
    1.1689e+06     5.1869e+00
    1.2081e+06     5.1405e+00
    1.2486e+06     5.0947e+00
    1.2904e+06     5.0492e+00
    1.3336e+06     5.0042e+00
    1.3783e+06     4.9596e+00
    1.4245e+06     4.9154e+00
    1.4722e+06     4.8717e+00
    1.5215e+06     4.8284e+00
    1.5725e+06     4.7855e+00
    1.6252e+06     4.7430e+00
    1.6796e+06     4.7010e+00
    1.7359e+06     4.6593e+00
    1.7941e+06     4.6181e+00
    1.8542e+06     4.5774e+00
    1.9163e+06     4.5370e+00
    1.9805e+06     4.4971e+00
    2.0468e+06     4.4576e+00
    2.1154e+06     4.4185e+00
    2.1863e+06     4.3798e+00
    2.2595e+06     4.3414e+00
    2.3352e+06     4.3034e+00
    2.4134e+06     4.2657e+00
    2.4943e+06     4.2284e+00
    2.5778e+06     4.1914e+00
    2.6642e+06     4.1547e+00
    2.7534e+06     4.1184e+00
    2.8457e+06     4.0825e+00
    2.9410e+06     4.0468e+00
    3.0395e+06     4.0116e+00
    3.1414e+06     3.9766e+00
    3.2466e+06     3.9420e+00
    3.3554e+06     3.9077e+00
    3.4678e+06     3.8737e+00
    3.5840e+06     3.8400e+00
    3.7040e+06     3.8065e+00
    3.8281e+06     3.7733e+00
    3.9564e+06     3.7404e+00
    4.0889e+06     3.7077e+00
    4.2259e+06     3.6753e+00
    4.3674e+06     3.6433e+00
    4.5138e+06     3.6115e+00
    4.6650e+06     3.5801e+00
    4.8213e+06     3.5489e+00
    4.9828e+06     3.5180e+00
    5.1497e+06     3.4874e+00
    5.3222e+06     3.4571e+00
    5.5005e+06     3.4270e+00
    5.6848e+06     3.3972e+00
    5.8752e+06     3.3676e+00
    6.0721e+06     3.3383e+00
    6.2755e+06     3.3092e+00
    6.4857e+06     3.2803e+00
    6.7030e+06     3.2517e+00
    6.9275e+06     3.2232e+00
    7.1596e+06     3.1950e+00
    7.3995e+06     3.1671e+00
    7.6474e+06     3.1393e+00
    7.9036e+06     3.1117e+00
    8.1683e+06     3.0844e+00
    8.4420e+06     3.0572e+00
    8.7248e+06     3.0303e+00
    9.0171e+06     3.0035e+00
    9.3192e+06     2.9769e+00
    9.6314e+06     2.9505e+00
    9.9540e+06     2.9243e+00
    1.0287e+07     2.8983e+00
    1.0632e+07     2.8725e+00
    1.0988e+07     2.8469e+00
    1.1356e+07     2.8215e+00
    1.1737e+07     2.7963e+00
    1.2130e+07     2.7712e+00
    1.2536e+07     2.7464e+00
    1.2956e+07     2.7217e+00
    1.3390e+07     2.6972e+00
    1.3839e+07     2.6730e+00
    1.4303e+07     2.6489e+00
    1.4782e+07     2.6249e+00
    1.5277e+07     2.6012e+00
    1.5789e+07     2.5777e+00
    1.6318e+07     2.5543e+00
    1.6864e+07     2.5311e+00
    1.7429e+07     2.5082e+00
    1.8013e+07     2.4854e+00
    1.8617e+07     2.4628e+00
    1.9240e+07     2.4405e+00
    1.9885e+07     2.4183e+00
    2.0551e+07     2.3964e+00
    2.1240e+07     2.3746e+00
    2.1951e+07     2.3530e+00
    2.2687e+07     2.3316e+00
    2.3447e+07     2.3104e+00
    2.4232e+07     2.2893e+00
    2.5044e+07     2.2685e+00
    2.5883e+07     2.2478e+00
    2.6750e+07     2.2273e+00
    2.7646e+07     2.2070e+00
    2.8572e+07     2.1868e+00
    2.9530e+07     2.1668e+00
    3.0519e+07     2.1471e+00
    3.1541e+07     2.1274e+00
    3.2598e+07     2.1080e+00
    3.3690e+07     2.0887e+00
    3.4819e+07     2.0696e+00
    3.5985e+07     2.0507e+00
    3.7191e+07     2.0320e+00
    3.8436e+07     2.0134e+00
    3.9724e+07     1.9950e+00
    4.1055e+07     1.9767e+00
    4.2430e+07     1.9587e+00
    4.3852e+07     1.9408e+00
    4.5321e+07     1.9231e+00
    4.6839e+07     1.9055e+00
    4.8408e+07     1.8881e+00
    5.0030e+07     1.8709e+00
    5.1706e+07     1.8538e+00
    5.3438e+07     1.8369e+00
    5.5228e+07     1.8202e+00
    5.7079e+07     1.8036e+00
    5.8991e+07     1.7872e+00
    6.0967e+07     1.7710e+00
    6.3009e+07     1.7549e+00
    6.5120e+07     1.7390e+00
    6.7302e+07     1.7232e+00
    6.9557e+07     1.7076e+00
    7.1887e+07     1.6922e+00
    7.4295e+07     1.6769e+00
    7.6784e+07     1.6617e+00
    7.9356e+07     1.6467e+00
    8.2015e+07     1.6319e+00
    8.4762e+07     1.6172e+00
    8.7602e+07     1.6026e+00
    9.0537e+07     1.5881e+00
    9.3570e+07     1.5724e+00
    9.6704e+07     1.5430e+00
    9.9944e+07     1.3749e+00
