    1.0000e+00     2.5999e-08
    1.0335e+00     3.2731e-08
    1.0681e+00     3.6350e-08
    1.1039e+00     4.0028e-08
    1.1409e+00     4.4562e-08
    1.1791e+00     5.0085e-08
    1.2186e+00     5.6843e-08
    1.2594e+00     6.3801e-08
    1.3016e+00     7.0450e-08
    1.3452e+00     7.7933e-08
    1.3903e+00     8.6270e-08
    1.4369e+00     9.5628e-08
    1.4850e+00     1.0616e-07
    1.5348e+00     1.1804e-07
    1.5862e+00     1.3147e-07
    1.6393e+00     1.4662e-07
    1.6942e+00     1.6369e-07
    1.7510e+00     1.8076e-07
    1.8097e+00     1.9866e-07
    1.8703e+00     2.1651e-07
    1.9329e+00     2.3270e-07
    1.9977e+00     2.5767e-07
    2.0646e+00     2.9042e-07
    2.1338e+00     3.2378e-07
    2.2053e+00     3.5862e-07
    2.2791e+00     3.9667e-07
    2.3555e+00     4.3424e-07
    2.4344e+00     4.7893e-07
    2.5160e+00     5.2701e-07
    2.6002e+00     5.7898e-07
    2.6874e+00     6.4091e-07
    2.7774e+00     7.1348e-07
    2.8704e+00     7.9059e-07
    2.9666e+00     8.7531e-07
    3.0660e+00     9.6794e-07
    3.1687e+00     1.0671e-06
    3.2748e+00     1.1771e-06
    3.3845e+00     1.2970e-06
    3.4979e+00     1.4318e-06
    3.6151e+00     1.5871e-06
    3.7362e+00     1.7528e-06
    3.8614e+00     1.9379e-06
    3.9908e+00     2.1417e-06
    4.1244e+00     2.3668e-06
    4.2626e+00     2.6147e-06
    4.4054e+00     2.8872e-06
    4.5530e+00     3.1882e-06
    4.7055e+00     3.5201e-06
    4.8632e+00     3.8911e-06
    5.0261e+00     4.2947e-06
    5.1945e+00     4.7426e-06
    5.3685e+00     5.2412e-06
    5.5483e+00     5.7970e-06
    5.7342e+00     6.3915e-06
    5.9263e+00     7.0605e-06
    6.1249e+00     7.7983e-06
    6.3300e+00     8.6134e-06
    6.5421e+00     9.5077e-06
    6.7613e+00     1.0497e-05
    6.9878e+00     1.1592e-05
    7.2219e+00     1.2802e-05
    7.4638e+00     1.4130e-05
    7.7139e+00     1.5597e-05
    7.9723e+00     1.7221e-05
    8.2394e+00     1.9007e-05
    8.5154e+00     2.0978e-05
    8.8007e+00     2.3155e-05
    9.0955e+00     2.5553e-05
    9.4002e+00     2.8202e-05
    9.7151e+00     3.1117e-05
    1.0041e+01     3.4337e-05
    1.0377e+01     3.7884e-05
    1.0725e+01     4.1797e-05
    1.1084e+01     4.6108e-05
    1.1455e+01     5.0862e-05
    1.1839e+01     5.6102e-05
    1.2236e+01     6.1875e-05
    1.2645e+01     6.8239e-05
    1.3069e+01     7.5250e-05
    1.3507e+01     8.2975e-05
    1.3959e+01     9.1485e-05
    1.4427e+01     1.0086e-04
    1.4910e+01     1.1118e-04
    1.5410e+01     1.2256e-04
    1.5926e+01     1.3508e-04
    1.6460e+01     1.4887e-04
    1.7011e+01     1.6406e-04
    1.7581e+01     1.8078e-04
    1.8170e+01     1.9919e-04
    1.8779e+01     2.1945e-04
    1.9408e+01     2.4176e-04
    2.0058e+01     2.6631e-04
    2.0730e+01     2.9333e-04
    2.1424e+01     3.2306e-04
    2.2142e+01     3.5578e-04
    2.2884e+01     3.9178e-04
    2.3650e+01     4.3138e-04
    2.4443e+01     4.7494e-04
    2.5262e+01     5.2286e-04
    2.6108e+01     5.7557e-04
    2.6983e+01     6.3355e-04
    2.7887e+01     6.9731e-04
    2.8821e+01     7.6737e-04
    2.9786e+01     8.4434e-04
    3.0784e+01     9.2891e-04
    3.1815e+01     1.0218e-03
    3.2881e+01     1.1237e-03
    3.3983e+01     1.2357e-03
    3.5121e+01     1.3585e-03
    3.6298e+01     1.4932e-03
    3.7514e+01     1.6410e-03
    3.8771e+01     1.8029e-03
    4.0069e+01     1.9804e-03
    4.1412e+01     2.1749e-03
    4.2799e+01     2.3880e-03
    4.4233e+01     2.6214e-03
    4.5715e+01     2.8768e-03
    4.7246e+01     3.1563e-03
    4.8829e+01     3.4620e-03
    5.0465e+01     3.7962e-03
    5.2156e+01     4.1612e-03
    5.3903e+01     4.5595e-03
    5.5709e+01     4.9941e-03
    5.7575e+01     5.4677e-03
    5.9504e+01     5.9839e-03
    6.1497e+01     6.5462e-03
    6.3557e+01     7.1585e-03
    6.5687e+01     7.8252e-03
    6.7887e+01     8.5511e-03
    7.0161e+01     9.3410e-03
    7.2512e+01     1.0200e-02
    7.4941e+01     1.1135e-02
    7.7452e+01     1.2152e-02
    8.0046e+01     1.3257e-02
    8.2728e+01     1.4459e-02
    8.5499e+01     1.5765e-02
    8.8364e+01     1.7183e-02
    9.1324e+01     1.8721e-02
    9.4383e+01     2.0391e-02
    9.7545e+01     2.2201e-02
    1.0081e+02     2.4164e-02
    1.0419e+02     2.6292e-02
    1.0768e+02     2.8597e-02
    1.1129e+02     3.1093e-02
    1.1502e+02     3.3795e-02
    1.1887e+02     3.6719e-02
    1.2285e+02     3.9882e-02
    1.2697e+02     4.3300e-02
    1.3122e+02     4.6993e-02
    1.3562e+02     5.0981e-02
    1.4016e+02     5.5284e-02
    1.4486e+02     5.9925e-02
    1.4971e+02     6.4929e-02
    1.5472e+02     7.0321e-02
    1.5991e+02     7.6129e-02
    1.6526e+02     8.2380e-02
    1.7080e+02     8.9106e-02
    1.7652e+02     9.6341e-02
    1.8244e+02     1.0412e-01
    1.8855e+02     1.1248e-01
    1.9486e+02     1.2146e-01
    2.0139e+02     1.3109e-01
    2.0814e+02     1.4143e-01
    2.1511e+02     1.5252e-01
    2.2232e+02     1.6439e-01
    2.2977e+02     1.7709e-01
    2.3746e+02     1.9068e-01
    2.4542e+02     2.0520e-01
    2.5364e+02     2.2070e-01
    2.6214e+02     2.3723e-01
    2.7092e+02     2.5484e-01
    2.8000e+02     2.7359e-01
    2.8938e+02     2.9352e-01
    2.9907e+02     3.1469e-01
    3.0909e+02     3.3714e-01
    3.1945e+02     3.6093e-01
    3.3015e+02     3.8613e-01
    3.4121e+02     4.1277e-01
    3.5264e+02     4.4093e-01
    3.6445e+02     4.7065e-01
    3.7666e+02     5.0200e-01
    3.8928e+02     5.3501e-01
    4.0232e+02     5.6974e-01
    4.1580e+02     6.0622e-01
    4.2973e+02     6.4452e-01
    4.4412e+02     6.8468e-01
    4.5900e+02     7.2677e-01
    4.7438e+02     7.7085e-01
    4.9027e+02     8.1699e-01
    5.0670e+02     8.6528e-01
    5.2367e+02     9.1580e-01
    5.4121e+02     9.6855e-01
    5.5935e+02     1.0235e+00
    5.7808e+02     1.0808e+00
    5.9745e+02     1.1403e+00
    6.1747e+02     1.2021e+00
    6.3815e+02     1.2661e+00
    6.5953e+02     1.3323e+00
    6.8162e+02     1.4009e+00
    7.0446e+02     1.4717e+00
    7.2806e+02     1.5448e+00
    7.5245e+02     1.6202e+00
    7.7766e+02     1.6979e+00
    8.0371e+02     1.7780e+00
    8.3064e+02     1.8604e+00
    8.5846e+02     1.9452e+00
    8.8722e+02     2.0323e+00
    9.1694e+02     2.1218e+00
    9.4766e+02     2.2137e+00
    9.7941e+02     2.3079e+00
    1.0122e+03     2.4043e+00
    1.0461e+03     2.5028e+00
    1.0812e+03     2.6033e+00
    1.1174e+03     2.7058e+00
    1.1548e+03     2.8102e+00
    1.1935e+03     2.9163e+00
    1.2335e+03     3.0241e+00
    1.2748e+03     3.1335e+00
    1.3175e+03     3.2445e+00
    1.3617e+03     3.3570e+00
    1.4073e+03     3.4712e+00
    1.4544e+03     3.5870e+00
    1.5032e+03     3.7045e+00
    1.5535e+03     3.8238e+00
    1.6056e+03     3.9446e+00
    1.6594e+03     4.0666e+00
    1.7149e+03     4.1899e+00
    1.7724e+03     4.3146e+00
    1.8318e+03     4.4406e+00
    1.8931e+03     4.5682e+00
    1.9566e+03     4.6974e+00
    2.0221e+03     4.8286e+00
    2.0898e+03     4.9618e+00
    2.1599e+03     5.0970e+00
    2.2322e+03     5.2343e+00
    2.3070e+03     5.3738e+00
    2.3843e+03     5.5156e+00
    2.4642e+03     5.6599e+00
    2.5467e+03     5.8071e+00
    2.6320e+03     5.9578e+00
    2.7202e+03     6.1125e+00
    2.8113e+03     6.2705e+00
    2.9055e+03     6.4315e+00
    3.0028e+03     6.5950e+00
    3.1034e+03     6.7606e+00
    3.2074e+03     6.9281e+00
    3.3149e+03     7.0970e+00
    3.4259e+03     7.2669e+00
    3.5407e+03     7.4369e+00
    3.6593e+03     7.6054e+00
    3.7819e+03     7.7698e+00
    3.9086e+03     7.9296e+00
    4.0395e+03     8.0857e+00
    4.1749e+03     8.2386e+00
    4.3147e+03     8.3879e+00
    4.4593e+03     8.5338e+00
    4.6087e+03     8.6762e+00
    4.7630e+03     8.8151e+00
    4.9226e+03     8.9506e+00
    5.0875e+03     9.0826e+00
    5.2580e+03     9.2110e+00
    5.4341e+03     9.3360e+00
    5.6162e+03     9.4576e+00
    5.8043e+03     9.5759e+00
    5.9987e+03     9.6909e+00
    6.1997e+03     9.8028e+00
    6.4074e+03     9.9115e+00
    6.6221e+03     1.0017e+01
    6.8439e+03     1.0119e+01
    7.0732e+03     1.0219e+01
    7.3101e+03     1.0314e+01
    7.5550e+03     1.0407e+01
    7.8081e+03     1.0497e+01
    8.0697e+03     1.0584e+01
    8.3401e+03     1.0668e+01
    8.6195e+03     1.0750e+01
    8.9082e+03     1.0829e+01
    9.2066e+03     1.0905e+01
    9.5151e+03     1.0979e+01
    9.8338e+03     1.1050e+01
    1.0163e+04     1.1119e+01
    1.0504e+04     1.1184e+01
    1.0856e+04     1.1247e+01
    1.1219e+04     1.1308e+01
    1.1595e+04     1.1366e+01
    1.1984e+04     1.1422e+01
    1.2385e+04     1.1477e+01
    1.2800e+04     1.1529e+01
    1.3229e+04     1.1579e+01
    1.3672e+04     1.1628e+01
    1.4130e+04     1.1675e+01
    1.4603e+04     1.1721e+01
    1.5093e+04     1.1765e+01
    1.5598e+04     1.1807e+01
    1.6121e+04     1.1849e+01
    1.6661e+04     1.1888e+01
    1.7219e+04     1.1927e+01
    1.7796e+04     1.1964e+01
    1.8392e+04     1.2001e+01
    1.9008e+04     1.2035e+01
    1.9645e+04     1.2069e+01
    2.0303e+04     1.2102e+01
    2.0983e+04     1.2133e+01
    2.1686e+04     1.2163e+01
    2.2413e+04     1.2192e+01
    2.3164e+04     1.2220e+01
    2.3940e+04     1.2247e+01
    2.4742e+04     1.2273e+01
    2.5570e+04     1.2298e+01
    2.6427e+04     1.2322e+01
    2.7312e+04     1.2346e+01
    2.8227e+04     1.2368e+01
    2.9173e+04     1.2390e+01
    3.0150e+04     1.2410e+01
    3.1160e+04     1.2431e+01
    3.2204e+04     1.2450e+01
    3.3283e+04     1.2469e+01
    3.4398e+04     1.2487e+01
    3.5551e+04     1.2504e+01
    3.6741e+04     1.2521e+01
    3.7972e+04     1.2537e+01
    3.9244e+04     1.2552e+01
    4.0559e+04     1.2567e+01
    4.1918e+04     1.2581e+01
    4.3322e+04     1.2595e+01
    4.4774e+04     1.2608e+01
    4.6274e+04     1.2621e+01
    4.7824e+04     1.2633e+01
    4.9426e+04     1.2644e+01
    5.1082e+04     1.2655e+01
    5.2793e+04     1.2664e+01
    5.4562e+04     1.2673e+01
    5.6389e+04     1.2681e+01
    5.8278e+04     1.2688e+01
    6.0231e+04     1.2695e+01
    6.2249e+04     1.2702e+01
    6.4334e+04     1.2708e+01
    6.6489e+04     1.2714e+01
    6.8717e+04     1.2719e+01
    7.1019e+04     1.2724e+01
    7.3398e+04     1.2728e+01
    7.5857e+04     1.2732e+01
    7.8398e+04     1.2736e+01
    8.1025e+04     1.2739e+01
    8.3739e+04     1.2742e+01
    8.6544e+04     1.2745e+01
    8.9444e+04     1.2747e+01
    9.2440e+04     1.2749e+01
    9.5537e+04     1.2751e+01
    9.8737e+04     1.2753e+01
    1.0205e+05     1.2753e+01
    1.0546e+05     1.2754e+01
    1.0900e+05     1.2754e+01
    1.1265e+05     1.2753e+01
    1.1642e+05     1.2753e+01
    1.2032e+05     1.2752e+01
    1.2435e+05     1.2750e+01
    1.2852e+05     1.2749e+01
    1.3282e+05     1.2747e+01
    1.3727e+05     1.2745e+01
    1.4187e+05     1.2743e+01
    1.4663e+05     1.2740e+01
    1.5154e+05     1.2738e+01
    1.5662e+05     1.2735e+01
    1.6186e+05     1.2732e+01
    1.6728e+05     1.2729e+01
    1.7289e+05     1.2725e+01
    1.7868e+05     1.2722e+01
    1.8467e+05     1.2718e+01
    1.9085e+05     1.2714e+01
    1.9725e+05     1.2710e+01
    2.0385e+05     1.2706e+01
    2.1068e+05     1.2701e+01
    2.1774e+05     1.2697e+01
    2.2504e+05     1.2692e+01
    2.3258e+05     1.2688e+01
    2.4037e+05     1.2683e+01
    2.4842e+05     1.2678e+01
    2.5674e+05     1.2673e+01
    2.6534e+05     1.2668e+01
    2.7423e+05     1.2662e+01
    2.8342e+05     1.2657e+01
    2.9291e+05     1.2652e+01
    3.0273e+05     1.2646e+01
    3.1287e+05     1.2640e+01
    3.2335e+05     1.2635e+01
    3.3418e+05     1.2629e+01
    3.4538e+05     1.2623e+01
    3.5695e+05     1.2617e+01
    3.6891e+05     1.2611e+01
    3.8126e+05     1.2604e+01
    3.9404e+05     1.2598e+01
    4.0724e+05     1.2592e+01
    4.2088e+05     1.2585e+01
    4.3498e+05     1.2578e+01
    4.4955e+05     1.2572e+01
    4.6461e+05     1.2565e+01
    4.8018e+05     1.2558e+01
    4.9626e+05     1.2552e+01
    5.1289e+05     1.2546e+01
    5.3007e+05     1.2541e+01
    5.4783e+05     1.2535e+01
    5.6618e+05     1.2530e+01
    5.8515e+05     1.2525e+01
    6.0475e+05     1.2520e+01
    6.2501e+05     1.2515e+01
    6.4595e+05     1.2510e+01
    6.6759e+05     1.2504e+01
    6.8996e+05     1.2499e+01
    7.1307e+05     1.2494e+01
    7.3696e+05     1.2488e+01
    7.6165e+05     1.2483e+01
    7.8716e+05     1.2477e+01
    8.1353e+05     1.2472e+01
    8.4079e+05     1.2466e+01
    8.6895e+05     1.2461e+01
    8.9806e+05     1.2455e+01
    9.2815e+05     1.2449e+01
    9.5924e+05     1.2444e+01
    9.9138e+05     1.2439e+01
    1.0246e+06     1.2434e+01
    1.0589e+06     1.2430e+01
    1.0944e+06     1.2427e+01
    1.1311e+06     1.2424e+01
    1.1689e+06     1.2420e+01
    1.2081e+06     1.2417e+01
    1.2486e+06     1.2414e+01
    1.2904e+06     1.2411e+01
    1.3336e+06     1.2408e+01
    1.3783e+06     1.2404e+01
    1.4245e+06     1.2401e+01
    1.4722e+06     1.2398e+01
    1.5215e+06     1.2395e+01
    1.5725e+06     1.2392e+01
    1.6252e+06     1.2389e+01
    1.6796e+06     1.2385e+01
    1.7359e+06     1.2382e+01
    1.7941e+06     1.2379e+01
    1.8542e+06     1.2376e+01
    1.9163e+06     1.2373e+01
    1.9805e+06     1.2370e+01
    2.0468e+06     1.2367e+01
    2.1154e+06     1.2364e+01
    2.1863e+06     1.2361e+01
    2.2595e+06     1.2358e+01
    2.3352e+06     1.2355e+01
    2.4134e+06     1.2352e+01
    2.4943e+06     1.2349e+01
    2.5778e+06     1.2346e+01
    2.6642e+06     1.2343e+01
    2.7534e+06     1.2340e+01
    2.8457e+06     1.2338e+01
    2.9410e+06     1.2335e+01
    3.0395e+06     1.2332e+01
    3.1414e+06     1.2329e+01
    3.2466e+06     1.2327e+01
    3.3554e+06     1.2324e+01
    3.4678e+06     1.2322e+01
    3.5840e+06     1.2320e+01
    3.7040e+06     1.2318e+01
    3.8281e+06     1.2317e+01
    3.9564e+06     1.2316e+01
    4.0889e+06     1.2315e+01
    4.2259e+06     1.2314e+01
    4.3674e+06     1.2313e+01
    4.5138e+06     1.2313e+01
    4.6650e+06     1.2312e+01
    4.8213e+06     1.2312e+01
    4.9828e+06     1.2312e+01
    5.1497e+06     1.2311e+01
    5.3222e+06     1.2311e+01
    5.5005e+06     1.2311e+01
    5.6848e+06     1.2310e+01
    5.8752e+06     1.2310e+01
    6.0721e+06     1.2310e+01
    6.2755e+06     1.2309e+01
    6.4857e+06     1.2309e+01
    6.7030e+06     1.2309e+01
    6.9275e+06     1.2308e+01
    7.1596e+06     1.2308e+01
    7.3995e+06     1.2307e+01
    7.6474e+06     1.2306e+01
    7.9036e+06     1.2306e+01
    8.1683e+06     1.2305e+01
    8.4420e+06     1.2304e+01
    8.7248e+06     1.2303e+01
    9.0171e+06     1.2303e+01
    9.3192e+06     1.2302e+01
    9.6314e+06     1.2301e+01
    9.9540e+06     1.2300e+01
    1.0287e+07     1.2299e+01
    1.0632e+07     1.2298e+01
    1.0988e+07     1.2296e+01
    1.1356e+07     1.2295e+01
    1.1737e+07     1.2294e+01
    1.2130e+07     1.2293e+01
    1.2536e+07     1.2292e+01
    1.2956e+07     1.2290e+01
    1.3390e+07     1.2289e+01
    1.3839e+07     1.2288e+01
    1.4303e+07     1.2287e+01
    1.4782e+07     1.2285e+01
    1.5277e+07     1.2284e+01
    1.5789e+07     1.2283e+01
    1.6318e+07     1.2282e+01
    1.6864e+07     1.2281e+01
    1.7429e+07     1.2280e+01
    1.8013e+07     1.2280e+01
    1.8617e+07     1.2279e+01
    1.9240e+07     1.2278e+01
    1.9885e+07     1.2278e+01
    2.0551e+07     1.2277e+01
    2.1240e+07     1.2276e+01
    2.1951e+07     1.2276e+01
    2.2687e+07     1.2275e+01
    2.3447e+07     1.2275e+01
    2.4232e+07     1.2274e+01
    2.5044e+07     1.2274e+01
    2.5883e+07     1.2273e+01
    2.6750e+07     1.2273e+01
    2.7646e+07     1.2272e+01
    2.8572e+07     1.2272e+01
    2.9530e+07     1.2271e+01
    3.0519e+07     1.2271e+01
    3.1541e+07     1.2270e+01
    3.2598e+07     1.2270e+01
    3.3690e+07     1.2269e+01
    3.4819e+07     1.2269e+01
    3.5985e+07     1.2269e+01
    3.7191e+07     1.2268e+01
    3.8436e+07     1.2268e+01
    3.9724e+07     1.2268e+01
    4.1055e+07     1.2267e+01
    4.2430e+07     1.2267e+01
    4.3852e+07     1.2267e+01
    4.5321e+07     1.2267e+01
    4.6839e+07     1.2267e+01
    4.8408e+07     1.2267e+01
    5.0030e+07     1.2267e+01
    5.1706e+07     1.2267e+01
    5.3438e+07     1.2267e+01
    5.5228e+07     1.2267e+01
    5.7079e+07     1.2267e+01
    5.8991e+07     1.2267e+01
    6.0967e+07     1.2267e+01
    6.3009e+07     1.2268e+01
    6.5120e+07     1.2268e+01
    6.7302e+07     1.2269e+01
    6.9557e+07     1.2269e+01
    7.1887e+07     1.2270e+01
    7.4295e+07     1.2270e+01
    7.6784e+07     1.2271e+01
    7.9356e+07     1.2272e+01
    8.2015e+07     1.2273e+01
    8.4762e+07     1.2273e+01
    8.7602e+07     1.2274e+01
    9.0537e+07     1.2275e+01
    9.3570e+07     1.2273e+01
    9.6704e+07     1.2227e+01
    9.9944e+07     1.1550e+01
