    1.0000e+00     1.7747e-08
    1.0335e+00     1.9102e-08
    1.0681e+00     2.1003e-08
    1.1039e+00     2.2897e-08
    1.1409e+00     2.5146e-08
    1.1791e+00     2.7920e-08
    1.2186e+00     3.0901e-08
    1.2594e+00     3.3821e-08
    1.3016e+00     3.7056e-08
    1.3452e+00     4.0683e-08
    1.3903e+00     4.4808e-08
    1.4369e+00     5.0093e-08
    1.4850e+00     5.6452e-08
    1.5348e+00     6.4266e-08
    1.5862e+00     7.1933e-08
    1.6393e+00     7.9567e-08
    1.6942e+00     8.8119e-08
    1.7510e+00     9.7663e-08
    1.8097e+00     1.0839e-07
    1.8703e+00     1.2047e-07
    1.9329e+00     1.3409e-07
    1.9977e+00     1.4946e-07
    2.0646e+00     1.6673e-07
    2.1338e+00     1.8552e-07
    2.2053e+00     2.0435e-07
    2.2791e+00     2.2365e-07
    2.3555e+00     2.4213e-07
    2.4344e+00     2.6316e-07
    2.5160e+00     2.9521e-07
    2.6002e+00     3.3256e-07
    2.6874e+00     3.6891e-07
    2.7774e+00     4.0815e-07
    2.8704e+00     4.4945e-07
    2.9666e+00     4.9380e-07
    3.0660e+00     5.4358e-07
    3.1687e+00     5.9825e-07
    3.2748e+00     6.6188e-07
    3.3845e+00     7.3762e-07
    3.4979e+00     8.1833e-07
    3.6151e+00     9.0708e-07
    3.7362e+00     1.0040e-06
    3.8614e+00     1.1085e-06
    3.9908e+00     1.2242e-06
    4.1244e+00     1.3503e-06
    4.2626e+00     1.4892e-06
    4.4054e+00     1.6526e-06
    4.5530e+00     1.8272e-06
    4.7055e+00     2.0229e-06
    4.8632e+00     2.2375e-06
    5.0261e+00     2.4749e-06
    5.1945e+00     2.7365e-06
    5.3685e+00     3.0243e-06
    5.5483e+00     3.3422e-06
    5.7342e+00     3.6936e-06
    5.9263e+00     4.0873e-06
    6.1249e+00     4.5160e-06
    6.3300e+00     4.9927e-06
    6.5421e+00     5.5241e-06
    6.7613e+00     6.1161e-06
    6.9878e+00     6.7469e-06
    7.2219e+00     7.4646e-06
    7.4638e+00     8.2553e-06
    7.7139e+00     9.1239e-06
    7.9723e+00     1.0086e-05
    8.2394e+00     1.1148e-05
    8.5154e+00     1.2326e-05
    8.8007e+00     1.3627e-05
    9.0955e+00     1.5057e-05
    9.4002e+00     1.6648e-05
    9.7151e+00     1.8400e-05
    1.0041e+01     2.0335e-05
    1.0377e+01     2.2475e-05
    1.0725e+01     2.4840e-05
    1.1084e+01     2.7453e-05
    1.1455e+01     3.0337e-05
    1.1839e+01     3.3525e-05
    1.2236e+01     3.7047e-05
    1.2645e+01     4.0935e-05
    1.3069e+01     4.5231e-05
    1.3507e+01     4.9977e-05
    1.3959e+01     5.5216e-05
    1.4427e+01     6.1004e-05
    1.4910e+01     6.7392e-05
    1.5410e+01     7.4439e-05
    1.5926e+01     8.2209e-05
    1.6460e+01     9.0777e-05
    1.7011e+01     1.0022e-04
    1.7581e+01     1.1062e-04
    1.8170e+01     1.2206e-04
    1.8779e+01     1.3464e-04
    1.9408e+01     1.4845e-04
    2.0058e+01     1.6362e-04
    2.0730e+01     1.8023e-04
    2.1424e+01     1.9847e-04
    2.2142e+01     2.1847e-04
    2.2884e+01     2.4039e-04
    2.3650e+01     2.6442e-04
    2.4443e+01     2.9074e-04
    2.5262e+01     3.1955e-04
    2.6108e+01     3.5109e-04
    2.6983e+01     3.8562e-04
    2.7887e+01     4.2341e-04
    2.8821e+01     4.6473e-04
    2.9786e+01     5.0995e-04
    3.0784e+01     5.5942e-04
    3.1815e+01     6.1356e-04
    3.2881e+01     6.7279e-04
    3.3983e+01     7.3760e-04
    3.5121e+01     8.0850e-04
    3.6298e+01     8.8605e-04
    3.7514e+01     9.7090e-04
    3.8771e+01     1.0637e-03
    4.0069e+01     1.1654e-03
    4.1412e+01     1.2766e-03
    4.2799e+01     1.3984e-03
    4.4233e+01     1.5319e-03
    4.5715e+01     1.6782e-03
    4.7246e+01     1.8385e-03
    4.8829e+01     2.0138e-03
    5.0465e+01     2.2055e-03
    5.2156e+01     2.4149e-03
    5.3903e+01     2.6435e-03
    5.5709e+01     2.8930e-03
    5.7575e+01     3.1651e-03
    5.9504e+01     3.4620e-03
    6.1497e+01     3.7857e-03
    6.3557e+01     4.1386e-03
    6.5687e+01     4.5232e-03
    6.7887e+01     4.9425e-03
    7.0161e+01     5.3995e-03
    7.2512e+01     5.8975e-03
    7.4941e+01     6.4400e-03
    7.7452e+01     7.0307e-03
    8.0046e+01     7.6734e-03
    8.2728e+01     8.3725e-03
    8.5499e+01     9.1327e-03
    8.8364e+01     9.9590e-03
    9.1324e+01     1.0857e-02
    9.4383e+01     1.1832e-02
    9.7545e+01     1.2890e-02
    1.0081e+02     1.4039e-02
    1.0419e+02     1.5285e-02
    1.0768e+02     1.6635e-02
    1.1129e+02     1.8099e-02
    1.1502e+02     1.9685e-02
    1.1887e+02     2.1401e-02
    1.2285e+02     2.3259e-02
    1.2697e+02     2.5270e-02
    1.3122e+02     2.7444e-02
    1.3562e+02     2.9794e-02
    1.4016e+02     3.2334e-02
    1.4486e+02     3.5077e-02
    1.4971e+02     3.8040e-02
    1.5472e+02     4.1237e-02
    1.5991e+02     4.4687e-02
    1.6526e+02     4.8408e-02
    1.7080e+02     5.2420e-02
    1.7652e+02     5.6743e-02
    1.8244e+02     6.1400e-02
    1.8855e+02     6.6416e-02
    1.9486e+02     7.1816e-02
    2.0139e+02     7.7628e-02
    2.0814e+02     8.3880e-02
    2.1511e+02     9.0608e-02
    2.2232e+02     9.7846e-02
    2.2977e+02     1.0563e-01
    2.3746e+02     1.1399e-01
    2.4542e+02     1.2295e-01
    2.5364e+02     1.3255e-01
    2.6214e+02     1.4283e-01
    2.7092e+02     1.5383e-01
    2.8000e+02     1.6558e-01
    2.8938e+02     1.7813e-01
    2.9907e+02     1.9153e-01
    3.0909e+02     2.0581e-01
    3.1945e+02     2.2103e-01
    3.3015e+02     2.3722e-01
    3.4121e+02     2.5444e-01
    3.5264e+02     2.7274e-01
    3.6445e+02     2.9215e-01
    3.7666e+02     3.1273e-01
    3.8928e+02     3.3452e-01
    4.0232e+02     3.5758e-01
    4.1580e+02     3.8195e-01
    4.2973e+02     4.0767e-01
    4.4412e+02     4.3479e-01
    4.5900e+02     4.6334e-01
    4.7438e+02     4.9337e-01
    4.9027e+02     5.2493e-01
    5.0670e+02     5.5804e-01
    5.2367e+02     5.9273e-01
    5.4121e+02     6.2904e-01
    5.5935e+02     6.6700e-01
    5.7808e+02     7.0661e-01
    5.9745e+02     7.4790e-01
    6.1747e+02     7.9084e-01
    6.3815e+02     8.3550e-01
    6.5953e+02     8.8191e-01
    6.8162e+02     9.3013e-01
    7.0446e+02     9.8023e-01
    7.2806e+02     1.0323e+00
    7.5245e+02     1.0863e+00
    7.7766e+02     1.1422e+00
    8.0371e+02     1.2000e+00
    8.3064e+02     1.2597e+00
    8.5846e+02     1.3211e+00
    8.8722e+02     1.3844e+00
    9.1694e+02     1.4496e+00
    9.4766e+02     1.5165e+00
    9.7941e+02     1.5852e+00
    1.0122e+03     1.6556e+00
    1.0461e+03     1.7276e+00
    1.0812e+03     1.8012e+00
    1.1174e+03     1.8764e+00
    1.1548e+03     1.9532e+00
    1.1935e+03     2.0315e+00
    1.2335e+03     2.1114e+00
    1.2748e+03     2.1928e+00
    1.3175e+03     2.2757e+00
    1.3617e+03     2.3601e+00
    1.4073e+03     2.4461e+00
    1.4544e+03     2.5336e+00
    1.5032e+03     2.6229e+00
    1.5535e+03     2.7140e+00
    1.6056e+03     2.8069e+00
    1.6594e+03     2.9016e+00
    1.7149e+03     2.9981e+00
    1.7724e+03     3.0965e+00
    1.8318e+03     3.1968e+00
    1.8931e+03     3.2991e+00
    1.9566e+03     3.4037e+00
    2.0221e+03     3.5109e+00
    2.0898e+03     3.6210e+00
    2.1599e+03     3.7339e+00
    2.2322e+03     3.8496e+00
    2.3070e+03     3.9678e+00
    2.3843e+03     4.0888e+00
    2.4642e+03     4.2124e+00
    2.5467e+03     4.3387e+00
    2.6320e+03     4.4677e+00
    2.7202e+03     4.5992e+00
    2.8113e+03     4.7333e+00
    2.9055e+03     4.8698e+00
    3.0028e+03     5.0084e+00
    3.1034e+03     5.1487e+00
    3.2074e+03     5.2908e+00
    3.3149e+03     5.4346e+00
    3.4259e+03     5.5798e+00
    3.5407e+03     5.7261e+00
    3.6593e+03     5.8731e+00
    3.7819e+03     6.0199e+00
    3.9086e+03     6.1654e+00
    4.0395e+03     6.3074e+00
    4.1749e+03     6.4451e+00
    4.3147e+03     6.5790e+00
    4.4593e+03     6.7094e+00
    4.6087e+03     6.8365e+00
    4.7630e+03     6.9603e+00
    4.9226e+03     7.0809e+00
    5.0875e+03     7.1979e+00
    5.2580e+03     7.3115e+00
    5.4341e+03     7.4218e+00
    5.6162e+03     7.5289e+00
    5.8043e+03     7.6330e+00
    5.9987e+03     7.7342e+00
    6.1997e+03     7.8325e+00
    6.4074e+03     7.9280e+00
    6.6221e+03     8.0207e+00
    6.8439e+03     8.1108e+00
    7.0732e+03     8.1982e+00
    7.3101e+03     8.2829e+00
    7.5550e+03     8.3650e+00
    7.8081e+03     8.4447e+00
    8.0697e+03     8.5221e+00
    8.3401e+03     8.5973e+00
    8.6195e+03     8.6703e+00
    8.9082e+03     8.7411e+00
    9.2066e+03     8.8099e+00
    9.5151e+03     8.8766e+00
    9.8338e+03     8.9412e+00
    1.0163e+04     9.0035e+00
    1.0504e+04     9.0634e+00
    1.0856e+04     9.1213e+00
    1.1219e+04     9.1772e+00
    1.1595e+04     9.2313e+00
    1.1984e+04     9.2837e+00
    1.2385e+04     9.3345e+00
    1.2800e+04     9.3836e+00
    1.3229e+04     9.4313e+00
    1.3672e+04     9.4776e+00
    1.4130e+04     9.5225e+00
    1.4603e+04     9.5661e+00
    1.5093e+04     9.6085e+00
    1.5598e+04     9.6496e+00
    1.6121e+04     9.6896e+00
    1.6661e+04     9.7284e+00
    1.7219e+04     9.7662e+00
    1.7796e+04     9.8028e+00
    1.8392e+04     9.8384e+00
    1.9008e+04     9.8729e+00
    1.9645e+04     9.9063e+00
    2.0303e+04     9.9383e+00
    2.0983e+04     9.9691e+00
    2.1686e+04     9.9988e+00
    2.2413e+04     1.0027e+01
    2.3164e+04     1.0055e+01
    2.3940e+04     1.0081e+01
    2.4742e+04     1.0107e+01
    2.5570e+04     1.0132e+01
    2.6427e+04     1.0156e+01
    2.7312e+04     1.0179e+01
    2.8227e+04     1.0201e+01
    2.9173e+04     1.0223e+01
    3.0150e+04     1.0243e+01
    3.1160e+04     1.0263e+01
    3.2204e+04     1.0283e+01
    3.3283e+04     1.0302e+01
    3.4398e+04     1.0320e+01
    3.5551e+04     1.0337e+01
    3.6741e+04     1.0354e+01
    3.7972e+04     1.0370e+01
    3.9244e+04     1.0386e+01
    4.0559e+04     1.0401e+01
    4.1918e+04     1.0416e+01
    4.3322e+04     1.0430e+01
    4.4774e+04     1.0443e+01
    4.6274e+04     1.0456e+01
    4.7824e+04     1.0469e+01
    4.9426e+04     1.0480e+01
    5.1082e+04     1.0491e+01
    5.2793e+04     1.0500e+01
    5.4562e+04     1.0509e+01
    5.6389e+04     1.0517e+01
    5.8278e+04     1.0525e+01
    6.0231e+04     1.0532e+01
    6.2249e+04     1.0538e+01
    6.4334e+04     1.0544e+01
    6.6489e+04     1.0550e+01
    6.8717e+04     1.0555e+01
    7.1019e+04     1.0560e+01
    7.3398e+04     1.0564e+01
    7.5857e+04     1.0568e+01
    7.8398e+04     1.0572e+01
    8.1025e+04     1.0575e+01
    8.3739e+04     1.0578e+01
    8.6544e+04     1.0580e+01
    8.9444e+04     1.0583e+01
    9.2440e+04     1.0584e+01
    9.5537e+04     1.0586e+01
    9.8737e+04     1.0587e+01
    1.0205e+05     1.0588e+01
    1.0546e+05     1.0588e+01
    1.0900e+05     1.0588e+01
    1.1265e+05     1.0587e+01
    1.1642e+05     1.0586e+01
    1.2032e+05     1.0585e+01
    1.2435e+05     1.0584e+01
    1.2852e+05     1.0582e+01
    1.3282e+05     1.0580e+01
    1.3727e+05     1.0578e+01
    1.4187e+05     1.0575e+01
    1.4663e+05     1.0573e+01
    1.5154e+05     1.0570e+01
    1.5662e+05     1.0567e+01
    1.6186e+05     1.0563e+01
    1.6728e+05     1.0560e+01
    1.7289e+05     1.0556e+01
    1.7868e+05     1.0552e+01
    1.8467e+05     1.0548e+01
    1.9085e+05     1.0544e+01
    1.9725e+05     1.0539e+01
    2.0385e+05     1.0535e+01
    2.1068e+05     1.0530e+01
    2.1774e+05     1.0525e+01
    2.2504e+05     1.0520e+01
    2.3258e+05     1.0515e+01
    2.4037e+05     1.0509e+01
    2.4842e+05     1.0504e+01
    2.5674e+05     1.0498e+01
    2.6534e+05     1.0492e+01
    2.7423e+05     1.0486e+01
    2.8342e+05     1.0480e+01
    2.9291e+05     1.0474e+01
    3.0273e+05     1.0468e+01
    3.1287e+05     1.0461e+01
    3.2335e+05     1.0455e+01
    3.3418e+05     1.0448e+01
    3.4538e+05     1.0441e+01
    3.5695e+05     1.0434e+01
    3.6891e+05     1.0427e+01
    3.8126e+05     1.0420e+01
    3.9404e+05     1.0413e+01
    4.0724e+05     1.0406e+01
    4.2088e+05     1.0398e+01
    4.3498e+05     1.0391e+01
    4.4955e+05     1.0383e+01
    4.6461e+05     1.0376e+01
    4.8018e+05     1.0368e+01
    4.9626e+05     1.0361e+01
    5.1289e+05     1.0354e+01
    5.3007e+05     1.0348e+01
    5.4783e+05     1.0342e+01
    5.6618e+05     1.0336e+01
    5.8515e+05     1.0330e+01
    6.0475e+05     1.0324e+01
    6.2501e+05     1.0318e+01
    6.4595e+05     1.0312e+01
    6.6759e+05     1.0306e+01
    6.8996e+05     1.0300e+01
    7.1307e+05     1.0293e+01
    7.3696e+05     1.0287e+01
    7.6165e+05     1.0281e+01
    7.8716e+05     1.0275e+01
    8.1353e+05     1.0268e+01
    8.4079e+05     1.0262e+01
    8.6895e+05     1.0255e+01
    8.9806e+05     1.0249e+01
    9.2815e+05     1.0242e+01
    9.5924e+05     1.0236e+01
    9.9138e+05     1.0230e+01
    1.0246e+06     1.0224e+01
    1.0589e+06     1.0219e+01
    1.0944e+06     1.0213e+01
    1.1311e+06     1.0208e+01
    1.1689e+06     1.0203e+01
    1.2081e+06     1.0198e+01
    1.2486e+06     1.0193e+01
    1.2904e+06     1.0188e+01
    1.3336e+06     1.0183e+01
    1.3783e+06     1.0178e+01
    1.4245e+06     1.0173e+01
    1.4722e+06     1.0167e+01
    1.5215e+06     1.0162e+01
    1.5725e+06     1.0157e+01
    1.6252e+06     1.0152e+01
    1.6796e+06     1.0147e+01
    1.7359e+06     1.0142e+01
    1.7941e+06     1.0137e+01
    1.8542e+06     1.0132e+01
    1.9163e+06     1.0127e+01
    1.9805e+06     1.0121e+01
    2.0468e+06     1.0116e+01
    2.1154e+06     1.0111e+01
    2.1863e+06     1.0106e+01
    2.2595e+06     1.0101e+01
    2.3352e+06     1.0096e+01
    2.4134e+06     1.0091e+01
    2.4943e+06     1.0086e+01
    2.5778e+06     1.0081e+01
    2.6642e+06     1.0076e+01
    2.7534e+06     1.0071e+01
    2.8457e+06     1.0066e+01
    2.9410e+06     1.0061e+01
    3.0395e+06     1.0056e+01
    3.1414e+06     1.0052e+01
    3.2466e+06     1.0047e+01
    3.3554e+06     1.0042e+01
    3.4678e+06     1.0037e+01
    3.5840e+06     1.0033e+01
    3.7040e+06     1.0029e+01
    3.8281e+06     1.0025e+01
    3.9564e+06     1.0021e+01
    4.0889e+06     1.0017e+01
    4.2259e+06     1.0014e+01
    4.3674e+06     1.0011e+01
    4.5138e+06     1.0007e+01
    4.6650e+06     1.0004e+01
    4.8213e+06     1.0001e+01
    4.9828e+06     9.9982e+00
    5.1497e+06     9.9952e+00
    5.3222e+06     9.9923e+00
    5.5005e+06     9.9894e+00
    5.6848e+06     9.9865e+00
    5.8752e+06     9.9837e+00
    6.0721e+06     9.9808e+00
    6.2755e+06     9.9780e+00
    6.4857e+06     9.9750e+00
    6.7030e+06     9.9721e+00
    6.9275e+06     9.9691e+00
    7.1596e+06     9.9661e+00
    7.3995e+06     9.9631e+00
    7.6474e+06     9.9601e+00
    7.9036e+06     9.9570e+00
    8.1683e+06     9.9540e+00
    8.4420e+06     9.9509e+00
    8.7248e+06     9.9477e+00
    9.0171e+06     9.9445e+00
    9.3192e+06     9.9413e+00
    9.6314e+06     9.9381e+00
    9.9540e+06     9.9348e+00
    1.0287e+07     9.9315e+00
    1.0632e+07     9.9281e+00
    1.0988e+07     9.9247e+00
    1.1356e+07     9.9214e+00
    1.1737e+07     9.9179e+00
    1.2130e+07     9.9145e+00
    1.2536e+07     9.9111e+00
    1.2956e+07     9.9076e+00
    1.3390e+07     9.9042e+00
    1.3839e+07     9.9007e+00
    1.4303e+07     9.8973e+00
    1.4782e+07     9.8938e+00
    1.5277e+07     9.8904e+00
    1.5789e+07     9.8871e+00
    1.6318e+07     9.8838e+00
    1.6864e+07     9.8806e+00
    1.7429e+07     9.8775e+00
    1.8013e+07     9.8745e+00
    1.8617e+07     9.8715e+00
    1.9240e+07     9.8686e+00
    1.9885e+07     9.8657e+00
    2.0551e+07     9.8629e+00
    2.1240e+07     9.8601e+00
    2.1951e+07     9.8573e+00
    2.2687e+07     9.8545e+00
    2.3447e+07     9.8518e+00
    2.4232e+07     9.8491e+00
    2.5044e+07     9.8464e+00
    2.5883e+07     9.8437e+00
    2.6750e+07     9.8411e+00
    2.7646e+07     9.8385e+00
    2.8572e+07     9.8359e+00
    2.9530e+07     9.8333e+00
    3.0519e+07     9.8307e+00
    3.1541e+07     9.8282e+00
    3.2598e+07     9.8257e+00
    3.3690e+07     9.8232e+00
    3.4819e+07     9.8207e+00
    3.5985e+07     9.8182e+00
    3.7191e+07     9.8158e+00
    3.8436e+07     9.8134e+00
    3.9724e+07     9.8111e+00
    4.1055e+07     9.8088e+00
    4.2430e+07     9.8065e+00
    4.3852e+07     9.8043e+00
    4.5321e+07     9.8021e+00
    4.6839e+07     9.7999e+00
    4.8408e+07     9.7977e+00
    5.0030e+07     9.7957e+00
    5.1706e+07     9.7936e+00
    5.3438e+07     9.7916e+00
    5.5228e+07     9.7897e+00
    5.7079e+07     9.7878e+00
    5.8991e+07     9.7859e+00
    6.0967e+07     9.7841e+00
    6.3009e+07     9.7824e+00
    6.5120e+07     9.7807e+00
    6.7302e+07     9.7791e+00
    6.9557e+07     9.7775e+00
    7.1887e+07     9.7760e+00
    7.4295e+07     9.7745e+00
    7.6784e+07     9.7731e+00
    7.9356e+07     9.7718e+00
    8.2015e+07     9.7705e+00
    8.4762e+07     9.7693e+00
    8.7602e+07     9.7681e+00
    9.0537e+07     9.7668e+00
    9.3570e+07     9.7628e+00
    9.6704e+07     9.7212e+00
    9.9944e+07     9.1581e+00
