    1.0000e+00     9.3958e-11
    1.0335e+00     1.0996e-10
    1.0681e+00     1.2378e-10
    1.1039e+00     1.3907e-10
    1.1409e+00     1.5625e-10
    1.1791e+00     1.7565e-10
    1.2186e+00     1.9762e-10
    1.2594e+00     2.2246e-10
    1.3016e+00     2.4989e-10
    1.3452e+00     2.8061e-10
    1.3903e+00     3.1417e-10
    1.4369e+00     3.5204e-10
    1.4850e+00     3.9538e-10
    1.5348e+00     4.4519e-10
    1.5862e+00     5.0107e-10
    1.6393e+00     5.6364e-10
    1.6942e+00     6.3295e-10
    1.7510e+00     7.1002e-10
    1.8097e+00     7.9649e-10
    1.8703e+00     8.9327e-10
    1.9329e+00     1.0032e-09
    1.9977e+00     1.1277e-09
    2.0646e+00     1.2680e-09
    2.1338e+00     1.4257e-09
    2.2053e+00     1.6019e-09
    2.2791e+00     1.7992e-09
    2.3555e+00     2.0210e-09
    2.4344e+00     2.2700e-09
    2.5160e+00     2.5502e-09
    2.6002e+00     2.8655e-09
    2.6874e+00     3.2201e-09
    2.7774e+00     3.6205e-09
    2.8704e+00     4.0689e-09
    2.9666e+00     4.5720e-09
    3.0660e+00     5.1372e-09
    3.1687e+00     5.7721e-09
    3.2748e+00     6.4860e-09
    3.3845e+00     7.2884e-09
    3.4979e+00     8.1908e-09
    3.6151e+00     9.2057e-09
    3.7362e+00     1.0346e-08
    3.8614e+00     1.1628e-08
    3.9908e+00     1.3070e-08
    4.1244e+00     1.4689e-08
    4.2626e+00     1.6507e-08
    4.4054e+00     1.8550e-08
    4.5530e+00     2.0848e-08
    4.7055e+00     2.3429e-08
    4.8632e+00     2.6332e-08
    5.0261e+00     2.9594e-08
    5.1945e+00     3.3262e-08
    5.3685e+00     3.7384e-08
    5.5483e+00     4.2015e-08
    5.7342e+00     4.7217e-08
    5.9263e+00     5.3066e-08
    6.1249e+00     5.9638e-08
    6.3300e+00     6.7024e-08
    6.5421e+00     7.5324e-08
    6.7613e+00     8.4653e-08
    6.9878e+00     9.5135e-08
    7.2219e+00     1.0691e-07
    7.4638e+00     1.2014e-07
    7.7139e+00     1.3502e-07
    7.9723e+00     1.5172e-07
    8.2394e+00     1.7050e-07
    8.5154e+00     1.9159e-07
    8.8007e+00     2.1529e-07
    9.0955e+00     2.4191e-07
    9.4002e+00     2.7182e-07
    9.7151e+00     3.0541e-07
    1.0041e+01     3.4316e-07
    1.0377e+01     3.8555e-07
    1.0725e+01     4.3317e-07
    1.1084e+01     4.8665e-07
    1.1455e+01     5.4672e-07
    1.1839e+01     6.1418e-07
    1.2236e+01     6.8993e-07
    1.2645e+01     7.7500e-07
    1.3069e+01     8.7052e-07
    1.3507e+01     9.7777e-07
    1.3959e+01     1.0982e-06
    1.4427e+01     1.2334e-06
    1.4910e+01     1.3851e-06
    1.5410e+01     1.5555e-06
    1.5926e+01     1.7467e-06
    1.6460e+01     1.9613e-06
    1.7011e+01     2.2021e-06
    1.7581e+01     2.4724e-06
    1.8170e+01     2.7756e-06
    1.8779e+01     3.1159e-06
    1.9408e+01     3.4977e-06
    2.0058e+01     3.9259e-06
    2.0730e+01     4.4063e-06
    2.1424e+01     4.9452e-06
    2.2142e+01     5.5494e-06
    2.2884e+01     6.2270e-06
    2.3650e+01     6.9868e-06
    2.4443e+01     7.8386e-06
    2.5262e+01     8.7934e-06
    2.6108e+01     9.8636e-06
    2.6983e+01     1.1063e-05
    2.7887e+01     1.2407e-05
    2.8821e+01     1.3913e-05
    2.9786e+01     1.5600e-05
    3.0784e+01     1.7488e-05
    3.1815e+01     1.9603e-05
    3.2881e+01     2.1971e-05
    3.3983e+01     2.4621e-05
    3.5121e+01     2.7587e-05
    3.6298e+01     3.0905e-05
    3.7514e+01     3.4617e-05
    3.8771e+01     3.8769e-05
    4.0069e+01     4.3412e-05
    4.1412e+01     4.8602e-05
    4.2799e+01     5.4403e-05
    4.4233e+01     6.0885e-05
    4.5715e+01     6.8125e-05
    4.7246e+01     7.6211e-05
    4.8829e+01     8.5239e-05
    5.0465e+01     9.5316e-05
    5.2156e+01     1.0656e-04
    5.3903e+01     1.1910e-04
    5.5709e+01     1.3308e-04
    5.7575e+01     1.4867e-04
    5.9504e+01     1.6604e-04
    6.1497e+01     1.8538e-04
    6.3557e+01     2.0691e-04
    6.5687e+01     2.3089e-04
    6.7887e+01     2.5756e-04
    7.0161e+01     2.8723e-04
    7.2512e+01     3.2021e-04
    7.4941e+01     3.5687e-04
    7.7452e+01     3.9760e-04
    8.0046e+01     4.4282e-04
    8.2728e+01     4.9303e-04
    8.5499e+01     5.4874e-04
    8.8364e+01     6.1054e-04
    9.1324e+01     6.7909e-04
    9.4383e+01     7.5507e-04
    9.7545e+01     8.3926e-04
    1.0081e+02     9.3250e-04
    1.0419e+02     1.0357e-03
    1.0768e+02     1.1500e-03
    1.1129e+02     1.2764e-03
    1.1502e+02     1.4161e-03
    1.1887e+02     1.5707e-03
    1.2285e+02     1.7415e-03
    1.2697e+02     1.9301e-03
    1.3122e+02     2.1383e-03
    1.3562e+02     2.3678e-03
    1.4016e+02     2.6209e-03
    1.4486e+02     2.8995e-03
    1.4971e+02     3.2063e-03
    1.5472e+02     3.5438e-03
    1.5991e+02     3.9149e-03
    1.6526e+02     4.3225e-03
    1.7080e+02     4.7700e-03
    1.7652e+02     5.2610e-03
    1.8244e+02     5.7994e-03
    1.8855e+02     6.3891e-03
    1.9486e+02     7.0344e-03
    2.0139e+02     7.7399e-03
    2.0814e+02     8.5103e-03
    2.1511e+02     9.3510e-03
    2.2232e+02     1.0268e-02
    2.2977e+02     1.1266e-02
    2.3746e+02     1.2353e-02
    2.4542e+02     1.3534e-02
    2.5364e+02     1.4817e-02
    2.6214e+02     1.6207e-02
    2.7092e+02     1.7713e-02
    2.8000e+02     1.9340e-02
    2.8938e+02     2.1096e-02
    2.9907e+02     2.2987e-02
    3.0909e+02     2.5020e-02
    3.1945e+02     2.7203e-02
    3.3015e+02     2.9541e-02
    3.4121e+02     3.2042e-02
    3.5264e+02     3.4712e-02
    3.6445e+02     3.7557e-02
    3.7666e+02     4.0580e-02
    3.8928e+02     4.3786e-02
    4.0232e+02     4.7178e-02
    4.1580e+02     5.0756e-02
    4.2973e+02     5.4525e-02
    4.4412e+02     5.8486e-02
    4.5900e+02     6.2643e-02
    4.7438e+02     6.7001e-02
    4.9027e+02     7.1561e-02
    5.0670e+02     7.6326e-02
    5.2367e+02     8.1298e-02
    5.4121e+02     8.6474e-02
    5.5935e+02     9.1852e-02
    5.7808e+02     9.7427e-02
    5.9745e+02     1.0320e-01
    6.1747e+02     1.0916e-01
    6.3815e+02     1.1531e-01
    6.5953e+02     1.2163e-01
    6.8162e+02     1.2812e-01
    7.0446e+02     1.3477e-01
    7.2806e+02     1.4156e-01
    7.5245e+02     1.4850e-01
    7.7766e+02     1.5554e-01
    8.0371e+02     1.6268e-01
    8.3064e+02     1.6990e-01
    8.5846e+02     1.7719e-01
    8.8722e+02     1.8454e-01
    9.1694e+02     1.9193e-01
    9.4766e+02     1.9937e-01
    9.7941e+02     2.0684e-01
    1.0122e+03     2.1431e-01
    1.0461e+03     2.2179e-01
    1.0812e+03     2.2928e-01
    1.1174e+03     2.3678e-01
    1.1548e+03     2.4431e-01
    1.1935e+03     2.5187e-01
    1.2335e+03     2.5948e-01
    1.2748e+03     2.6717e-01
    1.3175e+03     2.7494e-01
    1.3617e+03     2.8283e-01
    1.4073e+03     2.9086e-01
    1.4544e+03     2.9903e-01
    1.5032e+03     3.0738e-01
    1.5535e+03     3.1593e-01
    1.6056e+03     3.2467e-01
    1.6594e+03     3.3359e-01
    1.7149e+03     3.4269e-01
    1.7724e+03     3.5195e-01
    1.8318e+03     3.6138e-01
    1.8931e+03     3.7097e-01
    1.9566e+03     3.8073e-01
    2.0221e+03     3.9067e-01
    2.0898e+03     4.0082e-01
    2.1599e+03     4.1114e-01
    2.2322e+03     4.2161e-01
    2.3070e+03     4.3224e-01
    2.3843e+03     4.4300e-01
    2.4642e+03     4.5389e-01
    2.5467e+03     4.6491e-01
    2.6320e+03     4.7603e-01
    2.7202e+03     4.8726e-01
    2.8113e+03     4.9857e-01
    2.9055e+03     5.0995e-01
    3.0028e+03     5.2136e-01
    3.1034e+03     5.3276e-01
    3.2074e+03     5.4414e-01
    3.3149e+03     5.5548e-01
    3.4259e+03     5.6676e-01
    3.5407e+03     5.7794e-01
    3.6593e+03     5.8898e-01
    3.7819e+03     5.9986e-01
    3.9086e+03     6.1058e-01
    4.0395e+03     6.2126e-01
    4.1749e+03     6.3204e-01
    4.3147e+03     6.4279e-01
    4.4593e+03     6.5343e-01
    4.6087e+03     6.6396e-01
    4.7630e+03     6.7433e-01
    4.9226e+03     6.8454e-01
    5.0875e+03     6.9457e-01
    5.2580e+03     7.0443e-01
    5.4341e+03     7.1409e-01
    5.6162e+03     7.2357e-01
    5.8043e+03     7.3284e-01
    5.9987e+03     7.4191e-01
    6.1997e+03     7.5078e-01
    6.4074e+03     7.5943e-01
    6.6221e+03     7.6787e-01
    6.8439e+03     7.7606e-01
    7.0732e+03     7.8399e-01
    7.3101e+03     7.9162e-01
    7.5550e+03     7.9900e-01
    7.8081e+03     8.0611e-01
    8.0697e+03     8.1299e-01
    8.3401e+03     8.1963e-01
    8.6195e+03     8.2603e-01
    8.9082e+03     8.3221e-01
    9.2066e+03     8.3815e-01
    9.5151e+03     8.4384e-01
    9.8338e+03     8.4927e-01
    1.0163e+04     8.5441e-01
    1.0504e+04     8.5925e-01
    1.0856e+04     8.6381e-01
    1.1219e+04     8.6812e-01
    1.1595e+04     8.7220e-01
    1.1984e+04     8.7607e-01
    1.2385e+04     8.7975e-01
    1.2800e+04     8.8325e-01
    1.3229e+04     8.8658e-01
    1.3672e+04     8.8975e-01
    1.4130e+04     8.9275e-01
    1.4603e+04     8.9560e-01
    1.5093e+04     8.9830e-01
    1.5598e+04     9.0086e-01
    1.6121e+04     9.0327e-01
    1.6661e+04     9.0555e-01
    1.7219e+04     9.0769e-01
    1.7796e+04     9.0969e-01
    1.8392e+04     9.1154e-01
    1.9008e+04     9.1324e-01
    1.9645e+04     9.1478e-01
    2.0303e+04     9.1611e-01
    2.0983e+04     9.1722e-01
    2.1686e+04     9.1815e-01
    2.2413e+04     9.1891e-01
    2.3164e+04     9.1951e-01
    2.3940e+04     9.1996e-01
    2.4742e+04     9.2028e-01
    2.5570e+04     9.2047e-01
    2.6427e+04     9.2053e-01
    2.7312e+04     9.2048e-01
    2.8227e+04     9.2032e-01
    2.9173e+04     9.2005e-01
    3.0150e+04     9.1968e-01
    3.1160e+04     9.1921e-01
    3.2204e+04     9.1865e-01
    3.3283e+04     9.1800e-01
    3.4398e+04     9.1726e-01
    3.5551e+04     9.1644e-01
    3.6741e+04     9.1554e-01
    3.7972e+04     9.1456e-01
    3.9244e+04     9.1351e-01
    4.0559e+04     9.1237e-01
    4.1918e+04     9.1116e-01
    4.3322e+04     9.0988e-01
    4.4774e+04     9.0851e-01
    4.6274e+04     9.0706e-01
    4.7824e+04     9.0550e-01
    4.9426e+04     9.0382e-01
    5.1082e+04     9.0198e-01
    5.2793e+04     8.9997e-01
    5.4562e+04     8.9783e-01
    5.6389e+04     8.9557e-01
    5.8278e+04     8.9320e-01
    6.0231e+04     8.9073e-01
    6.2249e+04     8.8818e-01
    6.4334e+04     8.8555e-01
    6.6489e+04     8.8285e-01
    6.8717e+04     8.8009e-01
    7.1019e+04     8.7726e-01
    7.3398e+04     8.7438e-01
    7.5857e+04     8.7144e-01
    7.8398e+04     8.6845e-01
    8.1025e+04     8.6542e-01
    8.3739e+04     8.6234e-01
    8.6544e+04     8.5922e-01
    8.9444e+04     8.5605e-01
    9.2440e+04     8.5284e-01
    9.5537e+04     8.4960e-01
    9.8737e+04     8.4631e-01
    1.0205e+05     8.4297e-01
    1.0546e+05     8.3959e-01
    1.0900e+05     8.3617e-01
    1.1265e+05     8.3271e-01
    1.1642e+05     8.2922e-01
    1.2032e+05     8.2570e-01
    1.2435e+05     8.2215e-01
    1.2852e+05     8.1857e-01
    1.3282e+05     8.1497e-01
    1.3727e+05     8.1134e-01
    1.4187e+05     8.0769e-01
    1.4663e+05     8.0401e-01
    1.5154e+05     8.0032e-01
    1.5662e+05     7.9660e-01
    1.6186e+05     7.9287e-01
    1.6728e+05     7.8911e-01
    1.7289e+05     7.8534e-01
    1.7868e+05     7.8155e-01
    1.8467e+05     7.7775e-01
    1.9085e+05     7.7393e-01
    1.9725e+05     7.7009e-01
    2.0385e+05     7.6624e-01
    2.1068e+05     7.6238e-01
    2.1774e+05     7.5850e-01
    2.2504e+05     7.5462e-01
    2.3258e+05     7.5072e-01
    2.4037e+05     7.4681e-01
    2.4842e+05     7.4288e-01
    2.5674e+05     7.3895e-01
    2.6534e+05     7.3501e-01
    2.7423e+05     7.3106e-01
    2.8342e+05     7.2711e-01
    2.9291e+05     7.2314e-01
    3.0273e+05     7.1917e-01
    3.1287e+05     7.1520e-01
    3.2335e+05     7.1121e-01
    3.3418e+05     7.0723e-01
    3.4538e+05     7.0324e-01
    3.5695e+05     6.9924e-01
    3.6891e+05     6.9524e-01
    3.8126e+05     6.9124e-01
    3.9404e+05     6.8723e-01
    4.0724e+05     6.8323e-01
    4.2088e+05     6.7922e-01
    4.3498e+05     6.7520e-01
    4.4955e+05     6.7119e-01
    4.6461e+05     6.6717e-01
    4.8018e+05     6.6314e-01
    4.9626e+05     6.5910e-01
    5.1289e+05     6.5506e-01
    5.3007e+05     6.5100e-01
    5.4783e+05     6.4692e-01
    5.6618e+05     6.4284e-01
    5.8515e+05     6.3875e-01
    6.0475e+05     6.3467e-01
    6.2501e+05     6.3058e-01
    6.4595e+05     6.2649e-01
    6.6759e+05     6.2241e-01
    6.8996e+05     6.1833e-01
    7.1307e+05     6.1425e-01
    7.3696e+05     6.1018e-01
    7.6165e+05     6.0611e-01
    7.8716e+05     6.0204e-01
    8.1353e+05     5.9799e-01
    8.4079e+05     5.9394e-01
    8.6895e+05     5.8989e-01
    8.9806e+05     5.8586e-01
    9.2815e+05     5.8184e-01
    9.5924e+05     5.7785e-01
    9.9138e+05     5.7391e-01
    1.0246e+06     5.7009e-01
    1.0589e+06     5.6637e-01
    1.0944e+06     5.6270e-01
    1.1311e+06     5.5907e-01
    1.1689e+06     5.5547e-01
    1.2081e+06     5.5188e-01
    1.2486e+06     5.4831e-01
    1.2904e+06     5.4476e-01
    1.3336e+06     5.4122e-01
    1.3783e+06     5.3769e-01
    1.4245e+06     5.3418e-01
    1.4722e+06     5.3068e-01
    1.5215e+06     5.2719e-01
    1.5725e+06     5.2372e-01
    1.6252e+06     5.2026e-01
    1.6796e+06     5.1682e-01
    1.7359e+06     5.1339e-01
    1.7941e+06     5.0998e-01
    1.8542e+06     5.0658e-01
    1.9163e+06     5.0320e-01
    1.9805e+06     4.9983e-01
    2.0468e+06     4.9648e-01
    2.1154e+06     4.9314e-01
    2.1863e+06     4.8981e-01
    2.2595e+06     4.8650e-01
    2.3352e+06     4.8320e-01
    2.4134e+06     4.7992e-01
    2.4943e+06     4.7665e-01
    2.5778e+06     4.7340e-01
    2.6642e+06     4.7016e-01
    2.7534e+06     4.6694e-01
    2.8457e+06     4.6373e-01
    2.9410e+06     4.6054e-01
    3.0395e+06     4.5737e-01
    3.1414e+06     4.5421e-01
    3.2466e+06     4.5106e-01
    3.3554e+06     4.4792e-01
    3.4678e+06     4.4479e-01
    3.5840e+06     4.4167e-01
    3.7040e+06     4.3857e-01
    3.8281e+06     4.3547e-01
    3.9564e+06     4.3239e-01
    4.0889e+06     4.2932e-01
    4.2259e+06     4.2626e-01
    4.3674e+06     4.2322e-01
    4.5138e+06     4.2019e-01
    4.6650e+06     4.1717e-01
    4.8213e+06     4.1417e-01
    4.9828e+06     4.1119e-01
    5.1497e+06     4.0822e-01
    5.3222e+06     4.0527e-01
    5.5005e+06     4.0233e-01
    5.6848e+06     3.9942e-01
    5.8752e+06     3.9651e-01
    6.0721e+06     3.9362e-01
    6.2755e+06     3.9075e-01
    6.4857e+06     3.8789e-01
    6.7030e+06     3.8505e-01
    6.9275e+06     3.8222e-01
    7.1596e+06     3.7941e-01
    7.3995e+06     3.7661e-01
    7.6474e+06     3.7383e-01
    7.9036e+06     3.7106e-01
    8.1683e+06     3.6830e-01
    8.4420e+06     3.6555e-01
    8.7248e+06     3.6282e-01
    9.0171e+06     3.6010e-01
    9.3192e+06     3.5739e-01
    9.6314e+06     3.5470e-01
    9.9540e+06     3.5202e-01
    1.0287e+07     3.4936e-01
    1.0632e+07     3.4671e-01
    1.0988e+07     3.4407e-01
    1.1356e+07     3.4145e-01
    1.1737e+07     3.3884e-01
    1.2130e+07     3.3624e-01
    1.2536e+07     3.3366e-01
    1.2956e+07     3.3109e-01
    1.3390e+07     3.2853e-01
    1.3839e+07     3.2599e-01
    1.4303e+07     3.2346e-01
    1.4782e+07     3.2094e-01
    1.5277e+07     3.1844e-01
    1.5789e+07     3.1596e-01
    1.6318e+07     3.1348e-01
    1.6864e+07     3.1103e-01
    1.7429e+07     3.0858e-01
    1.8013e+07     3.0615e-01
    1.8617e+07     3.0374e-01
    1.9240e+07     3.0134e-01
    1.9885e+07     2.9896e-01
    2.0551e+07     2.9659e-01
    2.1240e+07     2.9424e-01
    2.1951e+07     2.9190e-01
    2.2687e+07     2.8958e-01
    2.3447e+07     2.8727e-01
    2.4232e+07     2.8498e-01
    2.5044e+07     2.8271e-01
    2.5883e+07     2.8045e-01
    2.6750e+07     2.7820e-01
    2.7646e+07     2.7597e-01
    2.8572e+07     2.7376e-01
    2.9530e+07     2.7156e-01
    3.0519e+07     2.6938e-01
    3.1541e+07     2.6721e-01
    3.2598e+07     2.6505e-01
    3.3690e+07     2.6291e-01
    3.4819e+07     2.6079e-01
    3.5985e+07     2.5868e-01
    3.7191e+07     2.5658e-01
    3.8436e+07     2.5450e-01
    3.9724e+07     2.5244e-01
    4.1055e+07     2.5039e-01
    4.2430e+07     2.4835e-01
    4.3852e+07     2.4633e-01
    4.5321e+07     2.4433e-01
    4.6839e+07     2.4233e-01
    4.8408e+07     2.4036e-01
    5.0030e+07     2.3840e-01
    5.1706e+07     2.3645e-01
    5.3438e+07     2.3452e-01
    5.5228e+07     2.3260e-01
    5.7079e+07     2.3070e-01
    5.8991e+07     2.2882e-01
    6.0967e+07     2.2695e-01
    6.3009e+07     2.2509e-01
    6.5120e+07     2.2325e-01
    6.7302e+07     2.2142e-01
    6.9557e+07     2.1961e-01
    7.1887e+07     2.1781e-01
    7.4295e+07     2.1603e-01
    7.6784e+07     2.1427e-01
    7.9356e+07     2.1251e-01
    8.2015e+07     2.1078e-01
    8.4762e+07     2.0905e-01
    8.7602e+07     2.0734e-01
    9.0537e+07     2.0564e-01
    9.3570e+07     2.0381e-01
    9.6704e+07     2.0044e-01
    9.9944e+07     1.8009e-01
