    1.0000e+00     6.1481e-13
    1.0335e+00     7.2079e-13
    1.0681e+00     8.1024e-13
    1.1039e+00     9.0889e-13
    1.1409e+00     1.0186e-12
    1.1791e+00     1.1416e-12
    1.2186e+00     1.2785e-12
    1.2594e+00     1.4329e-12
    1.3016e+00     1.6088e-12
    1.3452e+00     1.8060e-12
    1.3903e+00     2.0271e-12
    1.4369e+00     2.2757e-12
    1.4850e+00     2.5560e-12
    1.5348e+00     2.8719e-12
    1.5862e+00     3.2264e-12
    1.6393e+00     3.6227e-12
    1.6942e+00     4.0696e-12
    1.7510e+00     4.5661e-12
    1.8097e+00     5.1285e-12
    1.8703e+00     5.7613e-12
    1.9329e+00     6.4723e-12
    1.9977e+00     7.2728e-12
    2.0646e+00     8.1729e-12
    2.1338e+00     9.1846e-12
    2.2053e+00     1.0320e-11
    2.2791e+00     1.1596e-11
    2.3555e+00     1.3029e-11
    2.4344e+00     1.4639e-11
    2.5160e+00     1.6450e-11
    2.6002e+00     1.8486e-11
    2.6874e+00     2.0774e-11
    2.7774e+00     2.3347e-11
    2.8704e+00     2.6238e-11
    2.9666e+00     2.9487e-11
    3.0660e+00     3.3138e-11
    3.1687e+00     3.7239e-11
    3.2748e+00     4.1850e-11
    3.3845e+00     4.7032e-11
    3.4979e+00     5.2857e-11
    3.6151e+00     5.9406e-11
    3.7362e+00     6.6767e-11
    3.8614e+00     7.5042e-11
    3.9908e+00     8.4346e-11
    4.1244e+00     9.4801e-11
    4.2626e+00     1.0655e-10
    4.4054e+00     1.1975e-10
    4.5530e+00     1.3459e-10
    4.7055e+00     1.5128e-10
    4.8632e+00     1.7003e-10
    5.0261e+00     1.9111e-10
    5.1945e+00     2.1480e-10
    5.3685e+00     2.4143e-10
    5.5483e+00     2.7137e-10
    5.7342e+00     3.0501e-10
    5.9263e+00     3.4282e-10
    6.1249e+00     3.8532e-10
    6.3300e+00     4.3309e-10
    6.5421e+00     4.8677e-10
    6.7613e+00     5.4711e-10
    6.9878e+00     6.1493e-10
    7.2219e+00     6.9114e-10
    7.4638e+00     7.7680e-10
    7.7139e+00     8.7306e-10
    7.9723e+00     9.8124e-10
    8.2394e+00     1.1028e-09
    8.5154e+00     1.2394e-09
    8.8007e+00     1.3930e-09
    9.0955e+00     1.5655e-09
    9.4002e+00     1.7593e-09
    9.7151e+00     1.9771e-09
    1.0041e+01     2.2219e-09
    1.0377e+01     2.4968e-09
    1.0725e+01     2.8058e-09
    1.1084e+01     3.1528e-09
    1.1455e+01     3.5428e-09
    1.1839e+01     3.9808e-09
    1.2236e+01     4.4729e-09
    1.2645e+01     5.0256e-09
    1.3069e+01     5.6464e-09
    1.3507e+01     6.3438e-09
    1.3959e+01     7.1269e-09
    1.4427e+01     8.0065e-09
    1.4910e+01     8.9942e-09
    1.5410e+01     1.0103e-08
    1.5926e+01     1.1349e-08
    1.6460e+01     1.2748e-08
    1.7011e+01     1.4318e-08
    1.7581e+01     1.6081e-08
    1.8170e+01     1.8060e-08
    1.8779e+01     2.0282e-08
    1.9408e+01     2.2777e-08
    2.0058e+01     2.5576e-08
    2.0730e+01     2.8718e-08
    2.1424e+01     3.2244e-08
    2.2142e+01     3.6201e-08
    2.2884e+01     4.0641e-08
    2.3650e+01     4.5622e-08
    2.4443e+01     5.1210e-08
    2.5262e+01     5.7478e-08
    2.6108e+01     6.4508e-08
    2.6983e+01     7.2394e-08
    2.7887e+01     8.1236e-08
    2.8821e+01     9.1151e-08
    2.9786e+01     1.0226e-07
    3.0784e+01     1.1472e-07
    3.1815e+01     1.2868e-07
    3.2881e+01     1.4432e-07
    3.3983e+01     1.6184e-07
    3.5121e+01     1.8146e-07
    3.6298e+01     2.0344e-07
    3.7514e+01     2.2806e-07
    3.8771e+01     2.5561e-07
    4.0069e+01     2.8645e-07
    4.1412e+01     3.2097e-07
    4.2799e+01     3.5959e-07
    4.4233e+01     4.0278e-07
    4.5715e+01     4.5109e-07
    4.7246e+01     5.0510e-07
    4.8829e+01     5.6548e-07
    5.0465e+01     6.3294e-07
    5.2156e+01     7.0832e-07
    5.3903e+01     7.9249e-07
    5.5709e+01     8.8648e-07
    5.7575e+01     9.9136e-07
    5.9504e+01     1.1084e-06
    6.1497e+01     1.2389e-06
    6.3557e+01     1.3844e-06
    6.5687e+01     1.5466e-06
    6.7887e+01     1.7274e-06
    7.0161e+01     1.9287e-06
    7.2512e+01     2.1528e-06
    7.4941e+01     2.4022e-06
    7.7452e+01     2.6797e-06
    8.0046e+01     2.9882e-06
    8.2728e+01     3.3312e-06
    8.5499e+01     3.7122e-06
    8.8364e+01     4.1356e-06
    9.1324e+01     4.6057e-06
    9.4383e+01     5.1275e-06
    9.7545e+01     5.7066e-06
    1.0081e+02     6.3488e-06
    1.0419e+02     7.0608e-06
    1.0768e+02     7.8499e-06
    1.1129e+02     8.7242e-06
    1.1502e+02     9.6926e-06
    1.1887e+02     1.0765e-05
    1.2285e+02     1.1952e-05
    1.2697e+02     1.3265e-05
    1.3122e+02     1.4716e-05
    1.3562e+02     1.6318e-05
    1.4016e+02     1.8086e-05
    1.4486e+02     2.0036e-05
    1.4971e+02     2.2185e-05
    1.5472e+02     2.4554e-05
    1.5991e+02     2.7161e-05
    1.6526e+02     3.0027e-05
    1.7080e+02     3.3178e-05
    1.7652e+02     3.6640e-05
    1.8244e+02     4.0440e-05
    1.8855e+02     4.4607e-05
    1.9486e+02     4.9172e-05
    2.0139e+02     5.4168e-05
    2.0814e+02     5.9628e-05
    2.1511e+02     6.5593e-05
    2.2232e+02     7.2103e-05
    2.2977e+02     7.9202e-05
    2.3746e+02     8.6936e-05
    2.4542e+02     9.5350e-05
    2.5364e+02     1.0449e-04
    2.6214e+02     1.1442e-04
    2.7092e+02     1.2517e-04
    2.8000e+02     1.3681e-04
    2.8938e+02     1.4938e-04
    2.9907e+02     1.6293e-04
    3.0909e+02     1.7752e-04
    3.1945e+02     1.9319e-04
    3.3015e+02     2.0999e-04
    3.4121e+02     2.2797e-04
    3.5264e+02     2.4718e-04
    3.6445e+02     2.6765e-04
    3.7666e+02     2.8940e-04
    3.8928e+02     3.1247e-04
    4.0232e+02     3.3686e-04
    4.1580e+02     3.6257e-04
    4.2973e+02     3.8963e-04
    4.4412e+02     4.1805e-04
    4.5900e+02     4.4784e-04
    4.7438e+02     4.7904e-04
    4.9027e+02     5.1166e-04
    5.0670e+02     5.4571e-04
    5.2367e+02     5.8122e-04
    5.4121e+02     6.1814e-04
    5.5935e+02     6.5644e-04
    5.7808e+02     6.9610e-04
    5.9745e+02     7.3709e-04
    6.1747e+02     7.7939e-04
    6.3815e+02     8.2292e-04
    6.5953e+02     8.6761e-04
    6.8162e+02     9.1340e-04
    7.0446e+02     9.6021e-04
    7.2806e+02     1.0080e-03
    7.5245e+02     1.0566e-03
    7.7766e+02     1.1060e-03
    8.0371e+02     1.1559e-03
    8.3064e+02     1.2063e-03
    8.5846e+02     1.2571e-03
    8.8722e+02     1.3081e-03
    9.1694e+02     1.3595e-03
    9.4766e+02     1.4110e-03
    9.7941e+02     1.4626e-03
    1.0122e+03     1.5141e-03
    1.0461e+03     1.5655e-03
    1.0812e+03     1.6167e-03
    1.1174e+03     1.6679e-03
    1.1548e+03     1.7190e-03
    1.1935e+03     1.7702e-03
    1.2335e+03     1.8216e-03
    1.2748e+03     1.8733e-03
    1.3175e+03     1.9254e-03
    1.3617e+03     1.9781e-03
    1.4073e+03     2.0316e-03
    1.4544e+03     2.0860e-03
    1.5032e+03     2.1414e-03
    1.5535e+03     2.1981e-03
    1.6056e+03     2.2560e-03
    1.6594e+03     2.3150e-03
    1.7149e+03     2.3751e-03
    1.7724e+03     2.4361e-03
    1.8318e+03     2.4980e-03
    1.8931e+03     2.5608e-03
    1.9566e+03     2.6246e-03
    2.0221e+03     2.6893e-03
    2.0898e+03     2.7550e-03
    2.1599e+03     2.8216e-03
    2.2322e+03     2.8890e-03
    2.3070e+03     2.9570e-03
    2.3843e+03     3.0256e-03
    2.4642e+03     3.0948e-03
    2.5467e+03     3.1644e-03
    2.6320e+03     3.2343e-03
    2.7202e+03     3.3046e-03
    2.8113e+03     3.3750e-03
    2.9055e+03     3.4454e-03
    3.0028e+03     3.5158e-03
    3.1034e+03     3.5856e-03
    3.2074e+03     3.6550e-03
    3.3149e+03     3.7238e-03
    3.4259e+03     3.7917e-03
    3.5407e+03     3.8586e-03
    3.6593e+03     3.9242e-03
    3.7819e+03     3.9885e-03
    3.9086e+03     4.0516e-03
    4.0395e+03     4.1144e-03
    4.1749e+03     4.1779e-03
    4.3147e+03     4.2412e-03
    4.4593e+03     4.3038e-03
    4.6087e+03     4.3656e-03
    4.7630e+03     4.4264e-03
    4.9226e+03     4.4863e-03
    5.0875e+03     4.5451e-03
    5.2580e+03     4.6029e-03
    5.4341e+03     4.6596e-03
    5.6162e+03     4.7152e-03
    5.8043e+03     4.7695e-03
    5.9987e+03     4.8226e-03
    6.1997e+03     4.8744e-03
    6.4074e+03     4.9248e-03
    6.6221e+03     4.9738e-03
    6.8439e+03     5.0212e-03
    7.0732e+03     5.0667e-03
    7.3101e+03     5.1102e-03
    7.5550e+03     5.1519e-03
    7.8081e+03     5.1919e-03
    8.0697e+03     5.2302e-03
    8.3401e+03     5.2669e-03
    8.6195e+03     5.3020e-03
    8.9082e+03     5.3355e-03
    9.2066e+03     5.3676e-03
    9.5151e+03     5.3980e-03
    9.8338e+03     5.4267e-03
    1.0163e+04     5.4536e-03
    1.0504e+04     5.4787e-03
    1.0856e+04     5.5021e-03
    1.1219e+04     5.5240e-03
    1.1595e+04     5.5447e-03
    1.1984e+04     5.5642e-03
    1.2385e+04     5.5829e-03
    1.2800e+04     5.6008e-03
    1.3229e+04     5.6179e-03
    1.3672e+04     5.6341e-03
    1.4130e+04     5.6496e-03
    1.4603e+04     5.6643e-03
    1.5093e+04     5.6783e-03
    1.5598e+04     5.6914e-03
    1.6121e+04     5.7038e-03
    1.6661e+04     5.7154e-03
    1.7219e+04     5.7262e-03
    1.7796e+04     5.7362e-03
    1.8392e+04     5.7453e-03
    1.9008e+04     5.7535e-03
    1.9645e+04     5.7606e-03
    2.0303e+04     5.7664e-03
    2.0983e+04     5.7708e-03
    2.1686e+04     5.7739e-03
    2.2413e+04     5.7760e-03
    2.3164e+04     5.7770e-03
    2.3940e+04     5.7771e-03
    2.4742e+04     5.7763e-03
    2.5570e+04     5.7746e-03
    2.6427e+04     5.7722e-03
    2.7312e+04     5.7690e-03
    2.8227e+04     5.7651e-03
    2.9173e+04     5.7605e-03
    3.0150e+04     5.7552e-03
    3.1160e+04     5.7494e-03
    3.2204e+04     5.7429e-03
    3.3283e+04     5.7359e-03
    3.4398e+04     5.7283e-03
    3.5551e+04     5.7201e-03
    3.6741e+04     5.7115e-03
    3.7972e+04     5.7023e-03
    3.9244e+04     5.6927e-03
    4.0559e+04     5.6826e-03
    4.1918e+04     5.6720e-03
    4.3322e+04     5.6609e-03
    4.4774e+04     5.6493e-03
    4.6274e+04     5.6372e-03
    4.7824e+04     5.6244e-03
    4.9426e+04     5.6108e-03
    5.1082e+04     5.5962e-03
    5.2793e+04     5.5805e-03
    5.4562e+04     5.5640e-03
    5.6389e+04     5.5468e-03
    5.8278e+04     5.5288e-03
    6.0231e+04     5.5103e-03
    6.2249e+04     5.4913e-03
    6.4334e+04     5.4717e-03
    6.6489e+04     5.4517e-03
    6.8717e+04     5.4313e-03
    7.1019e+04     5.4105e-03
    7.3398e+04     5.3894e-03
    7.5857e+04     5.3680e-03
    7.8398e+04     5.3463e-03
    8.1025e+04     5.3243e-03
    8.3739e+04     5.3020e-03
    8.6544e+04     5.2795e-03
    8.9444e+04     5.2567e-03
    9.2440e+04     5.2338e-03
    9.5537e+04     5.2105e-03
    9.8737e+04     5.1871e-03
    1.0205e+05     5.1634e-03
    1.0546e+05     5.1394e-03
    1.0900e+05     5.1152e-03
    1.1265e+05     5.0908e-03
    1.1642e+05     5.0662e-03
    1.2032e+05     5.0415e-03
    1.2435e+05     5.0166e-03
    1.2852e+05     4.9916e-03
    1.3282e+05     4.9665e-03
    1.3727e+05     4.9412e-03
    1.4187e+05     4.9158e-03
    1.4663e+05     4.8903e-03
    1.5154e+05     4.8647e-03
    1.5662e+05     4.8390e-03
    1.6186e+05     4.8132e-03
    1.6728e+05     4.7873e-03
    1.7289e+05     4.7614e-03
    1.7868e+05     4.7353e-03
    1.8467e+05     4.7092e-03
    1.9085e+05     4.6831e-03
    1.9725e+05     4.6569e-03
    2.0385e+05     4.6306e-03
    2.1068e+05     4.6043e-03
    2.1774e+05     4.5779e-03
    2.2504e+05     4.5515e-03
    2.3258e+05     4.5250e-03
    2.4037e+05     4.4985e-03
    2.4842e+05     4.4720e-03
    2.5674e+05     4.4455e-03
    2.6534e+05     4.4189e-03
    2.7423e+05     4.3923e-03
    2.8342e+05     4.3657e-03
    2.9291e+05     4.3391e-03
    3.0273e+05     4.3125e-03
    3.1287e+05     4.2859e-03
    3.2335e+05     4.2593e-03
    3.3418e+05     4.2327e-03
    3.4538e+05     4.2061e-03
    3.5695e+05     4.1795e-03
    3.6891e+05     4.1529e-03
    3.8126e+05     4.1264e-03
    3.9404e+05     4.0999e-03
    4.0724e+05     4.0733e-03
    4.2088e+05     4.0468e-03
    4.3498e+05     4.0204e-03
    4.4955e+05     3.9939e-03
    4.6461e+05     3.9675e-03
    4.8018e+05     3.9410e-03
    4.9626e+05     3.9145e-03
    5.1289e+05     3.8879e-03
    5.3007e+05     3.8613e-03
    5.4783e+05     3.8345e-03
    5.6618e+05     3.8078e-03
    5.8515e+05     3.7811e-03
    6.0475e+05     3.7544e-03
    6.2501e+05     3.7277e-03
    6.4595e+05     3.7011e-03
    6.6759e+05     3.6745e-03
    6.8996e+05     3.6480e-03
    7.1307e+05     3.6215e-03
    7.3696e+05     3.5951e-03
    7.6165e+05     3.5688e-03
    7.8716e+05     3.5425e-03
    8.1353e+05     3.5163e-03
    8.4079e+05     3.4902e-03
    8.6895e+05     3.4642e-03
    8.9806e+05     3.4382e-03
    9.2815e+05     3.4124e-03
    9.5924e+05     3.3868e-03
    9.9138e+05     3.3615e-03
    1.0246e+06     3.3371e-03
    1.0589e+06     3.3132e-03
    1.0944e+06     3.2897e-03
    1.1311e+06     3.2665e-03
    1.1689e+06     3.2435e-03
    1.2081e+06     3.2206e-03
    1.2486e+06     3.1979e-03
    1.2904e+06     3.1753e-03
    1.3336e+06     3.1528e-03
    1.3783e+06     3.1303e-03
    1.4245e+06     3.1081e-03
    1.4722e+06     3.0859e-03
    1.5215e+06     3.0638e-03
    1.5725e+06     3.0418e-03
    1.6252e+06     3.0200e-03
    1.6796e+06     2.9983e-03
    1.7359e+06     2.9767e-03
    1.7941e+06     2.9552e-03
    1.8542e+06     2.9338e-03
    1.9163e+06     2.9126e-03
    1.9805e+06     2.8914e-03
    2.0468e+06     2.8704e-03
    2.1154e+06     2.8495e-03
    2.1863e+06     2.8286e-03
    2.2595e+06     2.8079e-03
    2.3352e+06     2.7873e-03
    2.4134e+06     2.7668e-03
    2.4943e+06     2.7465e-03
    2.5778e+06     2.7262e-03
    2.6642e+06     2.7061e-03
    2.7534e+06     2.6861e-03
    2.8457e+06     2.6662e-03
    2.9410e+06     2.6464e-03
    3.0395e+06     2.6267e-03
    3.1414e+06     2.6071e-03
    3.2466e+06     2.5876e-03
    3.3554e+06     2.5681e-03
    3.4678e+06     2.5488e-03
    3.5840e+06     2.5295e-03
    3.7040e+06     2.5104e-03
    3.8281e+06     2.4913e-03
    3.9564e+06     2.4723e-03
    4.0889e+06     2.4534e-03
    4.2259e+06     2.4346e-03
    4.3674e+06     2.4159e-03
    4.5138e+06     2.3974e-03
    4.6650e+06     2.3789e-03
    4.8213e+06     2.3606e-03
    4.9828e+06     2.3423e-03
    5.1497e+06     2.3242e-03
    5.3222e+06     2.3062e-03
    5.5005e+06     2.2883e-03
    5.6848e+06     2.2706e-03
    5.8752e+06     2.2529e-03
    6.0721e+06     2.2353e-03
    6.2755e+06     2.2179e-03
    6.4857e+06     2.2006e-03
    6.7030e+06     2.1833e-03
    6.9275e+06     2.1662e-03
    7.1596e+06     2.1492e-03
    7.3995e+06     2.1323e-03
    7.6474e+06     2.1155e-03
    7.9036e+06     2.0988e-03
    8.1683e+06     2.0822e-03
    8.4420e+06     2.0657e-03
    8.7248e+06     2.0492e-03
    9.0171e+06     2.0329e-03
    9.3192e+06     2.0167e-03
    9.6314e+06     2.0005e-03
    9.9540e+06     1.9845e-03
    1.0287e+07     1.9685e-03
    1.0632e+07     1.9527e-03
    1.0988e+07     1.9369e-03
    1.1356e+07     1.9213e-03
    1.1737e+07     1.9057e-03
    1.2130e+07     1.8902e-03
    1.2536e+07     1.8748e-03
    1.2956e+07     1.8595e-03
    1.3390e+07     1.8444e-03
    1.3839e+07     1.8293e-03
    1.4303e+07     1.8143e-03
    1.4782e+07     1.7993e-03
    1.5277e+07     1.7845e-03
    1.5789e+07     1.7698e-03
    1.6318e+07     1.7552e-03
    1.6864e+07     1.7407e-03
    1.7429e+07     1.7262e-03
    1.8013e+07     1.7119e-03
    1.8617e+07     1.6977e-03
    1.9240e+07     1.6836e-03
    1.9885e+07     1.6696e-03
    2.0551e+07     1.6556e-03
    2.1240e+07     1.6418e-03
    2.1951e+07     1.6281e-03
    2.2687e+07     1.6145e-03
    2.3447e+07     1.6010e-03
    2.4232e+07     1.5876e-03
    2.5044e+07     1.5743e-03
    2.5883e+07     1.5611e-03
    2.6750e+07     1.5480e-03
    2.7646e+07     1.5350e-03
    2.8572e+07     1.5221e-03
    2.9530e+07     1.5092e-03
    3.0519e+07     1.4965e-03
    3.1541e+07     1.4839e-03
    3.2598e+07     1.4714e-03
    3.3690e+07     1.4590e-03
    3.4819e+07     1.4466e-03
    3.5985e+07     1.4344e-03
    3.7191e+07     1.4222e-03
    3.8436e+07     1.4102e-03
    3.9724e+07     1.3982e-03
    4.1055e+07     1.3864e-03
    4.2430e+07     1.3746e-03
    4.3852e+07     1.3629e-03
    4.5321e+07     1.3514e-03
    4.6839e+07     1.3399e-03
    4.8408e+07     1.3285e-03
    5.0030e+07     1.3172e-03
    5.1706e+07     1.3060e-03
    5.3438e+07     1.2949e-03
    5.5228e+07     1.2839e-03
    5.7079e+07     1.2730e-03
    5.8991e+07     1.2621e-03
    6.0967e+07     1.2514e-03
    6.3009e+07     1.2408e-03
    6.5120e+07     1.2302e-03
    6.7302e+07     1.2198e-03
    6.9557e+07     1.2094e-03
    7.1887e+07     1.1991e-03
    7.4295e+07     1.1890e-03
    7.6784e+07     1.1789e-03
    7.9356e+07     1.1689e-03
    8.2015e+07     1.1590e-03
    8.4762e+07     1.1491e-03
    8.7602e+07     1.1394e-03
    9.0537e+07     1.1297e-03
    9.3570e+07     1.1193e-03
    9.6704e+07     1.1005e-03
    9.9944e+07     9.8859e-04
