    1.0000e+00     7.4604e-11
    1.0335e+00     8.7204e-11
    1.0681e+00     9.7929e-11
    1.1039e+00     1.1054e-10
    1.1409e+00     1.2493e-10
    1.1791e+00     1.4140e-10
    1.2186e+00     1.5978e-10
    1.2594e+00     1.7978e-10
    1.3016e+00     2.0178e-10
    1.3452e+00     2.2560e-10
    1.3903e+00     2.5229e-10
    1.4369e+00     2.8254e-10
    1.4850e+00     3.1767e-10
    1.5348e+00     3.5872e-10
    1.5862e+00     4.0486e-10
    1.6393e+00     4.5657e-10
    1.6942e+00     5.1342e-10
    1.7510e+00     5.7602e-10
    1.8097e+00     6.4660e-10
    1.8703e+00     7.2539e-10
    1.9329e+00     8.1521e-10
    1.9977e+00     9.1730e-10
    2.0646e+00     1.0320e-09
    2.1338e+00     1.1606e-09
    2.2053e+00     1.3034e-09
    2.2791e+00     1.4632e-09
    2.3555e+00     1.6424e-09
    2.4344e+00     1.8433e-09
    2.5160e+00     2.0701e-09
    2.6002e+00     2.3265e-09
    2.6874e+00     2.6153e-09
    2.7774e+00     2.9410e-09
    2.8704e+00     3.3051e-09
    2.9666e+00     3.7131e-09
    3.0660e+00     4.1709e-09
    3.1687e+00     4.6848e-09
    3.2748e+00     5.2626e-09
    3.3845e+00     5.9125e-09
    3.4979e+00     6.6437e-09
    3.6151e+00     7.4665e-09
    3.7362e+00     8.3919e-09
    3.8614e+00     9.4328e-09
    3.9908e+00     1.0604e-08
    4.1244e+00     1.1919e-08
    4.2626e+00     1.3391e-08
    4.4054e+00     1.5043e-08
    4.5530e+00     1.6902e-08
    4.7055e+00     1.8994e-08
    4.8632e+00     2.1347e-08
    5.0261e+00     2.3990e-08
    5.1945e+00     2.6963e-08
    5.3685e+00     3.0300e-08
    5.5483e+00     3.4049e-08
    5.7342e+00     3.8259e-08
    5.9263e+00     4.2991e-08
    6.1249e+00     4.8310e-08
    6.3300e+00     5.4285e-08
    6.5421e+00     6.0999e-08
    6.7613e+00     6.8542e-08
    6.9878e+00     7.7016e-08
    7.2219e+00     8.6536e-08
    7.4638e+00     9.7230e-08
    7.7139e+00     1.0925e-07
    7.9723e+00     1.2274e-07
    8.2394e+00     1.3790e-07
    8.5154e+00     1.5493e-07
    8.8007e+00     1.7405e-07
    9.0955e+00     1.9553e-07
    9.4002e+00     2.1965e-07
    9.7151e+00     2.4674e-07
    1.0041e+01     2.7716e-07
    1.0377e+01     3.1132e-07
    1.0725e+01     3.4967e-07
    1.1084e+01     3.9273e-07
    1.1455e+01     4.4108e-07
    1.1839e+01     4.9535e-07
    1.2236e+01     5.5627e-07
    1.2645e+01     6.2464e-07
    1.3069e+01     7.0139e-07
    1.3507e+01     7.8751e-07
    1.3959e+01     8.8416e-07
    1.4427e+01     9.9260e-07
    1.4910e+01     1.1143e-06
    1.5410e+01     1.2508e-06
    1.5926e+01     1.4039e-06
    1.6460e+01     1.5757e-06
    1.7011e+01     1.7683e-06
    1.7581e+01     1.9843e-06
    1.8170e+01     2.2266e-06
    1.8779e+01     2.4982e-06
    1.9408e+01     2.8027e-06
    2.0058e+01     3.1441e-06
    2.0730e+01     3.5267e-06
    2.1424e+01     3.9555e-06
    2.2142e+01     4.4359e-06
    2.2884e+01     4.9742e-06
    2.3650e+01     5.5772e-06
    2.4443e+01     6.2526e-06
    2.5262e+01     7.0089e-06
    2.6108e+01     7.8557e-06
    2.6983e+01     8.8038e-06
    2.7887e+01     9.8650e-06
    2.8821e+01     1.1053e-05
    2.9786e+01     1.2381e-05
    3.0784e+01     1.3867e-05
    3.1815e+01     1.5529e-05
    3.2881e+01     1.7387e-05
    3.3983e+01     1.9464e-05
    3.5121e+01     2.1785e-05
    3.6298e+01     2.4378e-05
    3.7514e+01     2.7275e-05
    3.8771e+01     3.0510e-05
    4.0069e+01     3.4120e-05
    4.1412e+01     3.8150e-05
    4.2799e+01     4.2646e-05
    4.4233e+01     4.7661e-05
    4.5715e+01     5.3253e-05
    4.7246e+01     5.9486e-05
    4.8829e+01     6.6431e-05
    5.0465e+01     7.4168e-05
    5.2156e+01     8.2784e-05
    5.3903e+01     9.2373e-05
    5.5709e+01     1.0304e-04
    5.7575e+01     1.1491e-04
    5.9504e+01     1.2810e-04
    6.1497e+01     1.4276e-04
    6.3557e+01     1.5905e-04
    6.5687e+01     1.7713e-04
    6.7887e+01     1.9720e-04
    7.0161e+01     2.1946e-04
    7.2512e+01     2.4414e-04
    7.4941e+01     2.7148e-04
    7.7452e+01     3.0177e-04
    8.0046e+01     3.3529e-04
    8.2728e+01     3.7238e-04
    8.5499e+01     4.1340e-04
    8.8364e+01     4.5874e-04
    9.1324e+01     5.0884e-04
    9.4383e+01     5.6417e-04
    9.7545e+01     6.2525e-04
    1.0081e+02     6.9265e-04
    1.0419e+02     7.6698e-04
    1.0768e+02     8.4891e-04
    1.1129e+02     9.3914e-04
    1.1502e+02     1.0385e-03
    1.1887e+02     1.1477e-03
    1.2285e+02     1.2679e-03
    1.2697e+02     1.3999e-03
    1.3122e+02     1.5447e-03
    1.3562e+02     1.7035e-03
    1.4016e+02     1.8774e-03
    1.4486e+02     2.0677e-03
    1.4971e+02     2.2759e-03
    1.5472e+02     2.5035e-03
    1.5991e+02     2.7521e-03
    1.6526e+02     3.0234e-03
    1.7080e+02     3.3191e-03
    1.7652e+02     3.6413e-03
    1.8244e+02     3.9920e-03
    1.8855e+02     4.3733e-03
    1.9486e+02     4.7875e-03
    2.0139e+02     5.2367e-03
    2.0814e+02     5.7235e-03
    2.1511e+02     6.2504e-03
    2.2232e+02     6.8203e-03
    2.2977e+02     7.4359e-03
    2.3746e+02     8.1003e-03
    2.4542e+02     8.8165e-03
    2.5364e+02     9.5875e-03
    2.6214e+02     1.0416e-02
    2.7092e+02     1.1306e-02
    2.8000e+02     1.2261e-02
    2.8938e+02     1.3283e-02
    2.9907e+02     1.4375e-02
    3.0909e+02     1.5541e-02
    3.1945e+02     1.6783e-02
    3.3015e+02     1.8105e-02
    3.4121e+02     1.9511e-02
    3.5264e+02     2.1002e-02
    3.6445e+02     2.2582e-02
    3.7666e+02     2.4252e-02
    3.8928e+02     2.6014e-02
    4.0232e+02     2.7871e-02
    4.1580e+02     2.9822e-02
    4.2973e+02     3.1869e-02
    4.4412e+02     3.4013e-02
    4.5900e+02     3.6254e-02
    4.7438e+02     3.8594e-02
    4.9027e+02     4.1031e-02
    5.0670e+02     4.3566e-02
    5.2367e+02     4.6197e-02
    5.4121e+02     4.8922e-02
    5.5935e+02     5.1738e-02
    5.7808e+02     5.4642e-02
    5.9745e+02     5.7630e-02
    6.1747e+02     6.0699e-02
    6.3815e+02     6.3844e-02
    6.5953e+02     6.7058e-02
    6.8162e+02     7.0336e-02
    7.0446e+02     7.3671e-02
    7.2806e+02     7.7060e-02
    7.5245e+02     8.0495e-02
    7.7766e+02     8.3972e-02
    8.0371e+02     8.7487e-02
    8.3064e+02     9.1036e-02
    8.5846e+02     9.4616e-02
    8.8722e+02     9.8224e-02
    9.1694e+02     1.0186e-01
    9.4766e+02     1.0553e-01
    9.7941e+02     1.0922e-01
    1.0122e+03     1.1293e-01
    1.0461e+03     1.1667e-01
    1.0812e+03     1.2043e-01
    1.1174e+03     1.2423e-01
    1.1548e+03     1.2806e-01
    1.1935e+03     1.3193e-01
    1.2335e+03     1.3585e-01
    1.2748e+03     1.3983e-01
    1.3175e+03     1.4387e-01
    1.3617e+03     1.4799e-01
    1.4073e+03     1.5220e-01
    1.4544e+03     1.5650e-01
    1.5032e+03     1.6090e-01
    1.5535e+03     1.6544e-01
    1.6056e+03     1.7009e-01
    1.6594e+03     1.7485e-01
    1.7149e+03     1.7973e-01
    1.7724e+03     1.8472e-01
    1.8318e+03     1.8982e-01
    1.8931e+03     1.9503e-01
    1.9566e+03     2.0035e-01
    2.0221e+03     2.0578e-01
    2.0898e+03     2.1134e-01
    2.1599e+03     2.1701e-01
    2.2322e+03     2.2278e-01
    2.3070e+03     2.2864e-01
    2.3843e+03     2.3460e-01
    2.4642e+03     2.4065e-01
    2.5467e+03     2.4678e-01
    2.6320e+03     2.5300e-01
    2.7202e+03     2.5930e-01
    2.8113e+03     2.6566e-01
    2.9055e+03     2.7210e-01
    3.0028e+03     2.7860e-01
    3.1034e+03     2.8516e-01
    3.2074e+03     2.9176e-01
    3.3149e+03     2.9838e-01
    3.4259e+03     3.0499e-01
    3.5407e+03     3.1158e-01
    3.6593e+03     3.1811e-01
    3.7819e+03     3.2457e-01
    3.9086e+03     3.3095e-01
    4.0395e+03     3.3735e-01
    4.1749e+03     3.4387e-01
    4.3147e+03     3.5042e-01
    4.4593e+03     3.5695e-01
    4.6087e+03     3.6344e-01
    4.7630e+03     3.6987e-01
    4.9226e+03     3.7623e-01
    5.0875e+03     3.8249e-01
    5.2580e+03     3.8867e-01
    5.4341e+03     3.9474e-01
    5.6162e+03     4.0073e-01
    5.8043e+03     4.0662e-01
    5.9987e+03     4.1242e-01
    6.1997e+03     4.1813e-01
    6.4074e+03     4.2374e-01
    6.6221e+03     4.2924e-01
    6.8439e+03     4.3463e-01
    7.0732e+03     4.3989e-01
    7.3101e+03     4.4498e-01
    7.5550e+03     4.4994e-01
    7.8081e+03     4.5478e-01
    8.0697e+03     4.5950e-01
    8.3401e+03     4.6410e-01
    8.6195e+03     4.6860e-01
    8.9082e+03     4.7297e-01
    9.2066e+03     4.7723e-01
    9.5151e+03     4.8137e-01
    9.8338e+03     4.8536e-01
    1.0163e+04     4.8919e-01
    1.0504e+04     4.9283e-01
    1.0856e+04     4.9632e-01
    1.1219e+04     4.9967e-01
    1.1595e+04     5.0289e-01
    1.1984e+04     5.0599e-01
    1.2385e+04     5.0898e-01
    1.2800e+04     5.1187e-01
    1.3229e+04     5.1467e-01
    1.3672e+04     5.1738e-01
    1.4130e+04     5.2000e-01
    1.4603e+04     5.2253e-01
    1.5093e+04     5.2498e-01
    1.5598e+04     5.2734e-01
    1.6121e+04     5.2963e-01
    1.6661e+04     5.3184e-01
    1.7219e+04     5.3398e-01
    1.7796e+04     5.3603e-01
    1.8392e+04     5.3801e-01
    1.9008e+04     5.3990e-01
    1.9645e+04     5.4169e-01
    2.0303e+04     5.4336e-01
    2.0983e+04     5.4490e-01
    2.1686e+04     5.4633e-01
    2.2413e+04     5.4766e-01
    2.3164e+04     5.4890e-01
    2.3940e+04     5.5006e-01
    2.4742e+04     5.5113e-01
    2.5570e+04     5.5213e-01
    2.6427e+04     5.5306e-01
    2.7312e+04     5.5392e-01
    2.8227e+04     5.5471e-01
    2.9173e+04     5.5544e-01
    3.0150e+04     5.5611e-01
    3.1160e+04     5.5671e-01
    3.2204e+04     5.5727e-01
    3.3283e+04     5.5776e-01
    3.4398e+04     5.5821e-01
    3.5551e+04     5.5860e-01
    3.6741e+04     5.5894e-01
    3.7972e+04     5.5923e-01
    3.9244e+04     5.5947e-01
    4.0559e+04     5.5966e-01
    4.1918e+04     5.5980e-01
    4.3322e+04     5.5990e-01
    4.4774e+04     5.5994e-01
    4.6274e+04     5.5992e-01
    4.7824e+04     5.5983e-01
    4.9426e+04     5.5965e-01
    5.1082e+04     5.5934e-01
    5.2793e+04     5.5891e-01
    5.4562e+04     5.5838e-01
    5.6389e+04     5.5776e-01
    5.8278e+04     5.5707e-01
    6.0231e+04     5.5631e-01
    6.2249e+04     5.5549e-01
    6.4334e+04     5.5461e-01
    6.6489e+04     5.5368e-01
    6.8717e+04     5.5270e-01
    7.1019e+04     5.5168e-01
    7.3398e+04     5.5062e-01
    7.5857e+04     5.4951e-01
    7.8398e+04     5.4837e-01
    8.1025e+04     5.4719e-01
    8.3739e+04     5.4598e-01
    8.6544e+04     5.4473e-01
    8.9444e+04     5.4345e-01
    9.2440e+04     5.4213e-01
    9.5537e+04     5.4079e-01
    9.8737e+04     5.3941e-01
    1.0205e+05     5.3800e-01
    1.0546e+05     5.3656e-01
    1.0900e+05     5.3509e-01
    1.1265e+05     5.3359e-01
    1.1642e+05     5.3206e-01
    1.2032e+05     5.3051e-01
    1.2435e+05     5.2893e-01
    1.2852e+05     5.2732e-01
    1.3282e+05     5.2570e-01
    1.3727e+05     5.2405e-01
    1.4187e+05     5.2237e-01
    1.4663e+05     5.2068e-01
    1.5154e+05     5.1896e-01
    1.5662e+05     5.1722e-01
    1.6186e+05     5.1546e-01
    1.6728e+05     5.1369e-01
    1.7289e+05     5.1189e-01
    1.7868e+05     5.1007e-01
    1.8467e+05     5.0824e-01
    1.9085e+05     5.0639e-01
    1.9725e+05     5.0452e-01
    2.0385e+05     5.0263e-01
    2.1068e+05     5.0073e-01
    2.1774e+05     4.9881e-01
    2.2504e+05     4.9688e-01
    2.3258e+05     4.9493e-01
    2.4037e+05     4.9297e-01
    2.4842e+05     4.9099e-01
    2.5674e+05     4.8900e-01
    2.6534e+05     4.8699e-01
    2.7423e+05     4.8497e-01
    2.8342e+05     4.8294e-01
    2.9291e+05     4.8090e-01
    3.0273e+05     4.7885e-01
    3.1287e+05     4.7678e-01
    3.2335e+05     4.7470e-01
    3.3418e+05     4.7261e-01
    3.4538e+05     4.7052e-01
    3.5695e+05     4.6841e-01
    3.6891e+05     4.6629e-01
    3.8126e+05     4.6416e-01
    3.9404e+05     4.6202e-01
    4.0724e+05     4.5988e-01
    4.2088e+05     4.5773e-01
    4.3498e+05     4.5556e-01
    4.4955e+05     4.5339e-01
    4.6461e+05     4.5121e-01
    4.8018e+05     4.4900e-01
    4.9626e+05     4.4677e-01
    5.1289e+05     4.4448e-01
    5.3007e+05     4.4214e-01
    5.4783e+05     4.3978e-01
    5.6618e+05     4.3739e-01
    5.8515e+05     4.3499e-01
    6.0475e+05     4.3258e-01
    6.2501e+05     4.3016e-01
    6.4595e+05     4.2774e-01
    6.6759e+05     4.2531e-01
    6.8996e+05     4.2287e-01
    7.1307e+05     4.2043e-01
    7.3696e+05     4.1798e-01
    7.6165e+05     4.1553e-01
    7.8716e+05     4.1307e-01
    8.1353e+05     4.1061e-01
    8.4079e+05     4.0815e-01
    8.6895e+05     4.0569e-01
    8.9806e+05     4.0322e-01
    9.2815e+05     4.0076e-01
    9.5924e+05     3.9831e-01
    9.9138e+05     3.9590e-01
    1.0246e+06     3.9360e-01
    1.0589e+06     3.9138e-01
    1.0944e+06     3.8920e-01
    1.1311e+06     3.8703e-01
    1.1689e+06     3.8488e-01
    1.2081e+06     3.8274e-01
    1.2486e+06     3.8060e-01
    1.2904e+06     3.7846e-01
    1.3336e+06     3.7633e-01
    1.3783e+06     3.7420e-01
    1.4245e+06     3.7208e-01
    1.4722e+06     3.6996e-01
    1.5215e+06     3.6784e-01
    1.5725e+06     3.6573e-01
    1.6252e+06     3.6362e-01
    1.6796e+06     3.6151e-01
    1.7359e+06     3.5941e-01
    1.7941e+06     3.5732e-01
    1.8542e+06     3.5522e-01
    1.9163e+06     3.5314e-01
    1.9805e+06     3.5106e-01
    2.0468e+06     3.4898e-01
    2.1154e+06     3.4691e-01
    2.1863e+06     3.4484e-01
    2.2595e+06     3.4278e-01
    2.3352e+06     3.4072e-01
    2.4134e+06     3.3867e-01
    2.4943e+06     3.3662e-01
    2.5778e+06     3.3458e-01
    2.6642e+06     3.3254e-01
    2.7534e+06     3.3051e-01
    2.8457e+06     3.2849e-01
    2.9410e+06     3.2647e-01
    3.0395e+06     3.2446e-01
    3.1414e+06     3.2245e-01
    3.2466e+06     3.2044e-01
    3.3554e+06     3.1845e-01
    3.4678e+06     3.1645e-01
    3.5840e+06     3.1446e-01
    3.7040e+06     3.1247e-01
    3.8281e+06     3.1048e-01
    3.9564e+06     3.0850e-01
    4.0889e+06     3.0652e-01
    4.2259e+06     3.0455e-01
    4.3674e+06     3.0258e-01
    4.5138e+06     3.0062e-01
    4.6650e+06     2.9867e-01
    4.8213e+06     2.9672e-01
    4.9828e+06     2.9478e-01
    5.1497e+06     2.9285e-01
    5.3222e+06     2.9093e-01
    5.5005e+06     2.8901e-01
    5.6848e+06     2.8710e-01
    5.8752e+06     2.8520e-01
    6.0721e+06     2.8331e-01
    6.2755e+06     2.8142e-01
    6.4857e+06     2.7954e-01
    6.7030e+06     2.7767e-01
    6.9275e+06     2.7580e-01
    7.1596e+06     2.7394e-01
    7.3995e+06     2.7209e-01
    7.6474e+06     2.7025e-01
    7.9036e+06     2.6841e-01
    8.1683e+06     2.6658e-01
    8.4420e+06     2.6475e-01
    8.7248e+06     2.6293e-01
    9.0171e+06     2.6112e-01
    9.3192e+06     2.5931e-01
    9.6314e+06     2.5751e-01
    9.9540e+06     2.5572e-01
    1.0287e+07     2.5393e-01
    1.0632e+07     2.5215e-01
    1.0988e+07     2.5037e-01
    1.1356e+07     2.4861e-01
    1.1737e+07     2.4685e-01
    1.2130e+07     2.4509e-01
    1.2536e+07     2.4335e-01
    1.2956e+07     2.4161e-01
    1.3390e+07     2.3988e-01
    1.3839e+07     2.3815e-01
    1.4303e+07     2.3643e-01
    1.4782e+07     2.3472e-01
    1.5277e+07     2.3302e-01
    1.5789e+07     2.3132e-01
    1.6318e+07     2.2964e-01
    1.6864e+07     2.2796e-01
    1.7429e+07     2.2628e-01
    1.8013e+07     2.2462e-01
    1.8617e+07     2.2296e-01
    1.9240e+07     2.2131e-01
    1.9885e+07     2.1968e-01
    2.0551e+07     2.1805e-01
    2.1240e+07     2.1643e-01
    2.1951e+07     2.1481e-01
    2.2687e+07     2.1321e-01
    2.3447e+07     2.1162e-01
    2.4232e+07     2.1003e-01
    2.5044e+07     2.0846e-01
    2.5883e+07     2.0689e-01
    2.6750e+07     2.0533e-01
    2.7646e+07     2.0378e-01
    2.8572e+07     2.0224e-01
    2.9530e+07     2.0071e-01
    3.0519e+07     1.9919e-01
    3.1541e+07     1.9768e-01
    3.2598e+07     1.9617e-01
    3.3690e+07     1.9468e-01
    3.4819e+07     1.9319e-01
    3.5985e+07     1.9171e-01
    3.7191e+07     1.9024e-01
    3.8436e+07     1.8878e-01
    3.9724e+07     1.8733e-01
    4.1055e+07     1.8589e-01
    4.2430e+07     1.8446e-01
    4.3852e+07     1.8304e-01
    4.5321e+07     1.8162e-01
    4.6839e+07     1.8022e-01
    4.8408e+07     1.7882e-01
    5.0030e+07     1.7743e-01
    5.1706e+07     1.7606e-01
    5.3438e+07     1.7469e-01
    5.5228e+07     1.7333e-01
    5.7079e+07     1.7198e-01
    5.8991e+07     1.7064e-01
    6.0967e+07     1.6931e-01
    6.3009e+07     1.6799e-01
    6.5120e+07     1.6668e-01
    6.7302e+07     1.6538e-01
    6.9557e+07     1.6409e-01
    7.1887e+07     1.6281e-01
    7.4295e+07     1.6153e-01
    7.6784e+07     1.6027e-01
    7.9356e+07     1.5902e-01
    8.2015e+07     1.5777e-01
    8.4762e+07     1.5654e-01
    8.7602e+07     1.5531e-01
    9.0537e+07     1.5409e-01
    9.3570e+07     1.5278e-01
    9.6704e+07     1.5033e-01
    9.9944e+07     1.3528e-01
