    1.0000e+00     4.1370e-11
    1.0335e+00     4.8445e-11
    1.0681e+00     5.4439e-11
    1.1039e+00     6.1183e-11
    1.1409e+00     6.8778e-11
    1.1791e+00     7.7326e-11
    1.2186e+00     8.6639e-11
    1.2594e+00     9.6139e-11
    1.3016e+00     1.0625e-10
    1.3452e+00     1.1693e-10
    1.3903e+00     1.2962e-10
    1.4369e+00     1.4604e-10
    1.4850e+00     1.6391e-10
    1.5348e+00     1.8323e-10
    1.5862e+00     2.0493e-10
    1.6393e+00     2.2921e-10
    1.6942e+00     2.5647e-10
    1.7510e+00     2.8777e-10
    1.8097e+00     3.2380e-10
    1.8703e+00     3.6404e-10
    1.9329e+00     4.0926e-10
    1.9977e+00     4.5973e-10
    2.0646e+00     5.1648e-10
    2.1338e+00     5.8026e-10
    2.2053e+00     6.5206e-10
    2.2791e+00     7.3292e-10
    2.3555e+00     8.2368e-10
    2.4344e+00     9.2572e-10
    2.5160e+00     1.0406e-09
    2.6002e+00     1.1693e-09
    2.6874e+00     1.3137e-09
    2.7774e+00     1.4756e-09
    2.8704e+00     1.6572e-09
    2.9666e+00     1.8607e-09
    3.0660e+00     2.0899e-09
    3.1687e+00     2.3476e-09
    3.2748e+00     2.6374e-09
    3.3845e+00     2.9639e-09
    3.4979e+00     3.3297e-09
    3.6151e+00     3.7411e-09
    3.7362e+00     4.2046e-09
    3.8614e+00     4.7257e-09
    3.9908e+00     5.3121e-09
    4.1244e+00     5.9699e-09
    4.2626e+00     6.7064e-09
    4.4054e+00     7.5322e-09
    4.5530e+00     8.4621e-09
    4.7055e+00     9.5084e-09
    4.8632e+00     1.0686e-08
    5.0261e+00     1.2006e-08
    5.1945e+00     1.3491e-08
    5.3685e+00     1.5162e-08
    5.5483e+00     1.7034e-08
    5.7342e+00     1.9138e-08
    5.9263e+00     2.1502e-08
    6.1249e+00     2.4160e-08
    6.3300e+00     2.7145e-08
    6.5421e+00     3.0498e-08
    6.7613e+00     3.4265e-08
    6.9878e+00     3.8495e-08
    7.2219e+00     4.3248e-08
    7.4638e+00     4.8586e-08
    7.7139e+00     5.4583e-08
    7.9723e+00     6.1316e-08
    8.2394e+00     6.8880e-08
    8.5154e+00     7.7374e-08
    8.8007e+00     8.6912e-08
    9.0955e+00     9.7623e-08
    9.4002e+00     1.0965e-07
    9.7151e+00     1.2315e-07
    1.0041e+01     1.3832e-07
    1.0377e+01     1.5534e-07
    1.0725e+01     1.7444e-07
    1.1084e+01     1.9589e-07
    1.1455e+01     2.1997e-07
    1.1839e+01     2.4699e-07
    1.2236e+01     2.7731e-07
    1.2645e+01     3.1134e-07
    1.3069e+01     3.4953e-07
    1.3507e+01     3.9237e-07
    1.3959e+01     4.4044e-07
    1.4427e+01     4.9436e-07
    1.4910e+01     5.5484e-07
    1.5410e+01     6.2267e-07
    1.5926e+01     6.9874e-07
    1.6460e+01     7.8405e-07
    1.7011e+01     8.7970e-07
    1.7581e+01     9.8694e-07
    1.8170e+01     1.1072e-06
    1.8779e+01     1.2419e-06
    1.9408e+01     1.3929e-06
    2.0058e+01     1.5621e-06
    2.0730e+01     1.7517e-06
    2.1424e+01     1.9641e-06
    2.2142e+01     2.2020e-06
    2.2884e+01     2.4685e-06
    2.3650e+01     2.7669e-06
    2.4443e+01     3.1010e-06
    2.5262e+01     3.4749e-06
    2.6108e+01     3.8935e-06
    2.6983e+01     4.3618e-06
    2.7887e+01     4.8858e-06
    2.8821e+01     5.4720e-06
    2.9786e+01     6.1274e-06
    3.0784e+01     6.8602e-06
    3.1815e+01     7.6793e-06
    3.2881e+01     8.5946e-06
    3.3983e+01     9.6172e-06
    3.5121e+01     1.0759e-05
    3.6298e+01     1.2035e-05
    3.7514e+01     1.3459e-05
    3.8771e+01     1.5047e-05
    4.0069e+01     1.6820e-05
    4.1412e+01     1.8797e-05
    4.2799e+01     2.1001e-05
    4.4233e+01     2.3458e-05
    4.5715e+01     2.6196e-05
    4.7246e+01     2.9245e-05
    4.8829e+01     3.2640e-05
    5.0465e+01     3.6420e-05
    5.2156e+01     4.0626e-05
    5.3903e+01     4.5304e-05
    5.5709e+01     5.0504e-05
    5.7575e+01     5.6283e-05
    5.9504e+01     6.2703e-05
    6.1497e+01     6.9832e-05
    6.3557e+01     7.7744e-05
    6.5687e+01     8.6521e-05
    6.7887e+01     9.6252e-05
    7.0161e+01     1.0703e-04
    7.2512e+01     1.1898e-04
    7.4941e+01     1.3220e-04
    7.7452e+01     1.4682e-04
    8.0046e+01     1.6300e-04
    8.2728e+01     1.8087e-04
    8.5499e+01     2.0061e-04
    8.8364e+01     2.2241e-04
    9.1324e+01     2.4646e-04
    9.4383e+01     2.7298e-04
    9.7545e+01     3.0223e-04
    1.0081e+02     3.3446e-04
    1.0419e+02     3.6997e-04
    1.0768e+02     4.0904e-04
    1.1129e+02     4.5201e-04
    1.1502e+02     4.9922e-04
    1.1887e+02     5.5105e-04
    1.2285e+02     6.0791e-04
    1.2697e+02     6.7022e-04
    1.3122e+02     7.3846e-04
    1.3562e+02     8.1311e-04
    1.4016e+02     8.9470e-04
    1.4486e+02     9.8376e-04
    1.4971e+02     1.0810e-03
    1.5472e+02     1.1870e-03
    1.5991e+02     1.3025e-03
    1.6526e+02     1.4284e-03
    1.7080e+02     1.5653e-03
    1.7652e+02     1.7141e-03
    1.8244e+02     1.8756e-03
    1.8855e+02     2.0509e-03
    1.9486e+02     2.2408e-03
    2.0139e+02     2.4464e-03
    2.0814e+02     2.6687e-03
    2.1511e+02     2.9087e-03
    2.2232e+02     3.1677e-03
    2.2977e+02     3.4467e-03
    2.3746e+02     3.7469e-03
    2.4542e+02     4.0696e-03
    2.5364e+02     4.4159e-03
    2.6214e+02     4.7870e-03
    2.7092e+02     5.1843e-03
    2.8000e+02     5.6088e-03
    2.8938e+02     6.0618e-03
    2.9907e+02     6.5443e-03
    3.0909e+02     7.0573e-03
    3.1945e+02     7.6021e-03
    3.3015e+02     8.1799e-03
    3.4121e+02     8.7916e-03
    3.5264e+02     9.4384e-03
    3.6445e+02     1.0121e-02
    3.7666e+02     1.0840e-02
    3.8928e+02     1.1597e-02
    4.0232e+02     1.2392e-02
    4.1580e+02     1.3225e-02
    4.2973e+02     1.4096e-02
    4.4412e+02     1.5006e-02
    4.5900e+02     1.5954e-02
    4.7438e+02     1.6939e-02
    4.9027e+02     1.7960e-02
    5.0670e+02     1.9016e-02
    5.2367e+02     2.0105e-02
    5.4121e+02     2.1227e-02
    5.5935e+02     2.2379e-02
    5.7808e+02     2.3559e-02
    5.9745e+02     2.4766e-02
    6.1747e+02     2.5998e-02
    6.3815e+02     2.7252e-02
    6.5953e+02     2.8526e-02
    6.8162e+02     2.9817e-02
    7.0446e+02     3.1124e-02
    7.2806e+02     3.2446e-02
    7.5245e+02     3.3781e-02
    7.7766e+02     3.5128e-02
    8.0371e+02     3.6487e-02
    8.3064e+02     3.7858e-02
    8.5846e+02     3.9241e-02
    8.8722e+02     4.0636e-02
    9.1694e+02     4.2044e-02
    9.4766e+02     4.3466e-02
    9.7941e+02     4.4903e-02
    1.0122e+03     4.6358e-02
    1.0461e+03     4.7832e-02
    1.0812e+03     4.9328e-02
    1.1174e+03     5.0848e-02
    1.1548e+03     5.2395e-02
    1.1935e+03     5.3971e-02
    1.2335e+03     5.5581e-02
    1.2748e+03     5.7226e-02
    1.3175e+03     5.8911e-02
    1.3617e+03     6.0636e-02
    1.4073e+03     6.2406e-02
    1.4544e+03     6.4224e-02
    1.5032e+03     6.6093e-02
    1.5535e+03     6.8019e-02
    1.6056e+03     6.9999e-02
    1.6594e+03     7.2029e-02
    1.7149e+03     7.4107e-02
    1.7724e+03     7.6232e-02
    1.8318e+03     7.8402e-02
    1.8931e+03     8.0617e-02
    1.9566e+03     8.2878e-02
    2.0221e+03     8.5186e-02
    2.0898e+03     8.7543e-02
    2.1599e+03     8.9945e-02
    2.2322e+03     9.2389e-02
    2.3070e+03     9.4874e-02
    2.3843e+03     9.7398e-02
    2.4642e+03     9.9961e-02
    2.5467e+03     1.0256e-01
    2.6320e+03     1.0520e-01
    2.7202e+03     1.0787e-01
    2.8113e+03     1.1059e-01
    2.9055e+03     1.1333e-01
    3.0028e+03     1.1611e-01
    3.1034e+03     1.1893e-01
    3.2074e+03     1.2178e-01
    3.3149e+03     1.2465e-01
    3.4259e+03     1.2752e-01
    3.5407e+03     1.3038e-01
    3.6593e+03     1.3322e-01
    3.7819e+03     1.3604e-01
    3.9086e+03     1.3883e-01
    4.0395e+03     1.4164e-01
    4.1749e+03     1.4453e-01
    4.3147e+03     1.4743e-01
    4.4593e+03     1.5035e-01
    4.6087e+03     1.5325e-01
    4.7630e+03     1.5614e-01
    4.9226e+03     1.5901e-01
    5.0875e+03     1.6184e-01
    5.2580e+03     1.6464e-01
    5.4341e+03     1.6740e-01
    5.6162e+03     1.7012e-01
    5.8043e+03     1.7282e-01
    5.9987e+03     1.7549e-01
    6.1997e+03     1.7812e-01
    6.4074e+03     1.8072e-01
    6.6221e+03     1.8329e-01
    6.8439e+03     1.8582e-01
    7.0732e+03     1.8830e-01
    7.3101e+03     1.9072e-01
    7.5550e+03     1.9309e-01
    7.8081e+03     1.9542e-01
    8.0697e+03     1.9771e-01
    8.3401e+03     1.9996e-01
    8.6195e+03     2.0216e-01
    8.9082e+03     2.0433e-01
    9.2066e+03     2.0645e-01
    9.5151e+03     2.0852e-01
    9.8338e+03     2.1053e-01
    1.0163e+04     2.1245e-01
    1.0504e+04     2.1429e-01
    1.0856e+04     2.1605e-01
    1.1219e+04     2.1775e-01
    1.1595e+04     2.1939e-01
    1.1984e+04     2.2097e-01
    1.2385e+04     2.2250e-01
    1.2800e+04     2.2397e-01
    1.3229e+04     2.2540e-01
    1.3672e+04     2.2678e-01
    1.4130e+04     2.2812e-01
    1.4603e+04     2.2942e-01
    1.5093e+04     2.3068e-01
    1.5598e+04     2.3190e-01
    1.6121e+04     2.3309e-01
    1.6661e+04     2.3423e-01
    1.7219e+04     2.3534e-01
    1.7796e+04     2.3642e-01
    1.8392e+04     2.3745e-01
    1.9008e+04     2.3845e-01
    1.9645e+04     2.3941e-01
    2.0303e+04     2.4031e-01
    2.0983e+04     2.4115e-01
    2.1686e+04     2.4195e-01
    2.2413e+04     2.4271e-01
    2.3164e+04     2.4342e-01
    2.3940e+04     2.4409e-01
    2.4742e+04     2.4473e-01
    2.5570e+04     2.4534e-01
    2.6427e+04     2.4591e-01
    2.7312e+04     2.4645e-01
    2.8227e+04     2.4696e-01
    2.9173e+04     2.4744e-01
    3.0150e+04     2.4789e-01
    3.1160e+04     2.4832e-01
    3.2204e+04     2.4871e-01
    3.3283e+04     2.4909e-01
    3.4398e+04     2.4943e-01
    3.5551e+04     2.4975e-01
    3.6741e+04     2.5005e-01
    3.7972e+04     2.5033e-01
    3.9244e+04     2.5058e-01
    4.0559e+04     2.5081e-01
    4.1918e+04     2.5101e-01
    4.3322e+04     2.5119e-01
    4.4774e+04     2.5135e-01
    4.6274e+04     2.5147e-01
    4.7824e+04     2.5156e-01
    4.9426e+04     2.5161e-01
    5.1082e+04     2.5159e-01
    5.2793e+04     2.5150e-01
    5.4562e+04     2.5137e-01
    5.6389e+04     2.5118e-01
    5.8278e+04     2.5097e-01
    6.0231e+04     2.5071e-01
    6.2249e+04     2.5043e-01
    6.4334e+04     2.5012e-01
    6.6489e+04     2.4978e-01
    6.8717e+04     2.4943e-01
    7.1019e+04     2.4904e-01
    7.3398e+04     2.4864e-01
    7.5857e+04     2.4822e-01
    7.8398e+04     2.4778e-01
    8.1025e+04     2.4732e-01
    8.3739e+04     2.4684e-01
    8.6544e+04     2.4635e-01
    8.9444e+04     2.4584e-01
    9.2440e+04     2.4531e-01
    9.5537e+04     2.4477e-01
    9.8737e+04     2.4421e-01
    1.0205e+05     2.4364e-01
    1.0546e+05     2.4305e-01
    1.0900e+05     2.4245e-01
    1.1265e+05     2.4183e-01
    1.1642e+05     2.4120e-01
    1.2032e+05     2.4056e-01
    1.2435e+05     2.3990e-01
    1.2852e+05     2.3924e-01
    1.3282e+05     2.3856e-01
    1.3727e+05     2.3787e-01
    1.4187e+05     2.3716e-01
    1.4663e+05     2.3645e-01
    1.5154e+05     2.3572e-01
    1.5662e+05     2.3499e-01
    1.6186e+05     2.3424e-01
    1.6728e+05     2.3349e-01
    1.7289e+05     2.3272e-01
    1.7868e+05     2.3195e-01
    1.8467e+05     2.3117e-01
    1.9085e+05     2.3038e-01
    1.9725e+05     2.2957e-01
    2.0385e+05     2.2877e-01
    2.1068e+05     2.2795e-01
    2.1774e+05     2.2712e-01
    2.2504e+05     2.2629e-01
    2.3258e+05     2.2545e-01
    2.4037e+05     2.2460e-01
    2.4842e+05     2.2374e-01
    2.5674e+05     2.2288e-01
    2.6534e+05     2.2201e-01
    2.7423e+05     2.2114e-01
    2.8342e+05     2.2025e-01
    2.9291e+05     2.1936e-01
    3.0273e+05     2.1847e-01
    3.1287e+05     2.1757e-01
    3.2335e+05     2.1666e-01
    3.3418e+05     2.1575e-01
    3.4538e+05     2.1483e-01
    3.5695e+05     2.1391e-01
    3.6891e+05     2.1299e-01
    3.8126e+05     2.1205e-01
    3.9404e+05     2.1112e-01
    4.0724e+05     2.1018e-01
    4.2088e+05     2.0923e-01
    4.3498e+05     2.0828e-01
    4.4955e+05     2.0733e-01
    4.6461e+05     2.0637e-01
    4.8018e+05     2.0539e-01
    4.9626e+05     2.0441e-01
    5.1289e+05     2.0338e-01
    5.3007e+05     2.0232e-01
    5.4783e+05     2.0125e-01
    5.6618e+05     2.0017e-01
    5.8515e+05     1.9908e-01
    6.0475e+05     1.9798e-01
    6.2501e+05     1.9688e-01
    6.4595e+05     1.9577e-01
    6.6759e+05     1.9466e-01
    6.8996e+05     1.9355e-01
    7.1307e+05     1.9244e-01
    7.3696e+05     1.9132e-01
    7.6165e+05     1.9020e-01
    7.8716e+05     1.8907e-01
    8.1353e+05     1.8795e-01
    8.4079e+05     1.8682e-01
    8.6895e+05     1.8569e-01
    8.9806e+05     1.8456e-01
    9.2815e+05     1.8343e-01
    9.5924e+05     1.8231e-01
    9.9138e+05     1.8121e-01
    1.0246e+06     1.8017e-01
    1.0589e+06     1.7917e-01
    1.0944e+06     1.7819e-01
    1.1311e+06     1.7722e-01
    1.1689e+06     1.7625e-01
    1.2081e+06     1.7529e-01
    1.2486e+06     1.7433e-01
    1.2904e+06     1.7337e-01
    1.3336e+06     1.7241e-01
    1.3783e+06     1.7145e-01
    1.4245e+06     1.7050e-01
    1.4722e+06     1.6954e-01
    1.5215e+06     1.6859e-01
    1.5725e+06     1.6764e-01
    1.6252e+06     1.6669e-01
    1.6796e+06     1.6574e-01
    1.7359e+06     1.6480e-01
    1.7941e+06     1.6385e-01
    1.8542e+06     1.6291e-01
    1.9163e+06     1.6197e-01
    1.9805e+06     1.6103e-01
    2.0468e+06     1.6009e-01
    2.1154e+06     1.5916e-01
    2.1863e+06     1.5822e-01
    2.2595e+06     1.5729e-01
    2.3352e+06     1.5636e-01
    2.4134e+06     1.5543e-01
    2.4943e+06     1.5451e-01
    2.5778e+06     1.5358e-01
    2.6642e+06     1.5266e-01
    2.7534e+06     1.5175e-01
    2.8457e+06     1.5083e-01
    2.9410e+06     1.4992e-01
    3.0395e+06     1.4901e-01
    3.1414e+06     1.4810e-01
    3.2466e+06     1.4719e-01
    3.3554e+06     1.4628e-01
    3.4678e+06     1.4538e-01
    3.5840e+06     1.4447e-01
    3.7040e+06     1.4357e-01
    3.8281e+06     1.4267e-01
    3.9564e+06     1.4177e-01
    4.0889e+06     1.4087e-01
    4.2259e+06     1.3998e-01
    4.3674e+06     1.3908e-01
    4.5138e+06     1.3819e-01
    4.6650e+06     1.3731e-01
    4.8213e+06     1.3642e-01
    4.9828e+06     1.3554e-01
    5.1497e+06     1.3466e-01
    5.3222e+06     1.3379e-01
    5.5005e+06     1.3292e-01
    5.6848e+06     1.3205e-01
    5.8752e+06     1.3119e-01
    6.0721e+06     1.3032e-01
    6.2755e+06     1.2947e-01
    6.4857e+06     1.2861e-01
    6.7030e+06     1.2776e-01
    6.9275e+06     1.2691e-01
    7.1596e+06     1.2606e-01
    7.3995e+06     1.2522e-01
    7.6474e+06     1.2438e-01
    7.9036e+06     1.2355e-01
    8.1683e+06     1.2271e-01
    8.4420e+06     1.2188e-01
    8.7248e+06     1.2105e-01
    9.0171e+06     1.2023e-01
    9.3192e+06     1.1940e-01
    9.6314e+06     1.1858e-01
    9.9540e+06     1.1776e-01
    1.0287e+07     1.1695e-01
    1.0632e+07     1.1614e-01
    1.0988e+07     1.1533e-01
    1.1356e+07     1.1452e-01
    1.1737e+07     1.1372e-01
    1.2130e+07     1.1292e-01
    1.2536e+07     1.1213e-01
    1.2956e+07     1.1133e-01
    1.3390e+07     1.1054e-01
    1.3839e+07     1.0976e-01
    1.4303e+07     1.0897e-01
    1.4782e+07     1.0819e-01
    1.5277e+07     1.0741e-01
    1.5789e+07     1.0664e-01
    1.6318e+07     1.0587e-01
    1.6864e+07     1.0510e-01
    1.7429e+07     1.0434e-01
    1.8013e+07     1.0358e-01
    1.8617e+07     1.0282e-01
    1.9240e+07     1.0207e-01
    1.9885e+07     1.0132e-01
    2.0551e+07     1.0057e-01
    2.1240e+07     9.9833e-02
    2.1951e+07     9.9097e-02
    2.2687e+07     9.8365e-02
    2.3447e+07     9.7636e-02
    2.4232e+07     9.6912e-02
    2.5044e+07     9.6192e-02
    2.5883e+07     9.5475e-02
    2.6750e+07     9.4763e-02
    2.7646e+07     9.4055e-02
    2.8572e+07     9.3350e-02
    2.9530e+07     9.2650e-02
    3.0519e+07     9.1954e-02
    3.1541e+07     9.1262e-02
    3.2598e+07     9.0574e-02
    3.3690e+07     8.9890e-02
    3.4819e+07     8.9209e-02
    3.5985e+07     8.8533e-02
    3.7191e+07     8.7861e-02
    3.8436e+07     8.7193e-02
    3.9724e+07     8.6529e-02
    4.1055e+07     8.5869e-02
    4.2430e+07     8.5214e-02
    4.3852e+07     8.4562e-02
    4.5321e+07     8.3915e-02
    4.6839e+07     8.3271e-02
    4.8408e+07     8.2632e-02
    5.0030e+07     8.1997e-02
    5.1706e+07     8.1367e-02
    5.3438e+07     8.0740e-02
    5.5228e+07     8.0118e-02
    5.7079e+07     7.9501e-02
    5.8991e+07     7.8887e-02
    6.0967e+07     7.8278e-02
    6.3009e+07     7.7673e-02
    6.5120e+07     7.7072e-02
    6.7302e+07     7.6476e-02
    6.9557e+07     7.5884e-02
    7.1887e+07     7.5297e-02
    7.4295e+07     7.4713e-02
    7.6784e+07     7.4134e-02
    7.9356e+07     7.3560e-02
    8.2015e+07     7.2989e-02
    8.4762e+07     7.2423e-02
    8.7602e+07     7.1862e-02
    9.0537e+07     7.1301e-02
    9.3570e+07     7.0699e-02
    9.6704e+07     6.9580e-02
    9.9944e+07     6.2666e-02
