    1.0000e+00     2.4644e-09
    1.0335e+00     2.6102e-09
    1.0681e+00     2.7647e-09
    1.1039e+00     2.9282e-09
    1.1409e+00     3.1015e-09
    1.1791e+00     3.2850e-09
    1.2186e+00     3.4793e-09
    1.2594e+00     3.6852e-09
    1.3016e+00     3.9032e-09
    1.3452e+00     4.1341e-09
    1.3903e+00     4.3787e-09
    1.4369e+00     4.6377e-09
    1.4850e+00     4.9121e-09
    1.5348e+00     5.3700e-09
    1.5862e+00     6.0457e-09
    1.6393e+00     6.7122e-09
    1.6942e+00     7.1790e-09
    1.7510e+00     7.6485e-09
    1.8097e+00     8.1053e-09
    1.8703e+00     8.6324e-09
    1.9329e+00     9.3960e-09
    1.9977e+00     1.0230e-08
    2.0646e+00     1.1138e-08
    2.1338e+00     1.2274e-08
    2.2053e+00     1.3605e-08
    2.2791e+00     1.5000e-08
    2.3555e+00     1.6413e-08
    2.4344e+00     1.7992e-08
    2.5160e+00     1.9782e-08
    2.6002e+00     2.1932e-08
    2.6874e+00     2.4627e-08
    2.7774e+00     2.7938e-08
    2.8704e+00     3.1133e-08
    2.9666e+00     3.4378e-08
    3.0660e+00     3.7962e-08
    3.1687e+00     4.1963e-08
    3.2748e+00     4.6451e-08
    3.3845e+00     5.1496e-08
    3.4979e+00     5.7193e-08
    3.6151e+00     6.3642e-08
    3.7362e+00     7.0939e-08
    3.8614e+00     7.9198e-08
    3.9908e+00     8.7796e-08
    4.1244e+00     9.6815e-08
    4.2626e+00     1.0604e-07
    4.4054e+00     1.1476e-07
    4.5530e+00     1.2513e-07
    4.7055e+00     1.3963e-07
    4.8632e+00     1.5625e-07
    5.0261e+00     1.7317e-07
    5.1945e+00     1.9160e-07
    5.3685e+00     2.1030e-07
    5.5483e+00     2.3202e-07
    5.7342e+00     2.5558e-07
    5.9263e+00     2.8131e-07
    6.1249e+00     3.0888e-07
    6.3300e+00     3.4130e-07
    6.5421e+00     3.7888e-07
    6.7613e+00     4.1905e-07
    6.9878e+00     4.6313e-07
    7.2219e+00     5.1118e-07
    7.4638e+00     5.6310e-07
    7.7139e+00     6.2019e-07
    7.9723e+00     6.8324e-07
    8.2394e+00     7.5532e-07
    8.5154e+00     8.3292e-07
    8.8007e+00     9.1930e-07
    9.0955e+00     1.0142e-06
    9.4002e+00     1.1187e-06
    9.7151e+00     1.2338e-06
    1.0041e+01     1.3604e-06
    1.0377e+01     1.4995e-06
    1.0725e+01     1.6531e-06
    1.1084e+01     1.8226e-06
    1.1455e+01     2.0097e-06
    1.1839e+01     2.2149e-06
    1.2236e+01     2.4406e-06
    1.2645e+01     2.6892e-06
    1.3069e+01     2.9640e-06
    1.3507e+01     3.2654e-06
    1.3959e+01     3.5975e-06
    1.4427e+01     3.9623e-06
    1.4910e+01     4.3648e-06
    1.5410e+01     4.8067e-06
    1.5926e+01     5.2926e-06
    1.6460e+01     5.8269e-06
    1.7011e+01     6.4150e-06
    1.7581e+01     7.0611e-06
    1.8170e+01     7.7716e-06
    1.8779e+01     8.5519e-06
    1.9408e+01     9.4098e-06
    2.0058e+01     1.0352e-05
    2.0730e+01     1.1387e-05
    2.1424e+01     1.2524e-05
    2.2142e+01     1.3771e-05
    2.2884e+01     1.5142e-05
    2.3650e+01     1.6645e-05
    2.4443e+01     1.8296e-05
    2.5262e+01     2.0106e-05
    2.6108e+01     2.2093e-05
    2.6983e+01     2.4271e-05
    2.7887e+01     2.6659e-05
    2.8821e+01     2.9277e-05
    2.9786e+01     3.2146e-05
    3.0784e+01     3.5289e-05
    3.1815e+01     3.8732e-05
    3.2881e+01     4.2502e-05
    3.3983e+01     4.6629e-05
    3.5121e+01     5.1146e-05
    3.6298e+01     5.6087e-05
    3.7514e+01     6.1491e-05
    3.8771e+01     6.7400e-05
    4.0069e+01     7.3859e-05
    4.1412e+01     8.0915e-05
    4.2799e+01     8.8624e-05
    4.4233e+01     9.7040e-05
    4.5715e+01     1.0623e-04
    4.7246e+01     1.1625e-04
    4.8829e+01     1.2719e-04
    5.0465e+01     1.3911e-04
    5.2156e+01     1.5210e-04
    5.3903e+01     1.6625e-04
    5.5709e+01     1.8167e-04
    5.7575e+01     1.9844e-04
    5.9504e+01     2.1670e-04
    6.1497e+01     2.3656e-04
    6.3557e+01     2.5814e-04
    6.5687e+01     2.8159e-04
    6.7887e+01     3.0707e-04
    7.0161e+01     3.3472e-04
    7.2512e+01     3.6474e-04
    7.4941e+01     3.9729e-04
    7.7452e+01     4.3259e-04
    8.0046e+01     4.7083e-04
    8.2728e+01     5.1224e-04
    8.5499e+01     5.5707e-04
    8.8364e+01     6.0557e-04
    9.1324e+01     6.5804e-04
    9.4383e+01     7.1475e-04
    9.7545e+01     7.7605e-04
    1.0081e+02     8.4228e-04
    1.0419e+02     9.1380e-04
    1.0768e+02     9.9098e-04
    1.1129e+02     1.0742e-03
    1.1502e+02     1.1639e-03
    1.1887e+02     1.2605e-03
    1.2285e+02     1.3645e-03
    1.2697e+02     1.4763e-03
    1.3122e+02     1.5965e-03
    1.3562e+02     1.7255e-03
    1.4016e+02     1.8640e-03
    1.4486e+02     2.0126e-03
    1.4971e+02     2.1718e-03
    1.5472e+02     2.3423e-03
    1.5991e+02     2.5249e-03
    1.6526e+02     2.7203e-03
    1.7080e+02     2.9291e-03
    1.7652e+02     3.1523e-03
    1.8244e+02     3.3906e-03
    1.8855e+02     3.6450e-03
    1.9486e+02     3.9163e-03
    2.0139e+02     4.2056e-03
    2.0814e+02     4.5140e-03
    2.1511e+02     4.8423e-03
    2.2232e+02     5.1916e-03
    2.2977e+02     5.5630e-03
    2.3746e+02     5.9574e-03
    2.4542e+02     6.3761e-03
    2.5364e+02     6.8200e-03
    2.6214e+02     7.2905e-03
    2.7092e+02     7.7886e-03
    2.8000e+02     8.3156e-03
    2.8938e+02     8.8728e-03
    2.9907e+02     9.4613e-03
    3.0909e+02     1.0082e-02
    3.1945e+02     1.0737e-02
    3.3015e+02     1.1427e-02
    3.4121e+02     1.2154e-02
    3.5264e+02     1.2918e-02
    3.6445e+02     1.3722e-02
    3.7666e+02     1.4566e-02
    3.8928e+02     1.5452e-02
    4.0232e+02     1.6380e-02
    4.1580e+02     1.7353e-02
    4.2973e+02     1.8372e-02
    4.4412e+02     1.9437e-02
    4.5900e+02     2.0551e-02
    4.7438e+02     2.1714e-02
    4.9027e+02     2.2929e-02
    5.0670e+02     2.4196e-02
    5.2367e+02     2.5516e-02
    5.4121e+02     2.6891e-02
    5.5935e+02     2.8323e-02
    5.7808e+02     2.9811e-02
    5.9745e+02     3.1360e-02
    6.1747e+02     3.2968e-02
    6.3815e+02     3.4639e-02
    6.5953e+02     3.6374e-02
    6.8162e+02     3.8175e-02
    7.0446e+02     4.0045e-02
    7.2806e+02     4.1986e-02
    7.5245e+02     4.3999e-02
    7.7766e+02     4.6084e-02
    8.0371e+02     4.8243e-02
    8.3064e+02     5.0477e-02
    8.5846e+02     5.2788e-02
    8.8722e+02     5.5175e-02
    9.1694e+02     5.7640e-02
    9.4766e+02     6.0186e-02
    9.7941e+02     6.2816e-02
    1.0122e+03     6.5537e-02
    1.0461e+03     6.8353e-02
    1.0812e+03     7.1264e-02
    1.1174e+03     7.4269e-02
    1.1548e+03     7.7370e-02
    1.1935e+03     8.0569e-02
    1.2335e+03     8.3868e-02
    1.2748e+03     8.7267e-02
    1.3175e+03     9.0771e-02
    1.3617e+03     9.4382e-02
    1.4073e+03     9.8104e-02
    1.4544e+03     1.0194e-01
    1.5032e+03     1.0590e-01
    1.5535e+03     1.0999e-01
    1.6056e+03     1.1420e-01
    1.6594e+03     1.1855e-01
    1.7149e+03     1.2303e-01
    1.7724e+03     1.2765e-01
    1.8318e+03     1.3241e-01
    1.8931e+03     1.3731e-01
    1.9566e+03     1.4236e-01
    2.0221e+03     1.4757e-01
    2.0898e+03     1.5294e-01
    2.1599e+03     1.5848e-01
    2.2322e+03     1.6419e-01
    2.3070e+03     1.7007e-01
    2.3843e+03     1.7612e-01
    2.4642e+03     1.8235e-01
    2.5467e+03     1.8876e-01
    2.6320e+03     1.9535e-01
    2.7202e+03     2.0213e-01
    2.8113e+03     2.0911e-01
    2.9055e+03     2.1628e-01
    3.0028e+03     2.2367e-01
    3.1034e+03     2.3129e-01
    3.2074e+03     2.3912e-01
    3.3149e+03     2.4713e-01
    3.4259e+03     2.5529e-01
    3.5407e+03     2.6356e-01
    3.6593e+03     2.7187e-01
    3.7819e+03     2.8008e-01
    3.9086e+03     2.8793e-01
    4.0395e+03     2.9542e-01
    4.1749e+03     3.0269e-01
    4.3147e+03     3.0983e-01
    4.4593e+03     3.1687e-01
    4.6087e+03     3.2382e-01
    4.7630e+03     3.3071e-01
    4.9226e+03     3.3754e-01
    5.0875e+03     3.4430e-01
    5.2580e+03     3.5098e-01
    5.4341e+03     3.5761e-01
    5.6162e+03     3.6421e-01
    5.8043e+03     3.7077e-01
    5.9987e+03     3.7730e-01
    6.1997e+03     3.8382e-01
    6.4074e+03     3.9031e-01
    6.6221e+03     3.9679e-01
    6.8439e+03     4.0324e-01
    7.0732e+03     4.0965e-01
    7.3101e+03     4.1603e-01
    7.5550e+03     4.2237e-01
    7.8081e+03     4.2868e-01
    8.0697e+03     4.3498e-01
    8.3401e+03     4.4127e-01
    8.6195e+03     4.4753e-01
    8.9082e+03     4.5378e-01
    9.2066e+03     4.6000e-01
    9.5151e+03     4.6619e-01
    9.8338e+03     4.7232e-01
    1.0163e+04     4.7834e-01
    1.0504e+04     4.8423e-01
    1.0856e+04     4.9003e-01
    1.1219e+04     4.9577e-01
    1.1595e+04     5.0145e-01
    1.1984e+04     5.0708e-01
    1.2385e+04     5.1267e-01
    1.2800e+04     5.1821e-01
    1.3229e+04     5.2372e-01
    1.3672e+04     5.2918e-01
    1.4130e+04     5.3462e-01
    1.4603e+04     5.4002e-01
    1.5093e+04     5.4539e-01
    1.5598e+04     5.5073e-01
    1.6121e+04     5.5604e-01
    1.6661e+04     5.6133e-01
    1.7219e+04     5.6658e-01
    1.7796e+04     5.7181e-01
    1.8392e+04     5.7701e-01
    1.9008e+04     5.8217e-01
    1.9645e+04     5.8731e-01
    2.0303e+04     5.9240e-01
    2.0983e+04     5.9745e-01
    2.1686e+04     6.0247e-01
    2.2413e+04     6.0745e-01
    2.3164e+04     6.1240e-01
    2.3940e+04     6.1732e-01
    2.4742e+04     6.2221e-01
    2.5570e+04     6.2708e-01
    2.6427e+04     6.3192e-01
    2.7312e+04     6.3674e-01
    2.8227e+04     6.4153e-01
    2.9173e+04     6.4630e-01
    3.0150e+04     6.5105e-01
    3.1160e+04     6.5577e-01
    3.2204e+04     6.6048e-01
    3.3283e+04     6.6516e-01
    3.4398e+04     6.6982e-01
    3.5551e+04     6.7446e-01
    3.6741e+04     6.7908e-01
    3.7972e+04     6.8369e-01
    3.9244e+04     6.8827e-01
    4.0559e+04     6.9284e-01
    4.1918e+04     6.9739e-01
    4.3322e+04     7.0192e-01
    4.4774e+04     7.0643e-01
    4.6274e+04     7.1091e-01
    4.7824e+04     7.1536e-01
    4.9426e+04     7.1977e-01
    5.1082e+04     7.2408e-01
    5.2793e+04     7.2832e-01
    5.4562e+04     7.3249e-01
    5.6389e+04     7.3662e-01
    5.8278e+04     7.4072e-01
    6.0231e+04     7.4478e-01
    6.2249e+04     7.4882e-01
    6.4334e+04     7.5282e-01
    6.6489e+04     7.5681e-01
    6.8717e+04     7.6077e-01
    7.1019e+04     7.6470e-01
    7.3398e+04     7.6862e-01
    7.5857e+04     7.7251e-01
    7.8398e+04     7.7639e-01
    8.1025e+04     7.8024e-01
    8.3739e+04     7.8407e-01
    8.6544e+04     7.8789e-01
    8.9444e+04     7.9168e-01
    9.2440e+04     7.9546e-01
    9.5537e+04     7.9921e-01
    9.8737e+04     8.0295e-01
    1.0205e+05     8.0665e-01
    1.0546e+05     8.1033e-01
    1.0900e+05     8.1399e-01
    1.1265e+05     8.1763e-01
    1.1642e+05     8.2124e-01
    1.2032e+05     8.2484e-01
    1.2435e+05     8.2842e-01
    1.2852e+05     8.3198e-01
    1.3282e+05     8.3553e-01
    1.3727e+05     8.3905e-01
    1.4187e+05     8.4256e-01
    1.4663e+05     8.4606e-01
    1.5154e+05     8.4953e-01
    1.5662e+05     8.5299e-01
    1.6186e+05     8.5643e-01
    1.6728e+05     8.5986e-01
    1.7289e+05     8.6327e-01
    1.7868e+05     8.6666e-01
    1.8467e+05     8.7004e-01
    1.9085e+05     8.7340e-01
    1.9725e+05     8.7674e-01
    2.0385e+05     8.8007e-01
    2.1068e+05     8.8338e-01
    2.1774e+05     8.8667e-01
    2.2504e+05     8.8995e-01
    2.3258e+05     8.9321e-01
    2.4037e+05     8.9646e-01
    2.4842e+05     8.9969e-01
    2.5674e+05     9.0291e-01
    2.6534e+05     9.0611e-01
    2.7423e+05     9.0929e-01
    2.8342e+05     9.1246e-01
    2.9291e+05     9.1561e-01
    3.0273e+05     9.1875e-01
    3.1287e+05     9.2187e-01
    3.2335e+05     9.2497e-01
    3.3418e+05     9.2806e-01
    3.4538e+05     9.3113e-01
    3.5695e+05     9.3419e-01
    3.6891e+05     9.3723e-01
    3.8126e+05     9.4025e-01
    3.9404e+05     9.4326e-01
    4.0724e+05     9.4625e-01
    4.2088e+05     9.4923e-01
    4.3498e+05     9.5219e-01
    4.4955e+05     9.5514e-01
    4.6461e+05     9.5806e-01
    4.8018e+05     9.6098e-01
    4.9626e+05     9.6387e-01
    5.1289e+05     9.6674e-01
    5.3007e+05     9.6960e-01
    5.4783e+05     9.7244e-01
    5.6618e+05     9.7526e-01
    5.8515e+05     9.7806e-01
    6.0475e+05     9.8085e-01
    6.2501e+05     9.8362e-01
    6.4595e+05     9.8637e-01
    6.6759e+05     9.8911e-01
    6.8996e+05     9.9182e-01
    7.1307e+05     9.9452e-01
    7.3696e+05     9.9721e-01
    7.6165e+05     9.9987e-01
    7.8716e+05     1.0025e+00
    8.1353e+05     1.0051e+00
    8.4079e+05     1.0078e+00
    8.6895e+05     1.0103e+00
    8.9806e+05     1.0129e+00
    9.2815e+05     1.0155e+00
    9.5924e+05     1.0180e+00
    9.9138e+05     1.0206e+00
    1.0246e+06     1.0233e+00
    1.0589e+06     1.0260e+00
    1.0944e+06     1.0288e+00
    1.1311e+06     1.0315e+00
    1.1689e+06     1.0343e+00
    1.2081e+06     1.0370e+00
    1.2486e+06     1.0397e+00
    1.2904e+06     1.0424e+00
    1.3336e+06     1.0451e+00
    1.3783e+06     1.0478e+00
    1.4245e+06     1.0505e+00
    1.4722e+06     1.0532e+00
    1.5215e+06     1.0558e+00
    1.5725e+06     1.0584e+00
    1.6252e+06     1.0611e+00
    1.6796e+06     1.0637e+00
    1.7359e+06     1.0663e+00
    1.7941e+06     1.0689e+00
    1.8542e+06     1.0714e+00
    1.9163e+06     1.0740e+00
    1.9805e+06     1.0766e+00
    2.0468e+06     1.0791e+00
    2.1154e+06     1.0816e+00
    2.1863e+06     1.0842e+00
    2.2595e+06     1.0867e+00
    2.3352e+06     1.0892e+00
    2.4134e+06     1.0916e+00
    2.4943e+06     1.0941e+00
    2.5778e+06     1.0966e+00
    2.6642e+06     1.0990e+00
    2.7534e+06     1.1014e+00
    2.8457e+06     1.1039e+00
    2.9410e+06     1.1063e+00
    3.0395e+06     1.1087e+00
    3.1414e+06     1.1111e+00
    3.2466e+06     1.1135e+00
    3.3554e+06     1.1158e+00
    3.4678e+06     1.1182e+00
    3.5840e+06     1.1205e+00
    3.7040e+06     1.1229e+00
    3.8281e+06     1.1252e+00
    3.9564e+06     1.1275e+00
    4.0889e+06     1.1298e+00
    4.2259e+06     1.1321e+00
    4.3674e+06     1.1344e+00
    4.5138e+06     1.1367e+00
    4.6650e+06     1.1390e+00
    4.8213e+06     1.1413e+00
    4.9828e+06     1.1435e+00
    5.1497e+06     1.1458e+00
    5.3222e+06     1.1481e+00
    5.5005e+06     1.1504e+00
    5.6848e+06     1.1526e+00
    5.8752e+06     1.1549e+00
    6.0721e+06     1.1571e+00
    6.2755e+06     1.1594e+00
    6.4857e+06     1.1616e+00
    6.7030e+06     1.1638e+00
    6.9275e+06     1.1660e+00
    7.1596e+06     1.1683e+00
    7.3995e+06     1.1705e+00
    7.6474e+06     1.1726e+00
    7.9036e+06     1.1748e+00
    8.1683e+06     1.1770e+00
    8.4420e+06     1.1791e+00
    8.7248e+06     1.1813e+00
    9.0171e+06     1.1834e+00
    9.3192e+06     1.1855e+00
    9.6314e+06     1.1876e+00
    9.9540e+06     1.1897e+00
    1.0287e+07     1.1917e+00
    1.0632e+07     1.1938e+00
    1.0988e+07     1.1958e+00
    1.1356e+07     1.1979e+00
    1.1737e+07     1.1999e+00
    1.2130e+07     1.2019e+00
    1.2536e+07     1.2038e+00
    1.2956e+07     1.2058e+00
    1.3390e+07     1.2078e+00
    1.3839e+07     1.2097e+00
    1.4303e+07     1.2117e+00
    1.4782e+07     1.2136e+00
    1.5277e+07     1.2155e+00
    1.5789e+07     1.2174e+00
    1.6318e+07     1.2193e+00
    1.6864e+07     1.2211e+00
    1.7429e+07     1.2230e+00
    1.8013e+07     1.2249e+00
    1.8617e+07     1.2267e+00
    1.9240e+07     1.2286e+00
    1.9885e+07     1.2304e+00
    2.0551e+07     1.2322e+00
    2.1240e+07     1.2340e+00
    2.1951e+07     1.2358e+00
    2.2687e+07     1.2377e+00
    2.3447e+07     1.2395e+00
    2.4232e+07     1.2412e+00
    2.5044e+07     1.2430e+00
    2.5883e+07     1.2448e+00
    2.6750e+07     1.2466e+00
    2.7646e+07     1.2483e+00
    2.8572e+07     1.2501e+00
    2.9530e+07     1.2518e+00
    3.0519e+07     1.2536e+00
    3.1541e+07     1.2553e+00
    3.2598e+07     1.2570e+00
    3.3690e+07     1.2588e+00
    3.4819e+07     1.2605e+00
    3.5985e+07     1.2622e+00
    3.7191e+07     1.2639e+00
    3.8436e+07     1.2655e+00
    3.9724e+07     1.2672e+00
    4.1055e+07     1.2689e+00
    4.2430e+07     1.2705e+00
    4.3852e+07     1.2722e+00
    4.5321e+07     1.2738e+00
    4.6839e+07     1.2754e+00
    4.8408e+07     1.2771e+00
    5.0030e+07     1.2787e+00
    5.1706e+07     1.2803e+00
    5.3438e+07     1.2819e+00
    5.5228e+07     1.2835e+00
    5.7079e+07     1.2851e+00
    5.8991e+07     1.2867e+00
    6.0967e+07     1.2882e+00
    6.3009e+07     1.2898e+00
    6.5120e+07     1.2914e+00
    6.7302e+07     1.2929e+00
    6.9557e+07     1.2945e+00
    7.1887e+07     1.2960e+00
    7.4295e+07     1.2976e+00
    7.6784e+07     1.2991e+00
    7.9356e+07     1.3007e+00
    8.2015e+07     1.3022e+00
    8.4762e+07     1.3037e+00
    8.7602e+07     1.3052e+00
    9.0537e+07     1.3067e+00
    9.3570e+07     1.3079e+00
    9.6704e+07     1.3051e+00
    9.9944e+07     1.2397e+00
